EDI_BOCHG_20170131
TableName	Actflag	Created	Changed	BochgID	RelEventID	SecID	ISIN	EffectiveDate	OldOutValue	NewOutValue	EventType	OldOutDate	NewOutDate	Notes
BOCHG	D	2014/01/16	2017/01/31	860389		3969628	XS0880578728	2014/01/15	155.00000	154.98500	CORR	2013/12/02	2014/01/15	
BOCHG	D	2014/01/22	2017/01/31	863120		3969628	XS0880578728	2014/01/21	154.98500	155.00000	CORR	2014/01/15	2014/01/21	
BOCHG	D	2014/04/18	2017/01/31	907891		3969628	XS0880578728	2014/04/16	155.00000	154.95200	CORR	2014/01/21	2014/04/16	
BOCHG	D	2014/06/27	2017/01/30	946993		2752148	GB00B6HZ3S81	2014/06/25	50.00000	3.90000	CORR	2011/05/23	2014/06/25	
BOCHG	D	2014/09/23	2017/01/31	998057	1467051	504921	XS0201115697	2014/09/23	5.00000		REDEM	2004/09/23	2014/09/23	
BOCHG	I	2017/01/31	2017/01/31	1074722		1802555	XS0490455069	2015/01/29	625.00000	700.00000	REISS	2014/09/19	2015/01/29	
BOCHG	I	2015/03/24	2015/03/24	1110431	1595784	4419091	GB00BNFX5655	2015/03/20	20.00000	4.11558	REDEM	2015/01/02	2015/03/20	
BOCHG	I	2015/05/28	2015/05/28	1156817	1643411	4475673	GB00BNFX5N25	2015/05/26	30.00000	14.69172	REDEM	2015/03/02	2015/05/26	
BOCHG	I	2015/06/27	2015/06/29	1175998	1664624	4475673	GB00BNFX5N25	2015/06/23	14.69172	4.69172	REDEM	2015/05/26	2015/06/23	
BOCHG	D	2015/09/03	2016/05/26	1220642		4400258	XS1148552190	2015/07/30	75.00000	16.00000	CORR	2014/12/09	2015/07/30	
BOCHG	D	2015/10/23	2017/01/30	1253955		4168719	RU000A0JUD42	2015/10/21	5000.00000	2000.00000	CORR	2013/12/25	2015/10/21	As on 21/10/2015 - (As per RU_FI_RU000A0JUD42_151021.docx)<BR>-------------------------------------------------------------------------------------------<BR>As per the Issuer reply, the current outstanding amount is 2 000 000 000 RUB.
BOCHG	I	2017/01/31	2017/01/31	1259261	2097626	4110033	US56656UAE29	2015/10/28	51.33600	29.11000	REDEM	2014/07/03	2015/10/28	
BOCHG	I	2017/01/31	2017/01/31	1259262	2097627	4109214	USN54468AC22	2015/10/28	51.33600	29.11000	REDEM	2014/07/03	2015/10/28	
BOCHG	D	2015/12/18	2017/01/30	1287779		4456822	DE000A14J5C9	2015/02/27	150.00000	300.00000	CORR	2015/02/26	2015/02/26	
BOCHG	I	2016/04/27	2016/04/27	1366215	1871637	4475673	GB00BNFX5N25	2016/04/26	4.69172	4.64172	REDEM	2015/06/23	2016/04/26	
BOCHG	I	2016/05/20	2016/05/20	1384084	1890633	4475673	GB00BNFX5N25	2016/05/19	4.64172	4.61772	REDEM	2016/04/26	2016/05/19	
BOCHG	I	2016/05/31	2016/05/31	1390828	1897996	4400258	XS1148552190	2015/12/10	75.00000	66.66668	REDEM	2014/12/09	2015/12/10	
BOCHG	I	2016/05/31	2016/05/31	1390833	1897997	4400258	XS1148552190	2016/03/10	66.66668	58.33335	REDEM	2015/12/10	2016/03/10	
BOCHG	I	2017/01/31	2017/01/31	1392177		4756841	DE000NWB2ES4	2016/04/22	75.00000	75.00000	CORR	2016/04/21	2016/04/21	
BOCHG	I	2016/06/11	2016/06/13	1399055		4400258	XS1148552190	2016/06/10	58.33335	50.00003	REDEM	2016/03/10	2016/06/10	
BOCHG	I	2017/01/30	2017/01/30	1408499		4516684	US78636XAC92	2016/06/23	150.00000	140.00000	CORR	2015/06/19	2016/06/23	
BOCHG	I	2017/01/30	2017/01/30	1428943	95249	4516684	US78636XAC92	2016/07/27	140.00000	1.87200	CONV	2016/06/23	2016/07/27	
BOCHG	I	2017/01/30	2017/01/30	1445912		4432296	BY52642B1907	2016/07/01	5040.00000	0.50400	CORR	2014/12/15	2016/07/01	
BOCHG	I	2017/01/30	2017/01/30	1447051	95250	4526011	USU31538AF51	2016/06/30	500.00000	0.01500	CONV	2015/06/08	2016/06/30	
BOCHG	I	2017/01/30	2017/01/30	1447052	95251	4527004	US315292AQ58	2016/06/30	500.00000	0.01500	CONV	2015/06/08	2016/06/30	
BOCHG	I	2017/01/30	2017/01/30	1448170		4167576	BY62422A7843	2016/07/01	1000000.00000	100.00000	CORR	2013/08/26	2016/07/01	
BOCHG	I	2016/09/06	2016/09/06	1453590	1972385	4475673	GB00BNFX5N25	2016/09/01	4.61772	4.46772	REDEM	2016/05/19	2016/09/01	
BOCHG	D	2016/10/17	2017/01/30	1482490	1983105	4128186	XS0982794157	2016/10/17	1.75000		REDEM	2013/10/17	2016/10/17	
BOCHG	I	2017/01/30	2017/01/30	1511626	2096398	351304	XS0248866542	2016/12/01	8.69158	8.53581	REDEM	2016/09/01	2016/12/01	
BOCHG	U	2017/01/30	2017/01/30	1529087	4425	4421626	XS1167129110	2016/12/23	1350.00000	4100.00000	TRNCH	2016/04/29	2016/12/23	The New bond O/s amount has been derived from following tranches:<BR>Tranche No.  Tranche ID   Tranche Amount<BR>--------------------------------------------------------------------------<BR>         5                  3696           150.00000<BR>         6                  3766           150.00000<BR>         7                  4418           100.00000<BR>         8                  4419           300.00000<BR>         9                  4420           300.00000<BR>        10                  4421           350.00000<BR>        11                  4422           300.00000<BR>        12                  4423           250.00000<BR>        13                  4424           650.00000<BR>        14                  4425           200.00000<BR>
BOCHG	I	2017/01/31	2017/01/31	1530999	2097312	4517661	XS1233785804	2016/11/30	79.70752	79.25933	REDEM	2016/11/23	2016/11/30	
BOCHG	I	2017/01/04	2017/01/04	1535762		5009551	XS1100838405	2016/12/07	10.00000	13.00000	CORR	2017/02/03	2017/02/03	
BOCHG	I	2017/01/30	2017/01/30	1537432	2096389	4823650	XS1443120073	2017/01/06	5.00000		REDEM	2016/07/13	2017/01/06	
BOCHG	I	2017/01/31	2017/01/31	1540412	2097439	4683222	HU0000508668	2017/01/11	71747.88000		REDEM	2016/12/31	2017/01/11	
BOCHG	I	2017/01/30	2017/01/30	1540457	2096575	4829659	HU0000508932	2017/01/11	13443.88000		REDEM	2016/12/31	2017/01/11	
BOCHG	D	2017/01/17	2017/01/31	1545515	2059799	557821	XS0272414508	2017/01/17	32.04800		REDEM	2006/10/30	2017/01/17	
BOCHG	I	2017/01/27	2017/01/27	1546190	2093705	4400258	XS1148552190	2017/01/13	33.33330		REDEM	2016/12/12	2017/01/13	
BOCHG	I	2017/01/31	2017/01/31	1546484	2097476	4688013	HU0000508676	2017/01/18	56365.71000		REDEM	2016/12/31	2017/01/18	
BOCHG	I	2017/01/30	2017/01/30	1546524	2096579	4837188	HU0000509252	2017/01/18	14537.04000		REDEM	2016/12/31	2017/01/18	
BOCHG	I	2017/01/30	2017/01/30	1546989		5007458	FR0123934715	2017/01/11	1565.00000	3016.00000	REISS	2017/01/04	2017/01/11	
BOCHG	I	2017/01/30	2017/01/30	1546991		5007458	FR0123934715	2017/01/18	3016.00000	4688.00000	REISS	2017/01/11	2017/01/18	
BOCHG	I	2017/01/24	2017/01/24	1550996		4974284	XS1457442025	2016/12/22	100.00000	100.00000	CORR	2016/12/21	2017/01/20	
BOCHG	I	2017/01/31	2017/01/31	1551317	2097479	4693863	HU0000508692	2017/01/25	49305.05000		REDEM	2016/12/31	2017/01/25	
BOCHG	I	2017/01/30	2017/01/30	1551351	2096580	4843425	HU0000509260	2017/01/25	15175.27000		REDEM	2016/12/31	2017/01/25	
BOCHG	I	2017/01/30	2017/01/30	1552450		5007458	FR0123934715	2017/01/25	4688.00000	6612.00000	REISS	2017/01/18	2017/01/25	
BOCHG	I	2017/01/30	2017/01/30	1554760		4053915	US03834AAA16	2017/01/26	250.00000	230.32000	CORR	2013/06/11	2017/01/26	
BOCHG	I	2017/01/30	2017/01/30	1552680		5026905	XS1521771946	2017/01/26	4.88500	6.63000	CORR	2017/01/25	2017/01/25	
BOCHG	I	2017/01/27	2017/01/27	1553306	2093682	4400258	XS1148552190	2016/09/09	50.00003	41.66670	REDEM	2016/06/10	2016/09/09	
BOCHG	I	2017/01/27	2017/01/27	1553313	2093686	4400258	XS1148552190	2016/12/12	41.66670	33.33330	REDEM	2016/09/09	2016/12/12	
BOCHG	I	2017/01/27	2017/01/27	1553504		5015639	XS1549365994	2017/01/25	110.00000	119.00000	CORR	2017/01/24	2017/01/24	
BOCHG	I	2017/01/27	2017/01/27	1553521		5023838	XS1554461373	2017/01/26	53.50000	61.50000	CORR	2017/01/30	2017/01/30	
BOCHG	I	2017/01/28	2017/01/30	1553558		5032199	SE0009496367	2017/01/28	5000.00000	3000.00000	CLEAN	2017/01/30	2017/01/27	
BOCHG	I	2017/01/30	2017/01/30	1553629	2067523	216019	XS0209839066	2017/01/28	20.00000		REDEM	2005/01/28	2017/01/28	
BOCHG	I	2017/01/30	2017/01/30	1553630	2067524	1401852	US66704JBA51	2017/01/28	150.00000		REDEM	2004/12/15	2017/01/28	
BOCHG	I	2017/01/30	2017/01/30	1553639	2067534	2401672	USP89610AA06	2017/01/28	55.42708		REDEM	2016/01/28	2017/01/28	
BOCHG	I	2017/01/30	2017/01/30	1553640	2067535	3221873	US876155AA04	2017/01/28	11.25292		REDEM	2016/01/28	2017/01/28	
BOCHG	I	2017/01/30	2017/01/30	1553641	2067536	3517018	DE000A1MLN33	2017/01/28	5.00000		REDEM	2012/01/28	2017/01/28	
BOCHG	I	2017/01/30	2017/01/30	1553654	2067560	4190490	IT0004991524	2017/01/28	2.00000		REDEM	2014/01/28	2017/01/28	
BOCHG	I	2017/01/30	2017/01/30	1553666	2067582	4430661	IT0005082760	2017/01/28	29.50100		REDEM	2015/01/27	2017/01/28	
BOCHG	I	2017/01/30	2017/01/30	1553674	2067592	4692494	DE000A18XBK6	2017/01/28	75.00000		REDEM	2016/02/02	2017/01/28	
BOCHG	I	2017/01/30	2017/01/30	1553699	2067659	4700245		2017/01/28	0.04400		REDEM	2016/01/28	2017/01/28	
BOCHG	I	2017/01/30	2017/01/30	1553702	2084857	4465217	DE000A13SJ79	2017/01/28	2.50000		REDEM	2015/01/30	2017/01/28	
BOCHG	I	2017/01/30	2017/01/30	1553705	2072475	175296	XS0183307338	2017/01/28	1.32933	1.32462	REDEM	2016/12/28	2017/01/28	
BOCHG	I	2017/01/30	2017/01/30	1553706	2072482	179807	XS0190437201	2017/01/28	7.72695	7.67517	REDEM	2016/12/28	2017/01/28	
BOCHG	I	2017/01/30	2017/01/30	1553707	2077608	4423052	XS1074238269	2017/01/28	71.43800	20.34800	REDEM	2016/07/28	2017/01/28	
BOCHG	I	2017/01/30	2017/01/30	1553708	2077611	4423034	XS1074238855	2017/01/28	253.02800	178.59200	REDEM	2016/08/09	2017/01/28	
BOCHG	I	2017/01/30	2017/01/30	1553709	2077612	4423046	XS1074239747	2017/01/28	10.69900	10.00400	REDEM	2016/08/09	2017/01/28	
BOCHG	I	2017/01/30	2017/01/30	1553717	2093386	2028663	XS0528721623	2017/01/28	600.00000	525.00000	REDEM	2016/07/28	2017/01/28	
BOCHG	I	2017/01/30	2017/01/30	1553720	2093816	4561703	IT0005123507	2017/01/28	4400.11000	4200.13000	REDEM	2016/10/28	2017/01/28	
BOCHG	I	2017/01/30	2017/01/30	1553721	2093823	4839105	IT0005204695	2017/01/28	2100.00600	1400.03100	REDEM	2016/10/28	2017/01/28	
BOCHG	I	2017/01/30	2017/01/30	1553722	94260	4704157		2017/01/28	0.08600		CONV	2016/01/28	2017/01/28	
BOCHG	I	2017/01/30	2017/01/30	1553725	2068055	1298423	FR0010706606	2017/01/29	2026.32100		REDEM	2016/04/27	2017/01/29	
BOCHG	I	2017/01/30	2017/01/30	1553729	2068059	1760641	IT0004567019	2017/01/29	15.00000		REDEM	2010/01/29	2017/01/29	
BOCHG	I	2017/01/30	2017/01/30	1553730	2068060	1761340	IT0004569304	2017/01/29	3.28300		REDEM	2010/02/02	2017/01/29	
BOCHG	I	2017/01/30	2017/01/30	1553731	2068061	1765640	IT0004573538	2017/01/29	20.00000		REDEM	2010/01/29	2017/01/29	
BOCHG	I	2017/01/30	2017/01/30	1553732	2068062	1774951	US74955WAL37	2017/01/29	300.00000		REDEM	2010/01/29	2017/01/29	
BOCHG	I	2017/01/30	2017/01/30	1553733	2068063	1796382	US25212WAA80	2017/01/29	260.94353		REDEM	2015/03/31	2017/01/29	
BOCHG	I	2017/01/30	2017/01/30	1553734	2068064	1841883	IT0004575038	2017/01/29	5.00000		REDEM	2010/01/29	2017/01/29	
BOCHG	I	2017/01/30	2017/01/30	1553737	2068069	2881835	XS0653886183	2017/01/29	300.00000		REDEM	2011/07/29	2017/01/29	
BOCHG	I	2017/01/30	2017/01/30	1553741	2068086	4079066	USY4948QAQ56	2017/01/29	300.00000		REDEM	2011/07/29	2017/01/29	
BOCHG	I	2017/01/30	2017/01/30	1553742	2068090	4186002	HK0000182953	2017/01/29	850.00000		REDEM	2014/01/29	2017/01/29	
BOCHG	I	2017/01/30	2017/01/30	1553744	2068093	4204536	IT0004991136	2017/01/29	7.82500		REDEM	2014/01/29	2017/01/29	
BOCHG	I	2017/01/30	2017/01/30	1553749	2068100	4459717		2017/01/29	10.00000		REDEM	2015/01/29	2017/01/29	
BOCHG	I	2017/01/30	2017/01/30	1553754	2068106	4693616	XS1353957571	2017/01/29	100.00000		REDEM	2016/01/29	2017/01/29	
BOCHG	I	2017/01/30	2017/01/30	1553766	2068122	4697442		2017/01/29	5.00000		REDEM	2016/01/29	2017/01/29	
BOCHG	I	2017/01/30	2017/01/30	1553769	2068125	4700656	HU0000356803	2017/01/29	3.95190		REDEM	2016/02/29	2017/01/29	
BOCHG	I	2017/01/30	2017/01/30	1553770	2068126	4705286	AT0000A1HRE9	2017/01/29	5.00000		REDEM	2016/01/29	2017/01/29	
BOCHG	I	2017/01/30	2017/01/30	1553771	2068127	4705291	AT0000A1HRF6	2017/01/29	5.00000		REDEM	2016/01/29	2017/01/29	
BOCHG	I	2017/01/30	2017/01/30	1553772	2068128	4705295	AT0000A1HRG4	2017/01/29	50.00000		REDEM	2016/01/29	2017/01/29	
BOCHG	I	2017/01/30	2017/01/30	1553773	2068129	4705297	AT0000A1HRL4	2017/01/29	50.00000		REDEM	2016/01/29	2017/01/29	
BOCHG	I	2017/01/30	2017/01/30	1553798	2088467	4814840	BG2100010151	2017/01/29	5.51000	5.22000	REDEM	2016/10/29	2017/01/29	
BOCHG	I	2017/01/30	2017/01/30	1553804	4332	4561499	XS1262884171	2017/01/29	30.00000	50.00000	TRNCH	2015/07/22	2017/01/29	
BOCHG	I	2017/01/30	2017/01/30	1553805	3746	4692131	XS1353555003	2017/01/29	1250.00000	1500.00000	TRNCH	2016/01/29	2017/01/29	
BOCHG	I	2017/01/30	2017/01/30	1553808	2067519	4239341	XS1040096973	2017/01/30	243.00000		REDEM	2014/03/27	2017/01/30	
BOCHG	I	2017/01/30	2017/01/30	1553810	2067521	4239450	XS1040097278	2017/01/30	47.00000		REDEM	2014/03/27	2017/01/30	
BOCHG	I	2017/01/30	2017/01/30	1553814	2068558	209283	FR0010139709	2017/01/30	500.00000		REDEM	2004/12/09	2017/01/30	
BOCHG	I	2017/01/30	2017/01/30	1553815	2068559	239178	FR0000488017	2017/01/30	1000.00000		REDEM	2002/01/30	2017/01/30	
BOCHG	I	2017/01/30	2017/01/30	1553818	2068562	300646	XS0142165967	2017/01/30	29.90000		REDEM	2002/01/30	2017/01/30	
BOCHG	I	2017/01/30	2017/01/30	1553819	2068563	442268	DE000A0LDDF2	2017/01/30	20.00000		REDEM	2006/11/22	2017/01/30	
BOCHG	I	2017/01/30	2017/01/30	1553820	2068565	486709	PTCMHEOM0009	2017/01/30	85.00000		REDEM	2007/02/08	2017/01/30	
BOCHG	I	2017/01/30	2017/01/30	1553821	2068566	491272	XS0142588689	2017/01/30	12.00000		REDEM	2002/01/30	2017/01/30	
BOCHG	I	2017/01/30	2017/01/30	1553822	2068567	494951	XS0284603254	2017/01/30	1.00000		REDEM	2007/01/30	2017/01/30	
BOCHG	I	2017/01/30	2017/01/30	1553823	2068568	494961	XS0284603684	2017/01/30	11.00000		REDEM	2007/01/30	2017/01/30	
BOCHG	I	2017/01/30	2017/01/30	1553824	2068569	501887	XS0142258978	2017/01/30	4600.00000		REDEM	2002/01/30	2017/01/30	
BOCHG	I	2017/01/30	2017/01/30	1553825	2068570	502840	XS0284727814	2017/01/30	1000.00000		REDEM	2007/01/30	2017/01/30	
BOCHG	I	2017/01/30	2017/01/30	1553826	2068571	502865	XS0284710257	2017/01/30	1373.90600		REDEM	2015/09/17	2017/01/30	
BOCHG	I	2017/01/30	2017/01/30	1553827	2068575	539147	XS0281902550	2017/01/30	502.95800		REDEM	2014/05/19	2017/01/30	
BOCHG	I	2017/01/30	2017/01/30	1553834	2068582	543018	XS0283695491	2017/01/30	2.00000		REDEM	2007/01/30	2017/01/30	
BOCHG	I	2017/01/30	2017/01/30	1553836	2068584	543167	XS0285107057	2017/01/30	25.00000		REDEM	2007/01/30	2017/01/30	
BOCHG	I	2017/01/30	2017/01/30	1553837	2068585	543424	XS0284728465	2017/01/30	1500.00000		REDEM	2007/01/30	2017/01/30	
BOCHG	I	2017/01/30	2017/01/30	1553841	2068589	562741	AU3CB0015832	2017/01/30	250.00000		REDEM	2007/01/30	2017/01/30	
BOCHG	I	2017/01/30	2017/01/30	1553842	2068590	573408	DE000A0MFJQ9	2017/01/30	2.00000		REDEM		2017/01/30	
BOCHG	I	2017/01/30	2017/01/30	1553845	2068594	704723	IT0004178791	2017/01/30	10.00000		REDEM	2007/01/30	2017/01/30	
BOCHG	I	2017/01/30	2017/01/30	1553846	2068596	722006	XS0325204997	2017/01/30	5.00000		REDEM	2007/10/25	2017/01/30	
BOCHG	I	2017/01/30	2017/01/30	1553847	2068597	745204	USP5881CAB56	2017/01/30	31.65100		REDEM	2010/03/08	2017/01/30	
BOCHG	I	2017/01/30	2017/01/30	1553848	2068598	749145	AT000B074836	2017/01/30	49.00000		REDEM		2017/01/30	
BOCHG	I	2017/01/30	2017/01/30	1553849	2068599	811227	US45007PAB85	2017/01/30	31.65100		REDEM	2010/03/08	2017/01/30	
BOCHG	I	2017/01/30	2017/01/30	1553852	2068602	1246409	FR0010682781	2017/01/30	5.00500		REDEM	2016/12/01	2017/01/30	
BOCHG	I	2017/01/30	2017/01/30	1553857	2068607	1404674	IT0004016926	2017/01/30	118.50000		REDEM	2006/03/24	2017/01/30	
BOCHG	I	2017/01/30	2017/01/30	1553862	2068613	2035096	US393106AC32	2017/01/30	40.00000		REDEM	2004/12/08	2017/01/30	
BOCHG	I	2017/01/30	2017/01/30	1553867	2068618	2832818	DE000VB0AR24	2017/01/30	5.00000		REDEM	2011/01/30	2017/01/30	
BOCHG	I	2017/01/30	2017/01/30	1553868	2068619	2843141	US459050BN90	2017/01/30	3.00000		REDEM	1987/01/23	2017/01/30	
BOCHG	I	2017/01/30	2017/01/30	1553869	2068620	2849834	US459050BQ22	2017/01/30	15.00000		REDEM	1987/01/27	2017/01/30	
BOCHG	I	2017/01/30	2017/01/30	1553870	2068621	2850277	US459050BM18	2017/01/30	5.00000		REDEM	1987/01/23	2017/01/30	
BOCHG	I	2017/01/30	2017/01/30	1553873	2068624	3403682	XS0725074958	2017/01/30	33.60000		REDEM	2012/01/30	2017/01/30	
BOCHG	I	2017/01/30	2017/01/30	1553874	2068625	3403707	XS0725257017	2017/01/30	190.00000		REDEM	2012/01/30	2017/01/30	
BOCHG	I	2017/01/30	2017/01/30	1553878	2068629	3438480	US313376SG13	2017/01/30	12.50000		REDEM	2012/01/10	2017/01/30	
BOCHG	I	2017/01/30	2017/01/30	1553879	2068630	3459350	US3135G0GY31	2017/01/30	5000.00000		REDEM	2012/01/09	2017/01/30	
BOCHG	I	2017/01/30	2017/01/30	1553884	2068635	3482886	US06415CAC38	2017/01/30	2500.00000		REDEM	2012/01/30	2017/01/30	
BOCHG	I	2017/01/30	2017/01/30	1553885	2068636	3482889	US06415DAC11	2017/01/30	2500.00000		REDEM	2012/01/30	2017/01/30	
BOCHG	I	2017/01/30	2017/01/30	1553886	2068637	3483059	XS0739654118	2017/01/30	100.00000		REDEM	2012/01/30	2017/01/30	
BOCHG	I	2017/01/30	2017/01/30	1553887	2068638	3483128	XS0739236973	2017/01/30	1670.00000		REDEM	2015/05/11	2017/01/30	
BOCHG	I	2017/01/30	2017/01/30	1553888	2068639	3487867	US063679ZT48	2017/01/30	2000.00000		REDEM	2012/01/30	2017/01/30	
BOCHG	I	2017/01/30	2017/01/30	1553889	2068640	3488451	XS0739718707	2017/01/30	80.00000		REDEM	2012/01/30	2017/01/30	
BOCHG	I	2017/01/30	2017/01/30	1553890	2068641	3498448	XS0549926029	2017/01/30	2.50000		REDEM	2012/01/30	2017/01/30	
BOCHG	I	2017/01/30	2017/01/30	1553891	2068642	3498456	USC3331CDA92	2017/01/30	2000.00000		REDEM	2012/01/30	2017/01/30	
BOCHG	I	2017/01/30	2017/01/30	1553892	2068643	3498459	XS0549895125	2017/01/30	4.30000		REDEM	2012/01/30	2017/01/30	
BOCHG	I	2017/01/30	2017/01/30	1553893	2068644	3498926	DE000HLB2CN0	2017/01/30	5.00000		REDEM	2012/01/30	2017/01/30	
BOCHG	I	2017/01/30	2017/01/30	1553897	2068648	3504118	DE000DB7XNZ0	2017/01/30	55.00000		REDEM	2012/01/30	2017/01/30	
BOCHG	I	2017/01/30	2017/01/30	1553899	2068650	3522874	US313376WF83	2017/01/30	15.00000		REDEM	2012/01/30	2017/01/30	
BOCHG	I	2017/01/30	2017/01/30	1553901	2068652	3547603	DE000A1MLN41	2017/01/30	20.00000		REDEM	2012/01/30	2017/01/30	
BOCHG	I	2017/01/30	2017/01/30	1553902	2068653	3547793	DE000A1KQW54	2017/01/30	100.00000		REDEM	2012/01/30	2017/01/30	
BOCHG	I	2017/01/30	2017/01/30	1553903	2068654	3553240	DE000CB83HU8	2017/01/30	177.00000		REDEM	2012/01/30	2017/01/30	
BOCHG	I	2017/01/30	2017/01/30	1553905	2068656	3562280	DE000HV2AFA0	2017/01/30	15.00000		REDEM	2012/01/30	2017/01/30	
BOCHG	I	2017/01/30	2017/01/30	1553906	2068657	3564111	DE000NLB6683	2017/01/30	200.00000		REDEM	2012/01/30	2017/01/30	
BOCHG	I	2017/01/30	2017/01/30	1553907	2068659	3586239	DE000A1MLV82	2017/01/30	5.00000		REDEM	2012/01/30	2017/01/30	
BOCHG	I	2017/01/30	2017/01/30	1553908	2068660	3652321	XS0549910619	2017/01/30	1.20000		REDEM	2012/01/30	2017/01/30	
BOCHG	I	2017/01/30	2017/01/30	1553909	2068661	3845907	US4042K1UX99	2017/01/30	1.72000		REDEM	2012/01/30	2017/01/30	
BOCHG	I	2017/01/30	2017/01/30	1553910	2068663	3956191	XS0868872820	2017/01/30	5.20000		REDEM	2013/01/30	2017/01/30	
BOCHG	I	2017/01/30	2017/01/30	1553911	2068664	3956192	XS0869772656	2017/01/30	5.00000		REDEM	2013/01/29	2017/01/30	
BOCHG	I	2017/01/30	2017/01/30	1553914	2068669	3967314	XS0879089331	2017/01/30	50.00000		REDEM	2013/01/30	2017/01/30	
BOCHG	I	2017/01/30	2017/01/30	1553916	2068674	3970148	DE000A1RFBY7	2017/01/30	750.00000		REDEM	2014/06/30	2017/01/30	
BOCHG	I	2017/01/30	2017/01/30	1553917	2068675	3973692	DE000HY0B200	2017/01/30	0.02000		REDEM	2013/01/28	2017/01/30	
BOCHG	I	2017/01/30	2017/01/30	1553918	2068676	3975621	DE000A1R01W4	2017/01/30	2.00000		REDEM	2013/01/30	2017/01/30	
BOCHG	I	2017/01/30	2017/01/30	1553919	2068677	3976291	SE0005034584	2017/01/30	120.00000		REDEM	2013/01/30	2017/01/30	
BOCHG	I	2017/01/30	2017/01/30	1553921	2068679	3990454	IT0004897861	2017/01/30	800.00000		REDEM	2013/02/26	2017/01/30	
BOCHG	I	2017/01/30	2017/01/30	1553922	2068681	4012559	AT000B100680	2017/01/30	30.00000		REDEM	2012/01/30	2017/01/30	
BOCHG	I	2017/01/30	2017/01/30	1553923	2068682	4070740	US61760T3555	2017/01/30	1.98710		REDEM	2012/01/30	2017/01/30	
BOCHG	I	2017/01/30	2017/01/30	1553924	2068683	4086870	IT0004942824	2017/01/30	1.91000		REDEM	2013/07/30	2017/01/30	
BOCHG	I	2017/01/30	2017/01/30	1553925	2068686	4115452	DE000SG10RP5	2017/01/30	20.00000		REDEM	2011/01/28	2017/01/30	
BOCHG	I	2017/01/30	2017/01/30	1553926	2068687	4124532	XS0982541616	2017/01/30	15.00000		REDEM	2013/10/30	2017/01/30	
BOCHG	I	2017/01/30	2017/01/30	1553927	2068688	4130952	DE000SG3PAM8	2017/01/30	50.00000		REDEM	2013/01/29	2017/01/30	
BOCHG	I	2017/01/30	2017/01/30	1553929	2068690	4154211	US02005NAS99	2017/01/30	1000.00000		REDEM	2013/12/05	2017/01/30	
BOCHG	I	2017/01/30	2017/01/30	1553941	2068704	4184771	XS1021937765	2017/01/30	100.00000		REDEM	2015/01/30	2017/01/30	
BOCHG	I	2017/01/30	2017/01/30	1553944	2068707	4185980	XS1023613265	2017/01/30	4491.22500		REDEM	2016/04/26	2017/01/30	
BOCHG	I	2017/01/30	2017/01/30	1553945	2068708	4185984	US12802DAJ54	2017/01/30	587.15000		REDEM	2014/01/30	2017/01/30	
BOCHG	I	2017/01/30	2017/01/30	1553946	2068709	4186021	XS1023247650	2017/01/30	950.00000		REDEM	2014/01/30	2017/01/30	
BOCHG	I	2017/01/30	2017/01/30	1553947	2068710	4186022	XS1023248039	2017/01/30	25.00000		REDEM	2014/01/30	2017/01/30	
BOCHG	I	2017/01/30	2017/01/30	1553948	2068713	4186310	XS1023248385	2017/01/30	550.00000		REDEM	2014/01/30	2017/01/30	
BOCHG	I	2017/01/30	2017/01/30	1553950	2068715	4187377	XS1023435818	2017/01/30	20.00000		REDEM	2014/01/30	2017/01/30	
BOCHG	I	2017/01/30	2017/01/30	1553952	2068717	4188208	US30216BER96	2017/01/30	300.00000		REDEM	2014/01/30	2017/01/30	
BOCHG	I	2017/01/30	2017/01/30	1553956	2068721	4189683	DE000NWB16M1	2017/01/30	500.00000		REDEM	2014/01/30	2017/01/30	
BOCHG	I	2017/01/30	2017/01/30	1553958	2068725	4190696	US40432XQ872	2017/01/30	0.16700		REDEM	2014/01/30	2017/01/30	
BOCHG	I	2017/01/30	2017/01/30	1553959	2068726	4190735	US40432XQQ78	2017/01/30	0.22300		REDEM	2014/01/30	2017/01/30	
BOCHG	I	2017/01/30	2017/01/30	1553960	2068727	4190741	US40432XPX39	2017/01/30	0.03900		REDEM	2014/01/30	2017/01/30	
BOCHG	I	2017/01/30	2017/01/30	1553961	2068728	4190775	US40432XQJ36	2017/01/30	0.52900		REDEM	2014/01/30	2017/01/30	
BOCHG	I	2017/01/30	2017/01/30	1553962	2068729	4190781	US40432XPY12	2017/01/30	0.10300		REDEM	2014/01/30	2017/01/30	
BOCHG	I	2017/01/30	2017/01/30	1553963	2068730	4190787	US40432XQK09	2017/01/30	0.17600		REDEM	2014/01/30	2017/01/30	
BOCHG	I	2017/01/30	2017/01/30	1553964	2068731	4190788	US40432XPZ86	2017/01/30	0.02600		REDEM	2014/01/30	2017/01/30	
BOCHG	I	2017/01/30	2017/01/30	1553965	2068732	4190794	US40432XQM64	2017/01/30	0.04000		REDEM	2014/01/30	2017/01/30	
BOCHG	I	2017/01/30	2017/01/30	1553966	2068733	4190800	US40432XQL81	2017/01/30	0.03600		REDEM	2014/01/30	2017/01/30	
BOCHG	I	2017/01/30	2017/01/30	1553967	2068734	4190812	XS1006439282	2017/01/30	11.00000		REDEM	2014/01/29	2017/01/30	
BOCHG	I	2017/01/30	2017/01/30	1553969	2068736	4191257	IT0004990336	2017/01/30	10.00000		REDEM	2014/01/30	2017/01/30	
BOCHG	I	2017/01/30	2017/01/30	1553971	2068739	4191891	US55279HAC43	2017/01/30	250.00000		REDEM	2014/01/30	2017/01/30	
BOCHG	I	2017/01/30	2017/01/30	1553974	2068742	4193452	IT0004990484	2017/01/30	1.50000		REDEM	2014/01/30	2017/01/30	
BOCHG	I	2017/01/30	2017/01/30	1553976	2068744	4196070	US31315P3P28	2017/01/30	3.00000		REDEM	2014/01/30	2017/01/30	
BOCHG	I	2017/01/30	2017/01/30	1553977	2068745	4212267	US06740AQB88	2017/01/30	4.18600		REDEM	2011/07/29	2017/01/30	
BOCHG	I	2017/01/30	2017/01/30	1553978	2068746	4212577	US06740ARS05	2017/01/30	1.00000		REDEM	2012/01/31	2017/01/30	
BOCHG	I	2017/01/30	2017/01/30	1553979	2068748	4240451	US36160YAQ89	2017/01/30	1.00000		REDEM	2010/01/29	2017/01/30	
BOCHG	I	2017/01/30	2017/01/30	1553980	2068749	4253797	US31315PX468	2017/01/30	5.00000		REDEM	2014/04/30	2017/01/30	
BOCHG	I	2017/01/30	2017/01/30	1553982	2068751	4312752	US3133EDRD66	2017/01/30	200.00000		REDEM	2014/07/30	2017/01/30	
BOCHG	I	2017/01/30	2017/01/30	1553984	2068753	4328075	NL0010613923	2017/01/30	5.13000		REDEM	2014/07/29	2017/01/30	
BOCHG	I	2017/01/30	2017/01/30	1553986	2068758	4370303	US30254WAF68	2017/01/30	1500.00000		REDEM	2014/10/30	2017/01/30	
BOCHG	I	2017/01/30	2017/01/30	1553989	2068761	4380957	US3134G5PA77	2017/01/30	226.19000		REDEM	2014/11/06	2017/01/30	
BOCHG	I	2017/01/30	2017/01/30	1553990	2068762	4413040	US3133EEGU83	2017/01/30	350.00000		REDEM	2014/12/30	2017/01/30	
BOCHG	I	2017/01/30	2017/01/30	1553994	2068766	4418270	US40433BXN36	2017/01/30	0.97100		REDEM	2015/01/28	2017/01/30	
BOCHG	I	2017/01/30	2017/01/30	1553995	2068767	4418276	US40433BXP83	2017/01/30	1.10300		REDEM	2015/01/28	2017/01/30	
BOCHG	I	2017/01/30	2017/01/30	1553996	2068768	4418278	US40433BXQ66	2017/01/30	1.06800		REDEM	2015/01/28	2017/01/30	
BOCHG	I	2017/01/30	2017/01/30	1553997	2068769	4418281	US40433BXR40	2017/01/30	0.60900		REDEM	2015/01/28	2017/01/30	
BOCHG	I	2017/01/30	2017/01/30	1553999	2068772	4428407	IT0005072928	2017/01/30	192.95400		REDEM	2015/01/30	2017/01/30	
BOCHG	I	2017/01/30	2017/01/30	1554000	2068773	4431606	US22547WGE75	2017/01/30	3.05000		REDEM	2015/01/30	2017/01/30	
BOCHG	I	2017/01/30	2017/01/30	1554001	2068774	4432503	SE0006260774	2017/01/30	18.40000		REDEM	2015/01/21	2017/01/30	
BOCHG	I	2017/01/30	2017/01/30	1554002	2068775	4433124	XS1178098544	2017/01/30	500.00000		REDEM	2015/01/30	2017/01/30	
BOCHG	I	2017/01/30	2017/01/30	1554005	2068778	4433574	XS1113815937	2017/01/30	3.50174		REDEM	2016/03/25	2017/01/30	
BOCHG	I	2017/01/30	2017/01/30	1554007	2068781	4435655	XS1180422807	2017/01/30	50.00000		REDEM	2015/04/20	2017/01/30	
BOCHG	I	2017/01/30	2017/01/30	1554015	2068790	4446381	PTBBBBOM0028	2017/01/30	20.00000		REDEM	2015/01/29	2017/01/30	
BOCHG	I	2017/01/30	2017/01/30	1554016	2068791	4453088	US3130A4H623	2017/01/30	32.13500		REDEM	2015/03/19	2017/01/30	
BOCHG	I	2017/01/30	2017/01/30	1554019	2068794	4470209	DE000PA9W4H4	2017/01/30	0.00004		REDEM	2015/01/12	2017/01/30	
BOCHG	I	2017/01/30	2017/01/30	1554020	2068795	4496257	US3130A57C70	2017/01/30	15.00000		REDEM	2015/04/30	2017/01/30	
BOCHG	I	2017/01/30	2017/01/30	1554021	2068796	4501375	DE000A1YCQE0	2017/01/30	500.00000		REDEM	2016/04/14	2017/01/30	
BOCHG	I	2017/01/30	2017/01/30	1554026	2068802	4552472	US3130A5WQ89	2017/01/30	500.00000		REDEM	2015/07/30	2017/01/30	
BOCHG	I	2017/01/30	2017/01/30	1554034	2068810	4567894	US22546VHM19	2017/01/30	5.90700		REDEM	2015/07/30	2017/01/30	
BOCHG	I	2017/01/30	2017/01/30	1554035	2068811	4567911	US22546VHN91	2017/01/30	2.68000		REDEM	2015/07/30	2017/01/30	
BOCHG	I	2017/01/30	2017/01/30	1554043	2068819	4571393	XS1268563936	2017/01/30	2.00000		REDEM	2015/08/06	2017/01/30	
BOCHG	I	2017/01/30	2017/01/30	1554047	2068823	4580104	ROBCRODBC052	2017/01/30	5.00000		REDEM	2010/01/29	2017/01/30	
BOCHG	I	2017/01/30	2017/01/30	1554049	2068826	4630403	US06366R3N38	2017/01/30	0.42000		REDEM	2015/10/30	2017/01/30	
BOCHG	I	2017/01/30	2017/01/30	1554050	2068827	4630406	US06366R3P85	2017/01/30	0.07000		REDEM	2015/10/30	2017/01/30	
BOCHG	I	2017/01/30	2017/01/30	1554053	2068830	4658075	US13605VBJ17	2017/01/30	1.00000		REDEM	2015/12/10	2017/01/30	
BOCHG	I	2017/01/30	2017/01/30	1554067	2068846	4691251	XS1352980004	2017/01/30	100.00000		REDEM	2016/01/28	2017/01/30	
BOCHG	I	2017/01/30	2017/01/30	1554068	2068847	4691269	XS1353059790	2017/01/30	500.00000		REDEM	2016/01/28	2017/01/30	
BOCHG	I	2017/01/30	2017/01/30	1554069	2068848	4693746	US22546VUP92	2017/01/30	0.25900		REDEM	2016/01/29	2017/01/30	
BOCHG	I	2017/01/30	2017/01/30	1554074	2068860	4698641	XS1357678082	2017/01/30	10.00000		REDEM	2016/02/01	2017/01/30	
BOCHG	I	2017/01/30	2017/01/30	1554075	2068861	4698736		2017/01/30	1500.00000		REDEM	2016/02/01	2017/01/30	
BOCHG	I	2017/01/30	2017/01/30	1554079	2068878	4707263	US3133EFE376	2017/01/30	100.00000		REDEM	2016/02/23	2017/01/30	
BOCHG	I	2017/01/30	2017/01/30	1554080	2068879	4708171	US3130A7DN26	2017/01/30	25.00000		REDEM	2016/02/19	2017/01/30	
BOCHG	I	2017/01/30	2017/01/30	1554081	2068881	4722118	TRSGRAN11737	2017/01/30	100.00000		REDEM	2016/01/28	2017/01/30	
BOCHG	I	2017/01/30	2017/01/30	1554082	2068883	4731545	US05968QVZ17	2017/01/30	1.00000		REDEM	2016/02/05	2017/01/30	
BOCHG	I	2017/01/30	2017/01/30	1554083	2068884	4732479	ES0513045TQ1	2017/01/30	0.32800		REDEM	2016/02/01	2017/01/30	
BOCHG	I	2017/01/30	2017/01/30	1554085	2068886	4747991	US39260NAJ19	2017/01/30	1.00000		REDEM	2015/12/30	2017/01/30	
BOCHG	I	2017/01/30	2017/01/30	1554087	2068891	4763858	XS1404892553	2017/01/30	35.00000		REDEM	2016/04/29	2017/01/30	
BOCHG	I	2017/01/30	2017/01/30	1554096	2068905	4793926	ES0513495QZ5	2017/01/30	5.00000		REDEM	2016/05/31	2017/01/30	
BOCHG	I	2017/01/30	2017/01/30	1554097	2068932	4840818	GB00BXRC5G06	2017/01/30	4000.00000		REDEM	2016/10/31	2017/01/30	
BOCHG	I	2017/01/30	2017/01/30	1554112	2068951	4849545	XS1464805511	2017/01/30	10.00000		REDEM	2016/07/28	2017/01/30	
BOCHG	I	2017/01/30	2017/01/30	1554118	2068968	4873038	TRQFNBK11710	2017/01/30	19.70000		REDEM	2016/07/28	2017/01/30	
BOCHG	I	2017/01/30	2017/01/30	1554127	2069003	4922291	DE000A2C6W58	2017/01/30	10.00000		REDEM	2016/09/29	2017/01/30	
BOCHG	I	2017/01/30	2017/01/30	1554128	2069005	4926845	ES05136890X3	2017/01/30	17.31100		REDEM	2016/09/30	2017/01/30	
BOCHG	I	2017/01/30	2017/01/30	1554601		5023825	XS1554449758	2017/01/28	1.00000	0.75000	CORR	2017/01/27	2017/01/27	
BOCHG	I	2017/01/30	2017/01/30	1554602	2096597	4843321	XS1459791379	2017/01/30	0.60000		REDEM	2016/07/28	2017/01/30	
BOCHG	I	2017/01/30	2017/01/30	1554131	2069008	4940509	NO0010777097	2017/01/30	200.00000		REDEM	2016/10/28	2017/01/30	
BOCHG	I	2017/01/30	2017/01/30	1554143	2069033	4949593	XS1513015179	2017/01/30	35.00000		REDEM	2016/10/28	2017/01/30	
BOCHG	I	2017/01/30	2017/01/30	1554160	2069058	4950676	XS1509898760	2017/01/30	0.50000		REDEM		2017/01/30	
BOCHG	I	2017/01/30	2017/01/30	1554174	2069087	4968853	XS1525529639	2017/01/30	25.00000		REDEM		2017/01/30	
BOCHG	I	2017/01/30	2017/01/30	1554194	2084850	4427715	XS1172123942	2017/01/30	30.00000		REDEM	2015/01/29	2017/01/30	
BOCHG	I	2017/01/30	2017/01/30	1554195	2084855	4191544	DE000A1TNC60	2017/01/30	10.00000		REDEM	2014/01/30	2017/01/30	
BOCHG	I	2017/01/30	2017/01/30	1554206	2087152	4187798	DE000A1TNC37	2017/01/30	10.00000		REDEM	2014/01/29	2017/01/30	
BOCHG	I	2017/01/30	2017/01/30	1554207	2087159	4444076	DE000DZ1J8E0	2017/01/30	50.00000		REDEM	2015/01/28	2017/01/30	
BOCHG	I	2017/01/30	2017/01/30	1554208	2087160	4444080	DE000DZ1J8F7	2017/01/30	50.00000		REDEM	2015/01/28	2017/01/30	
BOCHG	I	2017/01/30	2017/01/30	1554209	2087161	4444087	DE000DZ1J8J9	2017/01/30	50.00000		REDEM	2015/01/28	2017/01/30	
BOCHG	I	2017/01/30	2017/01/30	1554210	2087162	4446520	DE000DZ1J8M3	2017/01/30	50.00000		REDEM	2015/01/30	2017/01/30	
BOCHG	I	2017/01/30	2017/01/30	1554230	2087997	4440137	DE000HLB1X48	2017/01/30	100.00000		REDEM	2015/01/28	2017/01/30	
BOCHG	I	2017/01/30	2017/01/30	1554264	2088769	4566986	XS1236050479	2017/01/30	0.50000		REDEM	2016/11/02	2017/01/30	
BOCHG	I	2017/01/30	2017/01/30	1554276	2088820	4834852	XS1453547140	2017/01/30	1.45000		REDEM	2016/07/28	2017/01/30	
BOCHG	I	2017/01/30	2017/01/30	1554281	2088876	2411310	XS0580520277	2017/01/30	2.15283		REDEM	2016/09/02	2017/01/30	
BOCHG	I	2017/01/30	2017/01/30	1554282	2088877	2373489	XS0580519691	2017/01/30	5.26291		REDEM	2016/12/21	2017/01/30	
BOCHG	I	2017/01/30	2017/01/30	1554285	2089529	4433152	US3135G0B771	2017/01/30	250.00000		REDEM	2015/01/30	2017/01/30	
BOCHG	I	2017/01/30	2017/01/30	1554286	2089532	4432128	US3136G2DS38	2017/01/30	15.00000		REDEM	2015/01/30	2017/01/30	
BOCHG	I	2017/01/30	2017/01/30	1554288	2089546	4423175	US3136G2CP08	2017/01/30	50.00000		REDEM	2015/01/30	2017/01/30	
BOCHG	I	2017/01/30	2017/01/30	1554289	2089547	4421885	US3136G2CM76	2017/01/30	45.00000		REDEM	2015/01/30	2017/01/30	
BOCHG	I	2017/01/30	2017/01/30	1554290	2089550	4419180	US3136G2CE50	2017/01/30	15.00000		REDEM	2015/01/30	2017/01/30	
BOCHG	I	2017/01/30	2017/01/30	1554291	2089551	4425552	US3136G2CW58	2017/01/30	85.00000		REDEM	2015/01/30	2017/01/30	
BOCHG	I	2017/01/30	2017/01/30	1554293	2089559	4432089	XS1061492085	2017/01/30	4.54400		REDEM	2015/01/30	2017/01/30	
BOCHG	I	2017/01/30	2017/01/30	1554295	2089563	4431731	XS1061492168	2017/01/30	7.75100		REDEM	2015/01/30	2017/01/30	
BOCHG	I	2017/01/30	2017/01/30	1554301	2089612	4938662	XS1422279320	2017/01/30	0.70000		REDEM	2016/10/28	2017/01/30	
BOCHG	I	2017/01/30	2017/01/30	1554310	2089752	4461100	DE000WGZ7Z22	2017/01/30	75.00000		REDEM	2015/09/14	2017/01/30	
BOCHG	I	2017/01/30	2017/01/30	1554312	2089813	4415188	XS1093242565	2017/01/30	5.00000		REDEM	2015/01/28	2017/01/30	
BOCHG	I	2017/01/30	2017/01/30	1554313	2089824	524121	XS0282169555	2017/01/30	20.00000		REDEM	2007/01/31	2017/01/30	
BOCHG	I	2017/01/30	2017/01/30	1554319	2091310	4341506	US01749GAA67	2017/01/30	213.80000		REDEM	2014/01/30	2017/01/30	
BOCHG	I	2017/01/30	2017/01/30	1554320	2091311	4200184	USG01783AA01	2017/01/30	213.80000		REDEM	2014/01/30	2017/01/30	
BOCHG	I	2017/01/30	2017/01/30	1554321	2091312	4341523	US01749GAC24	2017/01/30	45.70000		REDEM	2014/01/30	2017/01/30	
BOCHG	I	2017/01/30	2017/01/30	1554322	2091313	4200187	USG01783AB83	2017/01/30	45.70000		REDEM	2014/01/30	2017/01/30	
BOCHG	I	2017/01/30	2017/01/30	1554323	2091314	4341535	US01749GAE89	2017/01/30	28.50000		REDEM	2014/01/30	2017/01/30	
BOCHG	I	2017/01/30	2017/01/30	1554324	2091315	4200169	USG01783AC66	2017/01/30	28.50000		REDEM	2014/01/30	2017/01/30	
BOCHG	I	2017/01/30	2017/01/30	1554325	2091938	4430432	US3130A3YJ70	2017/01/30	25.00000		REDEM	2015/01/30	2017/01/30	
BOCHG	I	2017/01/30	2017/01/30	1554331	2093264	4558385	FR0012847101	2017/01/30	0.70000		REDEM	2016/12/01	2017/01/30	
BOCHG	I	2017/01/30	2017/01/30	1554332	2093272	4691790	XS1290013645	2017/01/30	2.39200		REDEM	2016/12/12	2017/01/30	
BOCHG	I	2017/01/30	2017/01/30	1554338	2093639	4141606	XS0953380036	2017/01/30	3.00000		REDEM	2014/01/28	2017/01/30	
BOCHG	I	2017/01/30	2017/01/30	1554345	2093690	4568069	XS1265351129	2017/01/30	1.50000		REDEM	2015/07/30	2017/01/30	
BOCHG	I	2017/01/30	2017/01/30	1554397	2093904	5032271	FR0013098134	2017/01/30	0.00500		REDEM	2016/01/29	2017/01/30	
BOCHG	I	2017/01/30	2017/01/30	1554399	2072474	1236826	XS0399414068	2017/01/30	0.12667	0.11575	REDEM	2016/12/28	2017/01/30	
BOCHG	I	2017/01/30	2017/01/30	1554400	2072478	1796398	XS0452188211	2017/01/30	0.94267	0.90427	REDEM	2016/12/28	2017/01/30	
BOCHG	I	2017/01/30	2017/01/30	1554401	2072485	1187939	XS0391997854	2017/01/30	0.01014	0.00793	REDEM	2016/12/28	2017/01/30	
BOCHG	I	2017/01/30	2017/01/30	1554412	2089839	977733	USG9328DAD24	2017/01/30	750.00000	379.13200	REDEM	2008/07/02	2017/01/30	
BOCHG	I	2017/01/30	2017/01/30	1554413	2089840	977748	US92241TAD46	2017/01/30	750.00000	379.13200	REDEM	2008/07/02	2017/01/30	
BOCHG	I	2017/01/30	2017/01/30	1554414	2089841	4044493	USG9328DAH38	2017/01/30	1200.00000	774.97200	REDEM	2013/06/03	2017/01/30	
BOCHG	I	2017/01/30	2017/01/30	1554415	2089842	4044499	US92241TAH59	2017/01/30	1200.00000	774.97200	REDEM	2013/06/03	2017/01/30	
BOCHG	I	2017/01/30	2017/01/30	1554418	2092883	322686	NZGOVD0008C0	2017/01/30	9062.00000	8812.00000	REDEM	2017/01/16	2017/01/30	
BOCHG	I	2017/01/30	2017/01/30	1554419	2092975	4037257	US71647NAB55	2017/01/30	1452.56600	695.55000	REDEM	2016/07/25	2017/01/30	
BOCHG	I	2017/01/30	2017/01/30	1554420	2092977	4037221	US71647NAE94	2017/01/30	750.49200	332.04700	REDEM	2016/07/25	2017/01/30	
BOCHG	I	2017/01/30	2017/01/30	1554421	2092979	1325224	US71645WAN11	2017/01/30	1813.90700	709.50500	REDEM	2016/07/25	2017/01/30	
BOCHG	I	2017/01/30	2017/01/30	1554422	2092982	3906651	XS0835886598	2017/01/30	1300.00000	668.44700	REDEM	2012/10/01	2017/01/30	
BOCHG	I	2017/01/30	2017/01/30	1554423	2092985	1637748	US71645WAP68	2017/01/30	2500.00000	1168.69700	REDEM	2009/10/30	2017/01/30	
BOCHG	I	2017/01/30	2017/01/30	1554424	2092987	4218515	US71647NAH26	2017/01/30	1500.00000	543.89700	REDEM	2014/03/17	2017/01/30	
BOCHG	I	2017/01/30	2017/01/30	1554425	2092990	4218490	US71647NAL38	2017/01/30	500.00000	181.71100	REDEM	2014/03/17	2017/01/30	
BOCHG	I	2017/01/30	2017/01/30	1554426	2093209	3997934	XS0808637051	2017/01/30	1031.02228	1000.48804	REDEM	2016/10/31	2017/01/30	
BOCHG	I	2017/01/30	2017/01/30	1554428	2093342	909872	XS0366932159	2017/01/30	0.00735	0.00433	REDEM	2016/12/28	2017/01/30	
BOCHG	I	2017/01/30	2017/01/30	1554429	2093397	1508414	BG2100002091	2017/01/30	4.80000	3.60000	REDEM	2016/01/30	2017/01/30	
BOCHG	I	2017/01/30	2017/01/30	1554430	2093398	4294485	US03969AAF75	2017/01/30	1110.00000	265.00000	REDEM	2014/07/03	2017/01/30	
BOCHG	I	2017/01/30	2017/01/30	1554431	2093400	4294492	USG04586AF33	2017/01/30	1110.00000	265.00000	REDEM	2014/07/03	2017/01/30	
BOCHG	I	2017/01/30	2017/01/30	1554433	2093599	3677241	XS0736639112	2017/01/30	35.79792	33.24490	REDEM	2016/12/28	2017/01/30	
BOCHG	I	2017/01/30	2017/01/30	1554435	2093725	1107226	IT0001245338	2017/01/30	2464.80665	1871.23783	REDEM	2016/07/30	2017/01/30	
BOCHG	I	2017/01/30	2017/01/30	1554436	2093835	4488724	DE000A14KPU1	2017/01/30	34.38000	33.84000	REDEM	2016/08/01	2017/01/30	
BOCHG	I	2017/01/30	2017/01/30	1554470	4345	4903609	XS1492138729	2017/01/30	175.00000	385.00000	TRNCH	2016/09/16	2017/01/30	The New bond O/s amount has been derived from following tranches:<BR>Tranche No.  Tranche ID   Tranche Amount<BR>--------------------------------------------------------------------------<BR>         2                  4342            45.00000<BR>         3                  4345           165.00000<BR>
BOCHG	I	2017/01/30	2017/01/30	1554471	4362	4972459	XS1527593633	2017/01/30	280.00000	320.00000	TRNCH	2016/12/02	2017/01/30	
BOCHG	I	2017/01/30	2017/01/30	1554472		2225622	XS0561537720	2017/01/30	64.68662	61.75208	REDEM	2016/10/31	2017/01/30	
BOCHG	I	2017/01/30	2017/01/30	1554473		359337	XS0244262035	2017/01/30	1.94672	1.92280	REDEM	2016/10/31	2017/01/30	
BOCHG	I	2017/01/30	2017/01/30	1554475		402727	XS0259990702	2017/01/30	2.43340	2.40350	REDEM	2016/10/31	2017/01/30	
BOCHG	I	2017/01/30	2017/01/30	1554476		402720	XS0259990538	2017/01/30	0.25916	0.25597	REDEM	2016/10/31	2017/01/30	
BOCHG	I	2017/01/30	2017/01/30	1554477		359331	XS0244258272	2017/01/30	1.05245	1.03951	REDEM	2016/10/31	2017/01/30	
BOCHG	I	2017/01/30	2017/01/30	1554480		5019342	XS1551932046	2017/01/25	300.00000	297.20000	CORR	2017/01/24	2017/01/24	
BOCHG	I	2017/01/30	2017/01/30	1554484		4069825	DE000A1TNBW1	2013/06/15	80.00000	79.40000	CORR	2013/06/14	2013/06/14	
BOCHG	I	2017/01/30	2017/01/30	1554488	2096394	643262	XS0308749356	2017/01/25	11.00000		REDEM	2007/07/06	2017/01/25	
BOCHG	I	2017/01/30	2017/01/30	1554492	2096397	351304	XS0248866542	2016/09/01	8.79754	8.69158	REDEM		2016/09/01	
BOCHG	I	2017/01/30	2017/01/30	1554498	2096402	318092	XS0238141617	2017/01/25	11.35207		REDEM	2009/07/27	2017/01/25	
BOCHG	I	2017/01/30	2017/01/30	1554507	2096410	4187571	XS1026025103	2017/01/26	1000.00000		REDEM	2014/01/30	2017/01/26	
BOCHG	I	2017/01/30	2017/01/30	1554508		4576145	US78669PAA03	2015/08/12	1000.00000	320.00000	CORR	2015/08/11	2015/08/11	
BOCHG	I	2017/01/30	2017/01/30	1554509	2096413	2028671	US92928BAA98	2017/01/28	600.00000	525.00000	REDEM	2016/07/28	2017/01/28	
BOCHG	I	2017/01/30	2017/01/30	1554521	2096436	4690834	XS1279290925	2017/01/26	1.28700		REDEM	2016/01/26	2017/01/26	
BOCHG	I	2017/01/30	2017/01/30	1554522	2096438	3889159	IT0001303111	2017/01/27	0.69673	0.55166	REDEM	2016/07/27	2017/01/27	
BOCHG	I	2017/01/30	2017/01/30	1554525	2096443	3933424	IT0003068993	2017/01/30	0.46955	0.43825	REDEM	2016/01/30	2017/01/30	
BOCHG	I	2017/01/30	2017/01/30	1554526		4140590	AU3SG0001258	2017/01/20	3460.80000	3490.80000	CORR	2016/12/09	2017/01/20	
BOCHG	I	2017/01/30	2017/01/30	1554527		4240135	AU0000XQLQZ9	2017/01/24	6801.00000	7301.00000	REISS	2016/11/22	2017/01/24	
BOCHG	I	2017/01/30	2017/01/30	1554528		2878676	AU0000XQLQV8	2017/01/20	7421.00000	7422.00000	CORR	2017/01/13	2017/01/20	
BOCHG	I	2017/01/30	2017/01/30	1554530		1470775	AU0000XQLQK1	2017/01/13	2988.00000	2986.00000	CORR	2016/11/25	2017/01/13	
BOCHG	I	2017/01/30	2017/01/30	1554532	2096455	428325	XS0267343399	2016/07/07	3.90093	3.61485	REDEM	2013/10/07	2016/07/07	
BOCHG	I	2017/01/30	2017/01/30	1554538	2096471	3935077	IT0003153001	2017/01/27	0.86918	0.79318	REDEM	2016/07/27	2017/01/27	
BOCHG	I	2017/01/30	2017/01/30	1554540	2096472	3935131	IT0003423925	2017/01/27	5.79876	5.54664	REDEM	2016/07/27	2017/01/27	
BOCHG	I	2017/01/30	2017/01/30	1554543	2096475	3939576	IT0003423966	2017/01/27	20.99532	20.08248	REDEM	2016/07/27	2017/01/27	
BOCHG	I	2017/01/30	2017/01/30	1554546	2096483	717764	IT0003699037	2017/01/30	0.17738	0.14782	REDEM	2016/07/30	2017/01/30	
BOCHG	I	2017/01/30	2017/01/30	1554555		4776245	FR0013173358	2017/01/30	500.00000	750.00000	REISS	2016/05/20	2017/01/30	
BOCHG	I	2017/01/30	2017/01/30	1554559		4167576	BY62422A7843	2013/08/27	1000.00000	1000000.00000	CORR	2013/08/26	2013/08/26	
BOCHG	I	2017/01/30	2017/01/30	1554567		5029038	US3133EG5N17	2017/01/30	450.00000	500.00000	CORR	2017/01/30	2017/01/30	
BOCHG	I	2017/01/30	2017/01/30	1554569	2096537	3994203	XS0808636756	2016/08/24	187.10000	132.29242	REDEM	2013/03/05	2016/08/24	
BOCHG	I	2017/01/30	2017/01/30	1554571	2096540	2833014	DE000WLB6TW7	2016/02/02	100.00000		REDEM	2011/01/31	2016/02/02	
BOCHG	I	2017/01/30	2017/01/30	1554573	2096545	3994203	XS0808636756	2016/11/24	132.29242	128.22300	REDEM	2016/08/24	2016/11/24	
BOCHG	I	2017/01/30	2017/01/30	1554574		4432296	BY52642B1907	2014/12/16	10000.00000	5040.00000	CORR	2014/12/15	2014/12/15	
BOCHG	I	2017/01/30	2017/01/30	1554583		4851292	XS1439446979	2016/09/01	41.00000	45.00000	CORR	2016/08/31	2016/08/31	
BOCHG	I	2017/01/30	2017/01/30	1554587		4953689	HU0000521281	2016/12/31	80005.09053	81631.51648	CORR	2016/12/21	2016/12/31	
BOCHG	I	2017/01/30	2017/01/30	1554588		4829659	HU0000508932	2016/12/31	13461.88000	13443.88000	CORR	2016/11/30	2016/12/31	
BOCHG	I	2017/01/30	2017/01/30	1554590		4837188	HU0000509252	2016/12/31	14558.65000	14537.04000	CORR	2016/11/30	2016/12/31	
BOCHG	I	2017/01/30	2017/01/30	1554591	2096578	483080	XS0158760347	2017/01/20	0.07516	0.05078	REDEM	2016/12/20	2017/01/20	
BOCHG	I	2017/01/30	2017/01/30	1554593		4843425	HU0000509260	2016/12/31	15187.16000	15175.27000	CORR	2016/11/30	2016/12/31	
BOCHG	I	2017/01/30	2017/01/30	1554595		4852561	HU0000509278	2016/12/31	14612.13000	14583.37000	CORR	2016/11/30	2016/12/31	
BOCHG	I	2017/01/30	2017/01/30	1554596		4859763	HU0000509286	2016/12/31	16110.50000	16091.52000	CORR	2016/11/30	2016/12/31	
BOCHG	I	2017/01/30	2017/01/30	1554597		4866232	HU0000509336	2016/12/31	14030.45000	14015.89000	CORR	2016/11/30	2016/12/31	
BOCHG	I	2017/01/30	2017/01/30	1554598		4874155	HU0000509344	2016/12/31	13879.44000	13875.68000	CORR	2016/11/30	2016/12/31	
BOCHG	I	2017/01/30	2017/01/30	1554608		4320640	XS1093814389	2016/12/20	480.00000	608.00000	REISS	2015/09/08	2016/12/20	Tranche issued ISIN XS1093814116 (Reg S)
BOCHG	I	2017/01/30	2017/01/30	1554610	4417	4456822	DE000A14J5C9	2016/02/26	150.00000	250.00000	TRNCH	2015/02/26	2016/02/26	
BOCHG	I	2017/01/30	2017/01/30	1554611		2222561	US88948ABV89	2017/01/26	9.14524	74.40000	CORR	2005/03/02	2017/01/26	
BOCHG	I	2017/01/30	2017/01/30	1554612		4299384	US88948ACE55	2017/01/26	6.23568	80.70000	CORR	2005/03/02	2017/01/26	
BOCHG	I	2017/01/30	2017/01/30	1554613		4280673	CA68323ACU66	2017/01/24	3500.00000	4250.00000	REISS	2015/03/04	2017/01/24	
BOCHG	I	2017/01/30	2017/01/30	1554609	2096607	185275	US040114AR16	2017/01/30	422.34000		REDEM	2010/09/27	2017/01/30	
BOCHG	I	2017/01/30	2017/01/30	1554626		4930015	HU0000509351	2016/12/31	11469.11000	11466.03000	CORR	2016/11/30	2016/12/31	
BOCHG	I	2017/01/30	2017/01/30	1554628		4891519	HU0000509369	2016/12/31	12893.82000	12889.64000	CORR	2016/11/30	2016/12/31	
BOCHG	I	2017/01/30	2017/01/30	1554631		4900722	HU0000509377	2016/12/31	16125.89000	16091.99000	CORR	2016/11/30	2016/12/31	
BOCHG	I	2017/01/30	2017/01/30	1554634		4906387	HU0000509385	2016/12/31	17576.94000	17559.80000	CORR	2016/11/30	2016/12/31	
BOCHG	I	2017/01/30	2017/01/30	1554637		4915709	HU0000509393	2016/12/31	16899.98000	16889.31000	CORR	2016/11/30	2016/12/31	
BOCHG	I	2017/01/30	2017/01/30	1554640		4924790	HU0000509401	2016/12/31	30756.40000	30735.78000	CORR	2016/11/30	2016/12/31	
BOCHG	I	2017/01/30	2017/01/30	1554641		4930973	HU0000509492	2016/12/31	15209.73000	15197.14000	CORR	2016/11/30	2016/12/31	
BOCHG	I	2017/01/30	2017/01/30	1554643		4936852	HU0000509500	2016/12/31	22972.28000	22968.60000	CORR	2016/11/30	2016/12/31	
BOCHG	I	2017/01/30	2017/01/30	1554646		4943928	HU0000509518	2016/12/31	13387.61000	13367.88000	CORR	2016/11/30	2016/12/31	
BOCHG	I	2017/01/30	2017/01/30	1554655		5032818	XS1521768728	2017/01/27	6.95000	7.50000	CORR	2017/01/26	2017/01/26	
BOCHG	I	2017/01/30	2017/01/30	1554662		4952588	HU0000509526	2016/12/31	19163.58000	19156.51000	CORR	2016/11/30	2016/12/31	
BOCHG	I	2017/01/30	2017/01/30	1554663		4956164	HU0000509534	2016/12/31	9720.42000	9719.07000	CORR	2016/11/30	2016/12/31	
BOCHG	I	2017/01/30	2017/01/30	1554664		4961990	HU0000509542	2016/12/31	15447.53000	15446.71000	CORR	2016/11/30	2016/12/31	
BOCHG	I	2017/01/30	2017/01/30	1554665		4968381	HU0000509559	2016/12/31	15688.59000	15686.59000	CORR	2016/11/30	2016/12/31	
BOCHG	I	2017/01/30	2017/01/30	1554666		4975677	HU0000509567	2016/12/31	17536.21000	17534.95000	CORR	2016/11/29	2016/12/31	
BOCHG	I	2017/01/30	2017/01/30	1554667		4982193	HU0000509575	2016/12/31	23174.32000	23149.91000	CORR	2016/12/06	2016/12/31	
BOCHG	I	2017/01/30	2017/01/30	1554668		4989597	HU0000509666	2016/12/31	17110.86000	17110.67000	CORR	2016/12/13	2016/12/31	
BOCHG	I	2017/01/30	2017/01/30	1554669		4997646	HU0000509674	2016/12/31	17917.49000	17908.18000	CORR	2016/12/20	2016/12/31	
BOCHG	I	2017/01/30	2017/01/30	1554670		4820133	MT0000421223	2016/06/29	50.00000	50.00000	CORR	2016/06/28	2016/08/03	
BOCHG	I	2017/01/30	2017/01/30	1554701		4934403	XS1505905072	2016/10/26	1.00000	23.80000	CORR	2016/10/25	2016/10/25	
BOCHG	I	2017/01/30	2017/01/30	1554727		4956594	AT0000A1NWJ6	2016/11/03	1.00000	100.00000	CORR	2016/11/02	2016/11/02	
BOCHG	I	2017/01/30	2017/01/30	1554732	2096688	3975424	RU000A0JTKJ5	2017/01/27	3750.00000	2500.00000	REDEM	2016/07/29	2017/01/27	
BOCHG	I	2017/01/30	2017/01/30	1554739		5004933	XS1261166752	2017/01/27	200.00000	13.77000	CORR	2017/01/26	2017/01/26	
BOCHG	I	2017/01/30	2017/01/30	1554741	2096690	4691302	XS1353200485	2017/01/30	0.27800		REDEM	2016/01/28	2017/01/30	
BOCHG	I	2017/01/30	2017/01/30	1554747		5032199	SE0009496367	2017/01/30	3000.00000	8000.00000	REISS	2017/01/27	2017/01/30	(As on 18/01/2017)<BR><BR>SellAuction date: 2017-01-26 <BR>Auction type: Nominal <BR>bond Loan: 1060 <BR>ISINcode: SE0009496367 <BR>Coupon %: 0.750 <BR>Maturity: 5/12/2028 <BR>Offered/tendered: 5,000 <BR>Tendered: 11,421 <BR>Allocated institutional: 5,000 <BR>Tender ratio: 2.28 <BR>Number of bids: 25 <BR>Number of accepted bids: 14 <BR>Yield avg: 1.0212(97.123) <BR>Low: 1.0150(97.187) <BR>Cutoff: 1.0240(97.094) <BR>Yield:   % of Eq <BR>Price Lvl: 11.47`<BR>
BOCHG	I	2017/01/30	2017/01/30	1554748		5032199	SE0009496367	2017/01/31	8000.00000	11365.00000	REISS	2017/01/30	2017/01/31	(As on 27/01/2017)<BR>Latest auction result government bonds<BR>Sell<BR>Auction date: 2017-01-27 <BR>Auction type: Nominal bond <BR>Loan: 1060 <BR>ISINcode: SE0009496367 <BR>Coupon %: 0.750 <BR>Maturity: 5/12/2028 <BR>Offered/tendered: 5,000 <BR>Tendered: 9,985 <BR>Allocated institutional: 3,365 <BR>Tender ratio: 2.97 <BR>Number of bids: 25 <BR>Number of accepted bids: 11 <BR>Yield avg: 1.0058(97.284) <BR>Low: 1.0010(97.334) <BR>Cutoff: 1.0080(97.261) <BR>Yield:   <BR>% of Eq Price Lvl: 100.00 <BR>
BOCHG	I	2017/01/30	2017/01/30	1554749		4516684	US78636XAC92	2015/06/19	150.00000	150.00000	CORR	2015/06/18	2015/06/19	
BOCHG	I	2017/01/30	2017/01/30	1554750		4499941	ES0313900393	2017/01/27	1109.97000	1069.96500	CORR	2016/10/28	2017/01/27	
BOCHG	I	2017/01/30	2017/01/30	1554754		4838549	RSMFRSD85962	2017/01/26	51759.59000	57384.31000	REISS	2016/10/25	2017/01/26	
BOCHG	I	2017/01/30	2017/01/30	1554759		4789043	SE0008186886	2017/01/20	750.00000	1000.00000	REISS	2016/12/02	2017/01/20	(As on 20/01/2017)<BR>Bilia Issues additional bonds of sek 250 m within its existing bond loan<BR>=======================================================<BR>Bilia AB (publ) has successfully issued an unsecured bond loan of SEK 250 M within its existing bond loan, with maturity in March 2021, The Issue was made with a floating interest rate based on three months STIBOR+140 points until maturity.<BR><BR>Total new outstanding amount after th eissue is SEK  1000 M. Bilia will apply for listing of bonds at NASdaq Stockholm.<BR><BR>DNB Markets and Nordea Bank AB (Publ) have been financial advisors and bookrunners on connection with the bond issue and Vinge has been legal advisor.<BR><BR>Gothenburg, 20 January 2017
BOCHG	I	2017/01/30	2017/01/30	1554761	95246	4053915	US03834AAA16	2017/01/27	230.32000	99.76800	CONV	2017/01/26	2017/01/27	
BOCHG	I	2017/01/30	2017/01/30	1554767		5018830	XS1502945501	2017/01/20	0.50000	1.16700	CORR	2017/01/19	2017/01/20	
BOCHG	I	2017/01/30	2017/01/30	1554768		5018830	XS1502945501	2017/01/27	1.16700	1.41700	REISS	2017/01/20	2017/01/27	
BOCHG	I	2017/01/30	2017/01/30	1554770	2096777	4530547	RU000A0JV318	2017/01/10	696.66600	687.92981	REDEM	2014/12/19	2017/01/10	
BOCHG	I	2017/01/30	2017/01/30	1554771	2096778	2292385	USU83577AA18	2016/09/12	325.00000		REDEM	2007/04/16	2016/09/12	
BOCHG	I	2017/01/30	2017/01/30	1554772	2096779	4528867	RU000A0JV326	2017/01/10	1393.33400	1375.86159	REDEM	2014/12/19	2017/01/10	
BOCHG	I	2017/01/30	2017/01/30	1554776		4906851	XS1492590747	2017/01/27	3.00713	3.56844	REISS	2016/12/29	2017/01/27	
BOCHG	I	2017/01/30	2017/01/30	1554782	2096782	3938941	NO0010664469	2017/01/27	100.00000	36.00000	REDEM	2016/09/06	2017/01/27	
BOCHG	I	2017/01/30	2017/01/30	1554783	2096783	4360158	NO0010721244	2017/01/27	600.00000	43.00000	REDEM	2016/10/04	2017/01/27	
BOCHG	I	2017/01/30	2017/01/30	1554784		4030914	NO0010675952	2017/01/26	1000.00000	315.00000	CORR	2013/05/02	2017/01/26	
BOCHG	I	2017/01/30	2017/01/30	1554786	2096786	4168719	RU000A0JUD42	2016/12/28	5000.00000	828.37000	REDEM	2013/12/25	2016/12/28	
BOCHG	I	2017/01/30	2017/01/30	1554787	2096785	4030914	NO0010675952	2017/01/27	315.00000	117.00000	REDEM	2017/01/26	2017/01/27	
BOCHG	I	2017/01/30	2017/01/30	1554788		3923356	NO0010662307	2017/01/26	3000.00000	4405.00000	CORR	2012/10/26	2017/01/26	
BOCHG	I	2017/01/30	2017/01/30	1554789	2096789	3923356	NO0010662307	2017/01/27	4405.00000	2000.00000	REDEM	2017/01/26	2017/01/27	
BOCHG	I	2017/01/30	2017/01/30	1554790		4209248	DE0001102341	2017/01/25	19000.00000	20000.00000	REISS	2016/10/19	2017/01/25	
BOCHG	I	2017/01/30	2017/01/30	1554793		4994010	XS1515223607	2016/12/15	2.00000	0.88000	CORR	2016/12/14	2016/12/14	
BOCHG	I	2017/01/30	2017/01/30	1554797		4452055	US74734MAB54	2017/01/27	600.00000	9.62500	CORR	2014/09/15	2017/01/27	
BOCHG	I	2017/01/30	2017/01/30	1554798		2882865	US745332BN50	2014/07/18	32.00000	1.00000	CORR	1999/03/09	2014/07/18	
BOCHG	I	2017/01/31	2017/01/31	1554805	2069554	5007901	ES05136891H4	2017/01/31	13.66200		REDEM	2016/12/28	2017/01/31	
BOCHG	I	2017/01/31	2017/01/31	1554806	2069600	293570	XS0210340880	2017/01/31	2.50000		REDEM	2005/01/31	2017/01/31	
BOCHG	I	2017/01/31	2017/01/31	1554807	2069601	300648	XS0142166189	2017/01/31	29.90000		REDEM	2002/01/30	2017/01/31	
BOCHG	I	2017/01/31	2017/01/31	1554808	2069602	432117	ES00000120J8	2017/01/31	21453.44400		REDEM	2014/03/25	2017/01/31	
BOCHG	I	2017/01/31	2017/01/31	1554809	2069603	482777	PL0000104642	2017/01/31	14.25730		REDEM	2010/08/16	2017/01/31	
BOCHG	I	2017/01/31	2017/01/31	1554810	2069604	493482	XS0209422749	2017/01/31	20.00000		REDEM	2004/12/30	2017/01/31	
BOCHG	I	2017/01/31	2017/01/31	1554811	2069605	494149	XS0284982922	2017/01/31	1250.00000		REDEM	2007/01/31	2017/01/31	
BOCHG	I	2017/01/31	2017/01/31	1554812	2069606	505104	XS0210994579	2017/01/31	11.38500		REDEM	2005/08/01	2017/01/31	
BOCHG	I	2017/01/31	2017/01/31	1554814	2069608	507249	XS0283497005	2017/01/31	350.00000		REDEM	2007/01/31	2017/01/31	
BOCHG	I	2017/01/31	2017/01/31	1554815	2069609	519870	XS0283337573	2017/01/31	2100.00000		REDEM	2007/01/31	2017/01/31	
BOCHG	I	2017/01/31	2017/01/31	1554816	2069610	527307		2017/01/31	125.00000		REDEM		2017/01/31	
BOCHG	I	2017/01/31	2017/01/31	1554819	2069613	542989	XS0285273651	2017/01/31	25.00000		REDEM	2007/02/01	2017/01/31	
BOCHG	I	2017/01/31	2017/01/31	1554823	2069617	555670	XS0285464599	2017/01/31	3.00000		REDEM	2007/01/31	2017/01/31	
BOCHG	I	2017/01/31	2017/01/31	1554826	2069620	704627	IT0004177041	2017/01/31	0.05500		REDEM	2016/07/31	2017/01/31	
BOCHG	I	2017/01/31	2017/01/31	1554828	2069623	817777	DE000LBB0V44	2017/01/31	50.00000		REDEM	2008/01/31	2017/01/31	
BOCHG	I	2017/01/31	2017/01/31	1554829	2069625	977623	US06738CXM62	2017/01/31	10.00000		REDEM	2007/01/31	2017/01/31	
BOCHG	I	2017/01/31	2017/01/31	1554830	2069626	1232098	USG4756WAA83	2017/01/31	225.00000		REDEM	2007/01/31	2017/01/31	
BOCHG	I	2017/01/31	2017/01/31	1554831	2069627	1232163	US45380RAA32	2017/01/31	225.00000		REDEM	2007/01/31	2017/01/31	
BOCHG	I	2017/01/31	2017/01/31	1554832	2069628	1329129	DE000A0L0979	2017/01/31	5.00000		REDEM		2017/01/31	
BOCHG	I	2017/01/31	2017/01/31	1554835	2069631	1628745	XS0458230322	2017/01/31	1000.66900		REDEM	2016/05/26	2017/01/31	
BOCHG	I	2017/01/31	2017/01/31	1554837	2069633	1695832	EE4300077005	2017/01/31	18.00000		REDEM	2014/08/19	2017/01/31	
BOCHG	I	2017/01/31	2017/01/31	1554840	2069636	1753541	US13161EVV63	2017/01/31	1.00000		REDEM	2010/02/03	2017/01/31	
BOCHG	I	2017/01/31	2017/01/31	1554841	2069637	1759271	US912828MK32	2017/01/31	32521.45570		REDEM	2011/12/31	2017/01/31	
BOCHG	I	2017/01/31	2017/01/31	1554842	2069641	1998988	DE000EH1AAY4	2017/01/31	5.00000		REDEM	2010/06/03	2017/01/31	
BOCHG	I	2017/01/31	2017/01/31	1554843	2069642	2003744	ZAG000077454	2017/01/31	29737.30373		REDEM	2016/10/31	2017/01/31	
BOCHG	I	2017/01/31	2017/01/31	1554848	2069647	2231565	DE000NLB1DH4	2017/01/31	100.00000		REDEM	2010/05/27	2017/01/31	
BOCHG	I	2017/01/31	2017/01/31	1554849	2069648	2232759	CH0119521869	2017/01/31	5.00000		REDEM	2011/02/01	2017/01/31	
BOCHG	I	2017/01/31	2017/01/31	1554850	2069649	2290743	XS0573617940	2017/01/31	12.50000		REDEM	2016/03/17	2017/01/31	
BOCHG	I	2017/01/31	2017/01/31	1554851	2069650	2339517	XS0564046786	2017/01/31	20.00000		REDEM	2011/01/31	2017/01/31	
BOCHG	I	2017/01/31	2017/01/31	1554852	2069652	2401666	DE000A1EMER9	2017/01/31	10.00000		REDEM	2011/01/31	2017/01/31	
BOCHG	I	2017/01/31	2017/01/31	1554854	2069654	2402763	IT0004669575	2017/01/31	761.07400		REDEM	2014/06/13	2017/01/31	
BOCHG	I	2017/01/31	2017/01/31	1554855	2069655	2402909	IT0004672702	2017/01/31	56.65100		REDEM	2011/02/03	2017/01/31	
BOCHG	I	2017/01/31	2017/01/31	1554856	2069656	2406316	IT0004672694	2017/01/31	8.00000		REDEM	2011/01/31	2017/01/31	
BOCHG	I	2017/01/31	2017/01/31	1554857	2069657	2408744	AT000B005277	2017/01/31	108.50000		REDEM	2011/03/16	2017/01/31	
BOCHG	I	2017/01/31	2017/01/31	1554866	2069667	2647444	IT0004686876	2017/01/31	15.00000		REDEM	2011/01/31	2017/01/31	
BOCHG	I	2017/01/31	2017/01/31	1554869	2069670	3215731	XS0699803762	2017/01/31	100.00000		REDEM	2011/10/31	2017/01/31	
BOCHG	I	2017/01/31	2017/01/31	1554871	2069672	3251815	XS0548355238	2017/01/31	20.00000		REDEM	2011/11/03	2017/01/31	
BOCHG	I	2017/01/31	2017/01/31	1554872	2069673	3330491	ES0214970081	2017/01/31	1505.49900		REDEM	2011/12/15	2017/01/31	
BOCHG	I	2017/01/31	2017/01/31	1554905	2069707	3476393	XS0738671006	2017/01/31	1000.00000		REDEM	2012/01/31	2017/01/31	
BOCHG	I	2017/01/31	2017/01/31	1554909	2069713	3488273	US78009PCL31	2017/01/31	0.52800		REDEM	2012/01/31	2017/01/31	
BOCHG	I	2017/01/31	2017/01/31	1554910	2069714	3488354	US912828SC51	2017/01/31	35658.57180		REDEM	2013/10/31	2017/01/31	
BOCHG	I	2017/01/31	2017/01/31	1554911	2069715	3491436	US084670BD98	2017/01/31	1100.00000		REDEM	2012/01/31	2017/01/31	
BOCHG	I	2017/01/31	2017/01/31	1554912	2069716	3491437	XS0734582348	2017/01/31	275.00000		REDEM	2012/04/04	2017/01/31	
BOCHG	I	2017/01/31	2017/01/31	1554915	2069719	3503255	DE000LB0KW42	2017/01/31	75.00000		REDEM	2012/01/26	2017/01/31	
BOCHG	I	2017/01/31	2017/01/31	1554916	2069720	3503821	XS0548436749	2017/01/31	9.00000		REDEM	2012/07/31	2017/01/31	
BOCHG	I	2017/01/31	2017/01/31	1554918	2069722	3513151	IT0004785777	2017/01/31	279.38400		REDEM	2012/01/31	2017/01/31	
BOCHG	I	2017/01/31	2017/01/31	1554920	2069724	3513370	IT0004787625	2017/01/31	19.06100		REDEM	2012/03/01	2017/01/31	
BOCHG	I	2017/01/31	2017/01/31	1554921	2069725	3513391	IT0004787864	2017/01/31	35.72200		REDEM	2012/02/03	2017/01/31	
BOCHG	I	2017/01/31	2017/01/31	1554922	2069726	3516986	IT0004792419	2017/01/31	4.99500		REDEM	2012/01/31	2017/01/31	
BOCHG	I	2017/01/31	2017/01/31	1554925	2069730	3538544	RU000A0JS389	2017/01/31	2000.00000		REDEM	2016/02/02	2017/01/31	
BOCHG	I	2017/01/31	2017/01/31	1554926	2069731	3551682	DE000BLB1FD2	2017/01/31	100.00000		REDEM	2012/01/31	2017/01/31	
BOCHG	I	2017/01/31	2017/01/31	1554927	2069732	3558532	DE000DK8AHF9	2017/01/31	10.00000		REDEM	2012/01/31	2017/01/31	
BOCHG	I	2017/01/31	2017/01/31	1554928	2069733	3563067	DE000HLB3FJ9	2017/01/31	250.00000		REDEM	2012/01/31	2017/01/31	
BOCHG	I	2017/01/31	2017/01/31	1554929	2069735	3652295	US06738KK429	2017/01/31	0.50000		REDEM	2012/01/31	2017/01/31	
BOCHG	I	2017/01/31	2017/01/31	1554930	2069736	3667521	XS0549765856	2017/01/31	0.78000		REDEM	2015/12/30	2017/01/31	
BOCHG	I	2017/01/31	2017/01/31	1554931	2069737	3736968	US38143UQQ75	2017/01/31	1.58300		REDEM	2011/01/31	2017/01/31	
BOCHG	I	2017/01/31	2017/01/31	1554932	2069738	3834075	US13161EU393	2017/01/31	0.19700		REDEM	2012/02/03	2017/01/31	
BOCHG	I	2017/01/31	2017/01/31	1554933	2069739	3873932	BY52642A2146	2017/01/31	0.11080		REDEM	2016/07/01	2017/01/31	
BOCHG	I	2017/01/31	2017/01/31	1554934	2069740	3890904	CH0028979216	2017/01/31	20.00000		REDEM	2007/01/31	2017/01/31	
BOCHG	I	2017/01/31	2017/01/31	1554936	2069742	3935583	IT0003221873	2017/01/31	0.43995		REDEM	2016/01/31	2017/01/31	
BOCHG	I	2017/01/31	2017/01/31	1554938	2069745	3970802	XS0882231870	2017/01/31	1000.00000		REDEM	2014/10/19	2017/01/31	
BOCHG	I	2017/01/31	2017/01/31	1554939	2069746	3974580	DE000A1HEW12	2017/01/31	40.00000		REDEM	2013/01/28	2017/01/31	
BOCHG	I	2017/01/31	2017/01/31	1554942	2069749	3975138	US38143UXG11	2017/01/31	0.85700		REDEM	2011/08/31	2017/01/31	
BOCHG	I	2017/01/31	2017/01/31	1554944	2069751	3976016	DE000A1TM2J4	2017/01/31	5.00000		REDEM	2013/01/31	2017/01/31	
BOCHG	I	2017/01/31	2017/01/31	1554945	2069752	3980393	IT0004874985	2017/01/31	157.53200		REDEM	2013/01/31	2017/01/31	
BOCHG	I	2017/01/31	2017/01/31	1554946	2069753	3980415	IT0004886476	2017/01/31	50.00000		REDEM	2013/01/31	2017/01/31	
BOCHG	I	2017/01/31	2017/01/31	1554947	2069754	3980526	IT0004887276	2017/01/31	386.93400		REDEM	2013/01/31	2017/01/31	
BOCHG	I	2017/01/31	2017/01/31	1554948	2069755	3980538	IT0004889868	2017/01/31	10.00000		REDEM	2013/01/31	2017/01/31	
BOCHG	I	2017/01/31	2017/01/31	1554949	2069756	3980673	IT0004890577	2017/01/31	2.76900		REDEM	2013/01/31	2017/01/31	
BOCHG	I	2017/01/31	2017/01/31	1554950	2069757	3981256	IT0004886286	2017/01/31	10.88100		REDEM	2013/01/31	2017/01/31	
BOCHG	I	2017/01/31	2017/01/31	1554951	2069758	3981480	IT0004882764	2017/01/31	13.59500		REDEM	2013/01/31	2017/01/31	
BOCHG	I	2017/01/31	2017/01/31	1554952	2069765	4011388	US13161E5A19	2017/01/31	0.06000		REDEM	2013/02/05	2017/01/31	
BOCHG	I	2017/01/31	2017/01/31	1554954	2069768	4042010	US2254M0KR65	2017/01/31	1.00000		REDEM	2012/01/31	2017/01/31	
BOCHG	I	2017/01/31	2017/01/31	1554955	2069769	4042012	US4042Q0TD11	2017/01/31	5.00000		REDEM	2012/01/31	2017/01/31	
BOCHG	I	2017/01/31	2017/01/31	1554957	2069771	4055212	US2515A0AJ25	2017/01/31	25.00000		REDEM	2007/01/31	2017/01/31	
BOCHG	I	2017/01/31	2017/01/31	1554958	2069772	4068594	US40432XH616	2017/01/31	2.29100		REDEM	2013/07/31	2017/01/31	
BOCHG	I	2017/01/31	2017/01/31	1554959	2069773	4069024	DE000LBB5994	2017/01/31	50.00000		REDEM	2012/01/31	2017/01/31	
BOCHG	I	2017/01/31	2017/01/31	1554960	2069774	4079708	GB00B3W31B58	2017/01/31	0.10000		REDEM	2011/01/17	2017/01/31	
BOCHG	I	2017/01/31	2017/01/31	1554963	2069778	4163485	IT0004983265	2017/01/31	1200.00000		REDEM	2013/12/19	2017/01/31	
BOCHG	I	2017/01/31	2017/01/31	1554970	2069786	4182438	IT0004988538	2017/01/31	600.00000		REDEM	2014/06/09	2017/01/31	
BOCHG	I	2017/01/31	2017/01/31	1554972	2069788	4185682	XS1023368282	2017/01/31	20.00000		REDEM	2014/01/31	2017/01/31	
BOCHG	I	2017/01/31	2017/01/31	1554974	2069790	4187297	US55608JAG31	2017/01/31	500.00000		REDEM	2014/01/31	2017/01/31	
BOCHG	I	2017/01/31	2017/01/31	1554975	2069791	4190551	US13161G4L38	2017/01/31	0.35700		REDEM	2014/02/05	2017/01/31	
BOCHG	I	2017/01/31	2017/01/31	1554977	2069793	4191262	US22547QFP63	2017/01/31	2.80700		REDEM	2014/01/31	2017/01/31	
BOCHG	I	2017/01/31	2017/01/31	1554978	2069795	4191338	US55608KAF21	2017/01/31	500.00000		REDEM	2014/01/31	2017/01/31	
BOCHG	I	2017/01/31	2017/01/31	1554980	2069797	4191602	NO0010701287	2017/01/31	406.00000		REDEM	2016/11/16	2017/01/31	
BOCHG	I	2017/01/31	2017/01/31	1554986	2069803	4192666	IT0004984123	2017/01/31	125.61000		REDEM	2014/01/31	2017/01/31	
BOCHG	I	2017/01/31	2017/01/31	1554987	2069804	4192705	IT0004984222	2017/01/31	1.26000		REDEM	2014/01/31	2017/01/31	
BOCHG	I	2017/01/31	2017/01/31	1554988	2069805	4192710	IT0004968258	2017/01/31	97.47500		REDEM	2014/01/31	2017/01/31	
BOCHG	I	2017/01/31	2017/01/31	1554989	2069806	4192730	IT0004990500	2017/01/31	10.00000		REDEM	2014/01/31	2017/01/31	
BOCHG	I	2017/01/31	2017/01/31	1554990	2069807	4192753	IT0004987852	2017/01/31	13.81800		REDEM	2016/02/26	2017/01/31	
BOCHG	I	2017/01/31	2017/01/31	1554991	2069809	4192781	IT0004987753	2017/01/31	0.71400		REDEM	2014/01/31	2017/01/31	
BOCHG	I	2017/01/31	2017/01/31	1554992	2069810	4192854	IT0004987050	2017/01/31	20.70000		REDEM	2014/01/31	2017/01/31	
BOCHG	I	2017/01/31	2017/01/31	1554993	2069811	4192876	IT0004985856	2017/01/31	2.57400		REDEM	2014/01/31	2017/01/31	
BOCHG	I	2017/01/31	2017/01/31	1554994	2069812	4192903	IT0004987399	2017/01/31	27.00000		REDEM	2014/01/31	2017/01/31	
BOCHG	I	2017/01/31	2017/01/31	1555000	2069818	4193455	IT0004984917	2017/01/31	1.13800		REDEM	2014/01/31	2017/01/31	
BOCHG	I	2017/01/31	2017/01/31	1555001	2069819	4193464	IT0004984610	2017/01/31	6.70300		REDEM	2014/01/31	2017/01/31	
BOCHG	I	2017/01/31	2017/01/31	1555004	2069822	4200078	DE000LBB59K3	2017/01/31	5.00000		REDEM	2012/01/27	2017/01/31	
BOCHG	I	2017/01/31	2017/01/31	1555005	2069823	4206694	PLPCZ0000084	2017/01/31	10.00000		REDEM	2014/01/31	2017/01/31	
BOCHG	I	2017/01/31	2017/01/31	1555006	2069824	4226415	ES03136791Z3	2017/01/31	1.00000		REDEM	2014/01/24	2017/01/31	
BOCHG	I	2017/01/31	2017/01/31	1555008	2069827	4244472	US41456TLV97	2017/01/31	1.00000		REDEM	2011/01/31	2017/01/31	
BOCHG	I	2017/01/31	2017/01/31	1555009	2069828	4244477	US41456TLU15	2017/01/31	1.00000		REDEM	2011/01/31	2017/01/31	
BOCHG	I	2017/01/31	2017/01/31	1555010	2069829	4247688	PLPZSPV00017	2017/01/31	15.60000		REDEM	2013/12/27	2017/01/31	
BOCHG	I	2017/01/31	2017/01/31	1555011	2069830	4247696	PLPZSPV00025	2017/01/31	34.40000		REDEM	2014/01/15	2017/01/31	
BOCHG	I	2017/01/31	2017/01/31	1555012	2069831	4249022	US48123Y3Y02	2017/01/31	0.84800		REDEM	2012/01/31	2017/01/31	
BOCHG	I	2017/01/31	2017/01/31	1555013	2069832	4249035	US48123Y4B99	2017/01/31	0.22800		REDEM	2012/01/31	2017/01/31	
BOCHG	I	2017/01/31	2017/01/31	1555014	2069833	4249059	US48123Y4F04	2017/01/31	0.78500		REDEM	2012/01/31	2017/01/31	
BOCHG	I	2017/01/31	2017/01/31	1555015	2069835	4249085	US48123Y4P85	2017/01/31	12.88800		REDEM	2012/01/31	2017/01/31	
BOCHG	I	2017/01/31	2017/01/31	1555017	2069838	4278612	FR0011927508	2017/01/31	5000.00000		REDEM	2014/05/28	2017/01/31	
BOCHG	I	2017/01/31	2017/01/31	1555018	2069840	4311329		2017/01/31	1.00000		REDEM		2017/01/31	
BOCHG	I	2017/01/31	2017/01/31	1555019	2069841	4317520	US05579T2Z89	2017/01/31	0.10000		REDEM	2014/07/31	2017/01/31	
BOCHG	I	2017/01/31	2017/01/31	1555020	2069842	4322360	IT0005029639	2017/01/31	2.85100		REDEM	2014/07/31	2017/01/31	
BOCHG	I	2017/01/31	2017/01/31	1555021	2069843	4322386	IT0005031098	2017/01/31	23.18300		REDEM	2014/07/31	2017/01/31	
BOCHG	I	2017/01/31	2017/01/31	1555022	2069844	4364098	ES00000125A6	2017/01/31	6.31000		REDEM	2014/02/14	2017/01/31	
BOCHG	I	2017/01/31	2017/01/31	1555023	2069845	4374262	US05579T6D32	2017/01/31	1.03000		REDEM	2014/10/31	2017/01/31	
BOCHG	I	2017/01/31	2017/01/31	1555024	2069846	4396435	AT000B042429	2017/01/31	50.00000		REDEM	2012/01/31	2017/01/31	
BOCHG	I	2017/01/31	2017/01/31	1555025	2069847	4428059	ES0000103061	2017/01/31	34.00000		REDEM	2015/01/13	2017/01/31	
BOCHG	I	2017/01/31	2017/01/31	1555026	2069848	4432259	US83368WB912	2017/01/31	0.50000		REDEM	2015/01/30	2017/01/31	
BOCHG	I	2017/01/31	2017/01/31	1555027	2069849	4432404	US912828H607	2017/01/31	41000.78090		REDEM	2015/03/27	2017/01/31	
BOCHG	I	2017/01/31	2017/01/31	1555028	2069850	4432413	US912828H789	2017/01/31	26000.07120		REDEM	2015/02/02	2017/01/31	
BOCHG	I	2017/01/31	2017/01/31	1555029	2069851	4434204	US83368WC332	2017/01/31	0.80000		REDEM	2015/01/30	2017/01/31	
BOCHG	I	2017/01/31	2017/01/31	1555036	2069859	4446055	AZ2015006573	2017/01/31	0.72500		REDEM	2015/02/11	2017/01/31	
BOCHG	I	2017/01/31	2017/01/31	1555037	2069860	4561277	US02587DLX48	2017/01/31	1.00000		REDEM	2013/01/31	2017/01/31	
BOCHG	I	2017/01/31	2017/01/31	1555038	2069862	4564289	US3133EE5J59	2017/01/31	250.00000		REDEM	2015/07/31	2017/01/31	
BOCHG	I	2017/01/31	2017/01/31	1555046	2069871	4569398	US05568P6R37	2017/01/31	1.00000		REDEM	2014/01/31	2017/01/31	
BOCHG	I	2017/01/31	2017/01/31	1555047	2069872	4570355	XS1267954755	2017/01/31	9.16800		REDEM	2015/11/19	2017/01/31	
BOCHG	I	2017/01/31	2017/01/31	1555050	2069876	4628805	AT000B123526	2017/01/31	49.00000		REDEM	2014/01/31	2017/01/31	
BOCHG	I	2017/01/31	2017/01/31	1555054	2069880	4658095	DE000LBB59L1	2017/01/31	6.00000		REDEM	2012/01/31	2017/01/31	
BOCHG	I	2017/01/31	2017/01/31	1555062	2069891	4696617	US06366R6B62	2017/01/31	0.19700		REDEM	2016/01/29	2017/01/31	
BOCHG	I	2017/01/31	2017/01/31	1555063	2069892	4696622	US06366R6C46	2017/01/31	0.10600		REDEM	2016/01/29	2017/01/31	
BOCHG	I	2017/01/31	2017/01/31	1555064	2069893	4696626	US06366R6D29	2017/01/31	0.04700		REDEM	2016/01/29	2017/01/31	
BOCHG	I	2017/01/31	2017/01/31	1555065	2069894	4696641	US06366R6E02	2017/01/31	0.48000		REDEM	2016/01/29	2017/01/31	
BOCHG	I	2017/01/31	2017/01/31	1555066	2069895	4696643	US06366R6F76	2017/01/31	0.80900		REDEM	2016/01/29	2017/01/31	
BOCHG	I	2017/01/31	2017/01/31	1555067	2069896	4696644	US06366R6G59	2017/01/31	0.28600		REDEM	2016/01/29	2017/01/31	
BOCHG	I	2017/01/31	2017/01/31	1555068	2069900	4699403	XS1360331232	2017/01/31	30.00000		REDEM	2016/02/02	2017/01/31	
BOCHG	I	2017/01/31	2017/01/31	1555069	2069906	4700202	FR0123583405	2017/01/31	110.00000		REDEM	2016/02/02	2017/01/31	
BOCHG	I	2017/01/31	2017/01/31	1555070	2069909	4706441	LT0000410714	2017/01/31	0.14000		REDEM	2016/02/12	2017/01/31	
BOCHG	I	2017/01/31	2017/01/31	1555071	2069910	4710670	AT0000A1K8P2	2017/01/31	100.00000		REDEM	2016/02/23	2017/01/31	
BOCHG	I	2017/01/31	2017/01/31	1555072	2069911	4710673	AT0000A1K8Q0	2017/01/31	200.00000		REDEM	2016/02/23	2017/01/31	
BOCHG	I	2017/01/31	2017/01/31	1555073	2069915	4732481	ES0513045TR9	2017/01/31	0.10000		REDEM	2016/02/02	2017/01/31	
BOCHG	I	2017/01/31	2017/01/31	1555074	2069916	4734087	XS1386397894	2017/01/31	10.00000		REDEM	2016/04/08	2017/01/31	
BOCHG	I	2017/01/31	2017/01/31	1555080	2069924	4742058	US36251NAB55	2017/01/31	1.00000		REDEM	2016/02/01	2017/01/31	
BOCHG	I	2017/01/31	2017/01/31	1555081	2069925	4763420	XS1404903939	2017/01/31	28.00000		REDEM	2016/04/29	2017/01/31	
BOCHG	I	2017/01/31	2017/01/31	1555089	2069942	4808833	DE000CS8AFF6	2017/01/31	100.00000		REDEM	2012/01/31	2017/01/31	
BOCHG	I	2017/01/31	2017/01/31	1555096	2069962	4847537	IT0005203556	2017/01/31	6487.60500		REDEM	2016/07/29	2017/01/31	
BOCHG	I	2017/01/31	2017/01/31	1555098	2069966	4849596	DE000A16E294	2017/01/31	25.00000		REDEM	2016/07/29	2017/01/31	
BOCHG	I	2017/01/31	2017/01/31	1555102	2069978	4853811	NL0011983366	2017/01/31	5150.00000		REDEM	2016/11/23	2017/01/31	
BOCHG	I	2017/01/31	2017/01/31	1555161	2070118	4953157	AZ0101020516	2017/01/31	22.00000		REDEM	2016/11/01	2017/01/31	
BOCHG	I	2017/01/31	2017/01/31	1555179	2070189	5001338	USN1429UAF68	2017/01/31	1.50000		REDEM	2015/01/23	2017/01/31	
BOCHG	I	2017/01/31	2017/01/31	1555183	2070222	5007269		2017/01/31	0.05000		REDEM		2017/01/31	
BOCHG	I	2017/01/31	2017/01/31	1555186	2070229	3470178	XS0736467159	2017/01/31	2968.19200		REDEM	2016/10/26	2017/01/31	
BOCHG	I	2017/01/31	2017/01/31	1555187	2073674	4661707	DE000LBB59M9	2017/01/31	100.00000		REDEM	2012/01/27	2017/01/31	
BOCHG	I	2017/01/31	2017/01/31	1555188	2073857	4546683	IT0005120867	2017/01/31	27.84590		REDEM	2015/06/26	2017/01/31	
BOCHG	I	2017/01/31	2017/01/31	1555190	2075145	5012962		2017/01/31	100.00000		REDEM		2017/01/31	
BOCHG	I	2017/01/31	2017/01/31	1555498	2097506	3978015	IT0004490865	2017/01/29	1.19280	1.15872	REDEM	2016/12/29	2017/01/29	
BOCHG	I	2017/01/31	2017/01/31	1555499	2097508	3977113	IT0004531775	2017/01/28	1.19808	1.16736	REDEM	2016/12/28	2017/01/28	
BOCHG	I	2017/01/31	2017/01/31	1555193	2087201	3464210	XS0736616177	2017/01/31	122.00000		REDEM	2012/01/31	2017/01/31	
BOCHG	I	2017/01/31	2017/01/31	1555195	2088475	4537617	DE000CB0FBV7	2017/01/31	5.00000		REDEM	2015/04/17	2017/01/31	
BOCHG	I	2017/01/31	2017/01/31	1555203	2089593	4940000	XS1373394987	2017/01/31	1.62500		REDEM	2016/10/28	2017/01/31	
BOCHG	I	2017/01/31	2017/01/31	1555208	2089671	4926729	XS1373391454	2017/01/31	0.80000		REDEM	2016/10/21	2017/01/31	
BOCHG	I	2017/01/31	2017/01/31	1555210	2089823	524118	XS0282169472	2017/01/31	20.50000		REDEM	2007/01/31	2017/01/31	
BOCHG	I	2017/01/31	2017/01/31	1555211	2089825	524124	XS0282169712	2017/01/31	9.50000		REDEM	2007/01/31	2017/01/31	
BOCHG	I	2017/01/31	2017/01/31	1555212	2089848	4688099	XS1339629997	2017/01/31	6.40000		REDEM	2016/08/17	2017/01/31	
BOCHG	I	2017/01/31	2017/01/31	1555214	2091046	4568446	XS1222763259	2017/01/31	1.74500		REDEM	2015/12/17	2017/01/31	
BOCHG	I	2017/01/31	2017/01/31	1555220	2091209	4761226	XS1330955276	2017/01/31	5.00000		REDEM	2016/04/28	2017/01/31	
BOCHG	I	2017/01/31	2017/01/31	1555223	2091936	4705208	FR0013105046	2017/01/31	2.00000		REDEM	2016/02/10	2017/01/31	
BOCHG	I	2017/01/31	2017/01/31	1555225	2093018	2920444	DK0030038179	2017/01/31	175.00000		REDEM	2006/10/12	2017/01/31	
BOCHG	I	2017/01/31	2017/01/31	1555226	2093210	1127270	US3128X5YK89	2017/01/31	10.00000		REDEM	2007/01/31	2017/01/31	
BOCHG	I	2017/01/31	2017/01/31	1555233	2093931	4462381	XS1138839441	2017/01/31	1.12899		REDEM	2015/05/01	2017/01/31	
BOCHG	I	2017/01/31	2017/01/31	1555252	2072476	183099	XS0157738047	2017/01/31	1.57143	1.56413	REDEM	2016/12/31	2017/01/31	
BOCHG	I	2017/01/31	2017/01/31	1555253	2072477	485434	XS0158728294	2017/01/31	0.63225	0.62751	REDEM	2016/12/31	2017/01/31	
BOCHG	I	2017/01/31	2017/01/31	1555254	2072480	456025	XS0237997159	2017/01/31	0.20101	0.17939	REDEM	2016/12/30	2017/01/31	
BOCHG	I	2017/01/31	2017/01/31	1555255	2072481	454743	XS0112705065	2017/01/31	0.91470	0.90401	REDEM	2016/12/30	2017/01/31	
BOCHG	I	2017/01/31	2017/01/31	1555256	2072483	189299	XS0158946102	2017/01/31	1.23906	1.22450	REDEM	2016/12/31	2017/01/31	
BOCHG	I	2017/01/31	2017/01/31	1555257	2072486	456039	XS0238557630	2017/01/31	2.10309	2.08887	REDEM	2016/12/30	2017/01/31	
BOCHG	I	2017/01/31	2017/01/31	1555258	2072489	568832	XS0278158984	2017/01/31	10.86543	10.84085	REDEM	2016/12/31	2017/01/31	
BOCHG	I	2017/01/31	2017/01/31	1555259	2072492	1476148	XS0159534469	2017/01/31	16.58293	16.53887	REDEM	2016/12/30	2017/01/31	
BOCHG	I	2017/01/31	2017/01/31	1555260	2072493	401043	XS0260813786	2017/01/31	0.79045	0.78797	REDEM	2016/12/31	2017/01/31	
BOCHG	I	2017/01/31	2017/01/31	1555261	2072494	989409	XS0375037545	2017/01/31	23.39439	23.31011	REDEM	2016/12/31	2017/01/31	
BOCHG	I	2017/01/31	2017/01/31	1555262	2072495	470627	XS0119496148	2017/01/31	5.26082	5.18932	REDEM	2016/12/31	2017/01/31	
BOCHG	I	2017/01/31	2017/01/31	1555263	2072496	448334	XS0158528363	2017/01/31	1.33396	1.33255	REDEM	2016/12/31	2017/01/31	
BOCHG	I	2017/01/31	2017/01/31	1555264	2073113	699344	XS0112935902	2017/01/31	1.04845	1.04368	REDEM	2016/12/30	2017/01/31	
BOCHG	I	2017/01/31	2017/01/31	1555265	2073121	491241	XS0122668048	2017/01/31	12.11736	12.00758	REDEM	2016/12/31	2017/01/31	
BOCHG	I	2017/01/31	2017/01/31	1555266	2073852	317677	XS0237906705	2017/01/31	0.76092	0.71200	REDEM	2016/12/31	2017/01/31	
BOCHG	I	2017/01/31	2017/01/31	1555267	2073854	725273	XS0332429215	2017/01/31	34.27182	34.16934	REDEM	2016/12/30	2017/01/31	
BOCHG	I	2017/01/31	2017/01/31	1555268	2078191	472471	XS0123860362	2017/01/31	3.04053	3.03145	REDEM	2016/12/31	2017/01/31	
BOCHG	I	2017/01/31	2017/01/31	1555269	2078192	510575	XS0134197796	2017/01/31	1.60953	1.59798	REDEM	2016/12/31	2017/01/31	
BOCHG	I	2017/01/31	2017/01/31	1555270	2078195	4277230	XS1072042028	2017/01/31	91.54756	83.62095	REDEM	2016/07/31	2017/01/31	
BOCHG	I	2017/01/31	2017/01/31	1555271	2078196	318393	XS0238191802	2017/01/31	350.08995	341.13438	REDEM	2016/12/30	2017/01/31	
BOCHG	I	2017/01/31	2017/01/31	1555272	2078197	478412	XS0126531077	2017/01/31	1.27230	1.26953	REDEM	2016/12/31	2017/01/31	
BOCHG	I	2017/01/31	2017/01/31	1555273	2078198	447148	XS0124801993	2017/01/31	1.24163	1.23806	REDEM	2016/12/31	2017/01/31	
BOCHG	I	2017/01/31	2017/01/31	1555274	2078200	497440	XS0128983391	2017/01/31	3.91193	3.89045	REDEM	2016/12/31	2017/01/31	
BOCHG	I	2017/01/31	2017/01/31	1555275	2078201	670615	XS0141360023	2017/01/31	0.46674	0.46395	REDEM	2016/12/31	2017/01/31	
BOCHG	I	2017/01/31	2017/01/31	1555276	2078204	460934	XS0140771972	2017/01/31	0.82867	0.81804	REDEM	2016/12/31	2017/01/31	
BOCHG	I	2017/01/31	2017/01/31	1555277	2078205	518325	XS0137303185	2017/01/31	1.58190	1.57636	REDEM	2016/12/31	2017/01/31	
BOCHG	I	2017/01/31	2017/01/31	1555278	2083036	389057	XS0257439892	2017/01/31	4.29211	4.28344	REDEM	2016/12/30	2017/01/31	
BOCHG	I	2017/01/31	2017/01/31	1555279	2083037	188974	XS0157855353	2017/01/31	6.84483	6.79541	REDEM	2016/12/31	2017/01/31	
BOCHG	I	2017/01/31	2017/01/31	1555280	2083044	181304	XS0159660686	2017/01/31	10.15193	10.06589	REDEM	2016/12/31	2017/01/31	
BOCHG	I	2017/01/31	2017/01/31	1555282	2083759	313742	XS0122624009	2017/01/31	3.98182	3.95223	REDEM	2016/12/31	2017/01/31	
BOCHG	I	2017/01/31	2017/01/31	1555284	2084759	460051	XS0157217406	2017/01/31	7.06450	7.04099	REDEM	2016/12/31	2017/01/31	
BOCHG	I	2017/01/31	2017/01/31	1555285	2084760	492669	XS0142059269	2017/01/31	2.62869	2.60969	REDEM	2016/12/30	2017/01/31	
BOCHG	I	2017/01/31	2017/01/31	1555286	2087843	468076	XS0159782795	2017/01/31	6.00278	5.99656	REDEM	2016/12/31	2017/01/31	
BOCHG	I	2017/01/31	2017/01/31	1555287	2088124	4112465	US09973AAA97	2017/01/31	316.35300	294.57600	REDEM	2016/11/14	2017/01/31	
BOCHG	I	2017/01/31	2017/01/31	1555288	2088511	2401979	CA72908VAB95	2017/01/31	820.42785	813.04646	REDEM	2016/07/31	2017/01/31	
BOCHG	I	2017/01/31	2017/01/31	1555289	2091914	456737	XS0114546665	2017/01/31	16.66724	16.46598	REDEM	2016/12/31	2017/01/31	
BOCHG	I	2017/01/31	2017/01/31	1555293	2093207	141252	XS0142734416	2017/01/31	37.20936	36.04958	REDEM	2016/07/31	2017/01/31	
BOCHG	I	2017/01/31	2017/01/31	1555294	2093357	1299807	XS0118896033	2017/01/31	1.14331	1.13755	REDEM	2016/12/31	2017/01/31	
BOCHG	I	2017/01/31	2017/01/31	1555295	2096373	272021	XS0225922466	2017/01/31	13.47253	13.23824	REDEM	2016/10/31	2017/01/31	
BOCHG	I	2017/01/31	2017/01/31	1555296	2096374	272019	XS0225922383	2017/01/31	20.07076	19.72173	REDEM	2016/10/31	2017/01/31	
BOCHG	I	2017/01/31	2017/01/31	1555297	2096375	272016	XS0225922110	2017/01/31	73.27740	72.00326	REDEM	2016/10/31	2017/01/31	
BOCHG	I	2017/01/31	2017/01/31	1555298	2096376	211131	XS0206259888	2017/01/31	31.34567	30.35483	REDEM	2016/10/31	2017/01/31	
BOCHG	I	2017/01/31	2017/01/31	1555299	2096380	508542	XS0167911568	2017/01/31	11.62335	11.62300	REDEM	2016/12/31	2017/01/31	
BOCHG	I	2017/01/31	2017/01/31	1555300	2096381	211134	XS0206260464	2017/01/31	6.81674	6.60122	REDEM	2016/10/31	2017/01/31	
BOCHG	I	2017/01/31	2017/01/31	1555301	2096549	4376146	DE000A12UJZ6	2017/01/31	3.46151	3.14400	REDEM	2016/12/30	2017/01/31	
BOCHG	I	2017/01/31	2017/01/31	1555302	2096552	4475274	DE000A14KAF4	2017/01/31	5.96620	5.41561	REDEM	2016/12/30	2017/01/31	
BOCHG	I	2017/01/31	2017/01/31	1555303	2096553	4671310	DE000A169KU0	2017/01/31	20.14880	19.34075	REDEM	2016/12/30	2017/01/31	
BOCHG	I	2017/01/31	2017/01/31	1555304	2096554	4980309	DE000A2BPD33	2017/01/31	17.50000	17.21712	REDEM	2016/11/30	2017/01/31	
BOCHG	I	2017/01/31	2017/01/31	1555305	2096555	4763673	DE000A2BPUF7	2017/01/31	21.56461	20.85505	REDEM	2016/12/30	2017/01/31	
BOCHG	I	2017/01/31	2017/01/31	1555308	95135	593956	CA135087WL43	2017/01/31	10914.93300	10903.38000	CONV	2016/10/03	2017/01/31	
BOCHG	I	2017/01/31	2017/01/31	1555309	95137	658342	CA135087XG49	2017/01/31	12617.90500	12432.90500	CONV	2016/10/03	2017/01/31	
BOCHG	I	2017/01/31	2017/01/31	1555310	95138	658359	CA135087XW98	2017/01/31	13375.24900	13259.71300	CONV	2016/10/03	2017/01/31	
BOCHG	I	2017/01/31	2017/01/31	1555311	95139	954949	CA135087YQ12	2017/01/31	15528.00000	15361.34500	CONV	2016/10/03	2017/01/31	
BOCHG	I	2017/01/31	2017/01/31	1555312	94362	495783	XS0145801667	2017/01/31	14.05000		CONV	2002/04/19	2017/01/31	
BOCHG	I	2017/01/31	2017/01/31	1555315	94366	3652422	AT0000490628	2017/01/31	5.00000		CONV	2006/01/30	2017/01/31	
BOCHG	I	2017/01/31	2017/01/31	1555316	94368	3975565		2017/01/31	6.00000		CONV	2013/02/01	2017/01/31	
BOCHG	I	2017/01/31	2017/01/31	1555322	94375	4352685	AT0000A15344	2017/01/31	20.00000		CONV	2014/01/08	2017/01/31	
BOCHG	I	2017/01/31	2017/01/31	1555331	4346	4994867	XS1537559574	2017/01/31	1000.00000	1100.00000	TRNCH	2016/12/19	2017/01/31	
BOCHG	I	2017/01/31	2017/01/31	1530995	2097311	4517661	XS1233785804	2016/11/23	84.68962	79.70752	REDEM	2016/08/31	2016/11/23	
BOCHG	I	2017/01/31	2017/01/31	1555339	2097319	4470598	FR0012634558	2017/01/30	16759.00000	16559.00000	REDEM	2017/01/18	2017/01/30	
BOCHG	I	2017/01/31	2017/01/31	1555340		1166393	FR0010670737	2017/01/29	29417.00000	29217.00000	CORR	2016/12/05	2017/01/29	
BOCHG	I	2017/01/31	2017/01/31	1555341	2097320	1166393	FR0010670737	2017/01/30	29217.00000	28992.00000	REDEM	2017/01/29	2017/01/30	
BOCHG	I	2017/01/31	2017/01/31	1555342	2097321	809156	FR0010604983	2017/01/30	31107.00000	31007.00000	REDEM	2017/01/25	2017/01/30	
BOCHG	I	2017/01/31	2017/01/31	1555343	2097322	283308	FR0010235176	2017/01/30	16444.00000	16414.00000	REDEM	2016/12/12	2017/01/30	
BOCHG	I	2017/01/31	2017/01/31	1555345	2097335	4184162	XS0966575796	2017/01/30	2.02500		REDEM	2014/01/30	2017/01/30	
BOCHG	I	2017/01/31	2017/01/31	1555346	2097336	4430611	XS1139714015	2017/01/30	6.00000		REDEM	2015/01/30	2017/01/30	
BOCHG	I	2017/01/31	2017/01/31	1555347	2097337	4432456	XS1139702606	2017/01/30	5.80400		REDEM	2015/10/19	2017/01/30	
BOCHG	I	2017/01/31	2017/01/31	1555348	2097338	4433513	XS1139563057	2017/01/30	2.68800		REDEM	2015/02/05	2017/01/30	
BOCHG	I	2017/01/31	2017/01/31	1555349	2097339	4693606	XS1289137694	2017/01/30	2.05200		REDEM	2016/02/05	2017/01/30	
BOCHG	I	2017/01/31	2017/01/31	1555350	2097340	4202550	IT0004997422	2017/01/28	26.20000		REDEM	2016/07/22	2017/01/28	
BOCHG	I	2017/01/31	2017/01/31	1555351	2097341	4202566	IT0004997786	2017/01/28	23.83700		REDEM	2016/04/22	2017/01/28	
BOCHG	I	2017/01/31	2017/01/31	1555352	2097342	4432484	XS1139702515	2017/01/30	7.80180		REDEM	2015/02/05	2017/01/30	
BOCHG	I	2017/01/31	2017/01/31	1555353	95276	4633312	XS1190840089	2017/01/30	2.50000		CONV	2015/10/27	2017/01/30	
BOCHG	I	2017/01/31	2017/01/31	1555354	2097343	4639180	XS1315766920	2017/01/28	22.62300		REDEM	2015/11/03	2017/01/28	
BOCHG	I	2017/01/31	2017/01/31	1555355	2097344	4691735	FR0013088390	2017/01/28	5.00000		REDEM	2016/01/22	2017/01/28	
BOCHG	I	2017/01/31	2017/01/31	1555356	2097347	4558387	FR0012847069	2017/01/30	0.70000		REDEM	2016/12/01	2017/01/30	
BOCHG	I	2017/01/31	2017/01/31	1555357	2097348	4252761	XS0998180003	2017/01/27	0.88151	0.34651	REDEM	2014/10/20	2017/01/27	
BOCHG	I	2017/01/31	2017/01/31	1555358	2097349	3938624	XS0767847287	2017/01/27	10.10000	1.59000	REDEM	2016/12/14	2017/01/27	
BOCHG	I	2017/01/31	2017/01/31	1555359		5009171	XS1545708452	2017/01/13	509.00000	522.54000	CORR	2017/01/12	2017/01/12	
BOCHG	I	2017/01/31	2017/01/31	1555367		197689	USP6480JAD92	2017/01/26	30.56128	98.72380	CORR	2016/09/04	2017/01/26	
BOCHG	I	2017/01/31	2017/01/31	1555371	2097372	4160511	XS0991673434	2017/01/30	96.30000	85.30000	REDEM	2016/10/10	2017/01/30	
BOCHG	I	2017/01/31	2017/01/31	1555373	2097373	689170	IT0001245817	2017/01/29	2826.26125	2145.51387	REDEM	2016/07/29	2017/01/29	
BOCHG	I	2017/01/31	2017/01/31	1555374	2097374	4130014	IT0001305124	2017/01/30	1050.53160	849.11040	REDEM	2016/07/30	2017/01/30	
BOCHG	I	2017/01/31	2017/01/31	1555375	2097376	664132	IT0001491650	2017/01/28	1.53495	1.24994	REDEM	2016/01/28	2017/01/28	
BOCHG	I	2017/01/31	2017/01/31	1555376	2097378	1067319	IT0003342539	2017/01/31	2.32380	2.13015	REDEM	2016/07/31	2017/01/31	
BOCHG	I	2017/01/31	2017/01/31	1555377		5014236	US3135G0S536	2017/01/28	500.00000	525.00000	CORR	2017/01/27	2017/01/27	
BOCHG	I	2017/01/31	2017/01/31	1555379	2097381	4181545	XS1000999422	2017/01/31	5.00000		REDEM	2014/01/29	2017/01/31	
BOCHG	I	2017/01/31	2017/01/31	1555380	2097382	4064805	IT0003509285	2017/01/30	2.47329	2.40789	REDEM	2016/01/30	2017/01/30	
BOCHG	I	2017/01/31	2017/01/31	1555381	2097383	4623999	FR0012979359	2017/01/31	70.00000		REDEM	2015/10/12	2017/01/31	
BOCHG	I	2017/01/31	2017/01/31	1555382	2097384	4434326	XS1113816588	2017/01/30	0.45000		REDEM	2015/02/04	2017/01/30	
BOCHG	I	2017/01/31	2017/01/31	1555383	2097385	1567499	IT0003512172	2017/01/30	0.05253	0.04203	REDEM	2016/07/30	2017/01/30	
BOCHG	I	2017/01/31	2017/01/31	1555384	2097386	4434323	XS1113816745	2017/01/30	1.50000		REDEM	2015/02/04	2017/01/30	
BOCHG	I	2017/01/31	2017/01/31	1555385	2097387	711768	IT0003620652	2017/01/30	23.20550	22.27728	REDEM	2016/07/30	2017/01/30	
BOCHG	I	2017/01/31	2017/01/31	1555388	2097390	3924273	IT0003620751	2017/01/30	15.52100	14.90016	REDEM	2016/07/30	2017/01/30	
BOCHG	I	2017/01/31	2017/01/31	1555389	2097391	717707	IT0003657548	2017/01/29	0.70112	0.66205	REDEM	2016/07/29	2017/01/29	
BOCHG	I	2017/01/31	2017/01/31	1555390	2097392	713942	IT0003695670	2017/01/28	2.71514	2.57505	REDEM	2016/07/28	2017/01/28	
BOCHG	I	2017/01/31	2017/01/31	1555391		4952291	XS1514332789	2017/01/28	0.50000	0.75000	CORR	2017/01/27	2017/01/27	
BOCHG	I	2017/01/31	2017/01/31	1555392	2097394	3924328	IT0003794150	2017/01/29	6.30990	5.97280	REDEM	2016/07/29	2017/01/29	
BOCHG	I	2017/01/31	2017/01/31	1555393	2097395	679340	IT0003806269	2017/01/31	23.13198	22.27524	REDEM	2016/07/31	2017/01/31	
BOCHG	I	2017/01/31	2017/01/31	1555394	2097398	3924502	IT0003806285	2017/01/31	8.92836	8.59768	REDEM	2016/07/31	2017/01/31	
BOCHG	I	2017/01/31	2017/01/31	1555395		5004149	XS1531524897	2017/01/28	1.00000	1.20000	CORR	2017/01/27	2017/01/27	
BOCHG	I	2017/01/31	2017/01/31	1555397	2097403	686000	IT0003891295	2017/01/29	0.56700	0.54976	REDEM	2016/07/29	2017/01/29	
BOCHG	I	2017/01/31	2017/01/31	1555399	2097410	694497	IT0004008170	2017/01/31	0.65300	0.58770	REDEM	2016/01/31	2017/01/31	
BOCHG	I	2017/01/31	2017/01/31	1555400	2097414	4694796	XS1292840722	2017/01/30	15.00000		REDEM	2016/01/29	2017/01/30	
BOCHG	I	2017/01/31	2017/01/31	1555402	2097417	711870	IT0004008543	2017/01/30	11.22938	10.84216	REDEM	2016/07/30	2017/01/30	
BOCHG	I	2017/01/31	2017/01/31	1555403	2097421	717514	IT0004008550	2017/01/30	2.14832	2.07424	REDEM	2016/07/30	2017/01/30	
BOCHG	I	2017/01/31	2017/01/31	1555405	2097428	3927605	IT0004166457	2017/01/31	0.64771	0.62265	REDEM	2016/07/31	2017/01/31	
BOCHG	I	2017/01/31	2017/01/31	1555406	2097432	786365	IT0004316466	2017/01/30	0.16406	0.10938	REDEM	2016/07/30	2017/01/30	
BOCHG	I	2017/01/31	2017/01/31	1555407	2097434	4572845	XS1222774025	2017/01/31	1.05000		REDEM	2015/12/15	2017/01/31	
BOCHG	I	2017/01/31	2017/01/31	1555408	2097437	3927803	IT0004322233	2017/01/30	19.39278	18.80512	REDEM	2016/07/30	2017/01/30	
BOCHG	I	2017/01/31	2017/01/31	1555409		4683222	HU0000508668	2016/12/31	71759.92000	71747.88000	CORR	2016/11/30	2016/12/31	
BOCHG	I	2017/01/31	2017/01/31	1555411	2097440	4129520	IT0004323421	2017/01/30	16.90656	16.39424	REDEM	2016/07/30	2017/01/30	
BOCHG	I	2017/01/31	2017/01/31	1555413	2097442	3978672	IT0004473648	2017/01/28	4.32960	4.19840	REDEM	2016/12/28	2017/01/28	
BOCHG	I	2017/01/31	2017/01/31	1555415		5011683	US865622CE22	2017/01/13	0.25000	750.00000	CLEAN	2017/01/12	2017/01/12	
BOCHG	I	2017/01/31	2017/01/31	1555404		3969628	XS0880578728	2017/02/15	155.00000	160.42500	REISS	2013/12/02	2017/02/15	(As on 30/01/2017)<BR><BR>LU FI AVIS_57961_170130<BR><BR>ENQUEST PLC (the `Company`)<BR><BR>Notice to holders (`Noteholders`) of the Company`s GBP155,000,000 7 per cent. Extendable PIK Toggle Notes due 2022 (ISIN: XS0880578728, Common Code: 088057872) (the `Notes`)<BR><BR>Pursuant to Condition 5A(b) of the terms and conditions of the Notes (the `Conditions`), notice is hereby given that the Cash Payment Condition in respect of the Interest Payment Date falling on 15 February 2017 has not been satisfied and interest due on the Notes will not be paid in cash. The Interest Payment Date falling on 15 February 2017 will be a PIK Interest Payment Date for the purposes of the Conditions.<BR><BR>As a result of the Cash Payment Condition not being satisfied in respect of the Interest Payment Date falling on 15 February 2017, accrued interest on the Notes from (and including) 15 August 2016 will be capitalised and satisfied through the issue of Additional Notes in an aggregate principal amount of GBP5,425,000. The Additional Notes will be issued by the Company on 15 February 2017 and, upon listing, will be consolidated and form a single series with the existing Notes in issue. The aggregate outstanding principal amount of the Notes, as increased by the issue of the Additional Notes, will be GBP160,425,000.<BR><BR>The Record Date for determining the entitlement of individual Noteholders to Additional Notes will be the close of business on 31 January 2017.<BR><BR>Admission of the Additional Notes to the Official List of the Financial Conduct Authority and to trading on the London Stock Exchange`s electronic order book for retail bonds is expected to take place on (or shortly after) publication of the Group`s preliminary results for the financial year ended 31 December 2016.
BOCHG	I	2017/01/31	2017/01/31	1555418		4523653	IT0005117608	2015/06/06	3.00000	1.27900	CORR	2015/06/05	2015/06/05	
BOCHG	I	2017/01/31	2017/01/31	1555419	2097467	2401499	IT0004671571	2017/01/28	1.54560	0.77280	REDEM	2016/01/28	2017/01/28	
BOCHG	I	2017/01/31	2017/01/31	1555420		5024863	IT0005239253	2017/01/13	75.00000	150.00000	CORR	2017/01/12	2017/01/12	
BOCHG	I	2017/01/31	2017/01/31	1555421	2097468	4538067	XS1245325078	2017/01/27	23.08000	19.65000	REDEM	2016/03/10	2017/01/27	
BOCHG	I	2017/01/31	2017/01/31	1555422		4950433	US912796KU22	2017/02/02	36000.34710	70000.50480	REISS	2016/11/03	2017/02/02	
BOCHG	I	2017/01/31	2017/01/31	1555423		4564347	IT0005123820	2015/07/31	50.00000	16.00000	CORR	2015/07/30	2015/07/30	
BOCHG	I	2017/01/31	2017/01/31	1555426		1512761	AT0000439732	2013/06/26	68.20000	60.30000	CORR	2005/07/29	2013/06/26	
BOCHG	I	2017/01/31	2017/01/31	1555436		4327322	IT0005041162	2017/01/30	0.47700	0.42700	CORR	2017/01/18	2017/01/30	
BOCHG	I	2017/01/31	2017/01/31	1555438		4688013	HU0000508676	2016/12/31	56383.34000	56365.71000	CORR	2016/11/30	2016/12/31	
BOCHG	I	2017/01/31	2017/01/31	1555439	2097475	4348158	IT0005054587	2017/01/30	4.94792	4.81163	REDEM	2016/10/30	2017/01/30	
BOCHG	I	2017/01/31	2017/01/31	1555442		4693863	HU0000508692	2016/12/31	49310.56000	49305.05000	CORR	2016/11/30	2016/12/31	
BOCHG	I	2017/01/31	2017/01/31	1555445		4699098	HU0000508700	2016/12/31	47490.48000	47486.50000	CORR	2016/11/30	2016/12/31	
BOCHG	I	2017/01/31	2017/01/31	1555446		4702798	HU0000508726	2016/12/31	123383.24000	123369.13000	CORR	2016/11/30	2016/12/31	
BOCHG	I	2017/01/31	2017/01/31	1555448		4706019	HU0000508734	2016/12/31	35426.51000	35417.68000	CORR	2016/11/30	2016/12/31	
BOCHG	I	2017/01/31	2017/01/31	1555449		4715955	HU0000508742	2016/12/31	31210.13000	31193.97000	CORR	2016/11/30	2016/12/31	
BOCHG	I	2017/01/31	2017/01/31	1555451		4716596	HU0000508759	2016/12/31	52338.30000	52332.75000	CORR	2016/11/30	2016/12/31	
BOCHG	I	2017/01/31	2017/01/31	1555452		4721092	HU0000508767	2016/12/31	44838.13000	44835.24000	CORR	2016/11/30	2016/12/31	
BOCHG	I	2017/01/31	2017/01/31	1555454		4730543	HU0000508775	2016/12/31	48425.97000	48354.03000	CORR	2016/11/30	2016/12/31	
BOCHG	I	2017/01/31	2017/01/31	1555455		4735834	HU0000508684	2016/12/31	34649.09000	34641.98000	CORR	2016/11/30	2016/12/31	
BOCHG	I	2017/01/31	2017/01/31	1555457		4740115	HU0000508718	2016/12/31	57999.11000	57980.00000	CORR	2016/11/30	2016/12/31	
BOCHG	I	2017/01/31	2017/01/31	1555458		4744151	HU0000508783	2016/12/31	60637.01000	60629.98000	CORR	2016/11/30	2016/12/31	
BOCHG	I	2017/01/31	2017/01/31	1555459		4750493	HU0000509195	2016/12/31	58048.28000	58028.54000	CORR	2016/11/30	2016/12/31	
BOCHG	I	2017/01/31	2017/01/31	1555460	2097486	469407	XS0206712464	2017/01/03	44.70374	43.92273	REDEM	2016/09/30	2017/01/03	
BOCHG	I	2017/01/31	2017/01/31	1555461		4755495	HU0000509187	2016/12/31	53001.89000	52942.23000	CORR	2016/11/30	2016/12/31	
BOCHG	I	2017/01/31	2017/01/31	1555464		4759582	HU0000509179	2016/12/31	54762.04000	54755.09000	CORR	2016/11/30	2016/12/31	
BOCHG	I	2017/01/31	2017/01/31	1555467		4765319	HU0000509153	2016/12/31	89482.86000	89463.51000	CORR	2016/11/30	2016/12/31	
BOCHG	I	2017/01/31	2017/01/31	1555469		4771289	HU0000509120	2016/12/31	45075.59000	45059.70000	CORR	2016/11/30	2016/12/31	
BOCHG	I	2017/01/31	2017/01/31	1555471		714815	JP1200951760	2017/01/30	1843700.00000	1937200.00000	REISS	2016/12/26	2017/01/30	
BOCHG	I	2017/01/31	2017/01/31	1555473		5010596	US3136G4KR38	2017/01/28	15.00000	30.00000	CORR	2017/01/27	2017/01/27	
BOCHG	I	2017/01/31	2017/01/31	1555475		4778923	HU0000509104	2016/12/31	43355.33000	43303.38000	CORR	2016/11/30	2016/12/31	
BOCHG	I	2017/01/31	2017/01/31	1555476		4784229	HU0000509096	2016/12/31	38885.13000	38868.58000	CORR	2016/11/30	2016/12/31	
BOCHG	I	2017/01/31	2017/01/31	1555478		4790771	HU0000509088	2016/12/31	49253.00000	49216.94000	CORR	2016/11/30	2016/12/31	
BOCHG	I	2017/01/31	2017/01/31	1555480		4796325	HU0000509070	2016/12/31	45255.19000	45233.95000	CORR	2016/11/30	2016/12/31	
BOCHG	I	2017/01/31	2017/01/31	1555482		4803059	HU0000509062	2016/12/31	43448.63000	43389.91000	CORR	2016/11/30	2016/12/31	
BOCHG	I	2017/01/31	2017/01/31	1555484		4810179	HU0000509054	2016/12/31	53168.69000	53154.85000	CORR	2016/11/30	2016/12/31	
BOCHG	I	2017/01/31	2017/01/31	1555485		4843501	HU0000509047	2016/12/31	52657.02000	52650.07000	CORR	2016/11/30	2016/12/31	
BOCHG	I	2017/01/31	2017/01/31	1555486		4823445	HU0000509021	2016/12/31	47941.44000	47932.50000	CORR	2016/11/30	2016/12/31	
BOCHG	I	2017/01/31	2017/01/31	1555487		4829675	HU0000508999	2016/12/31	39584.53000	39578.76000	CORR	2016/11/30	2016/12/31	
BOCHG	I	2017/01/31	2017/01/31	1555489		4837200	HU0000509211	2016/12/31	40464.90000	40450.89000	CORR	2016/11/30	2016/12/31	
BOCHG	I	2017/01/31	2017/01/31	1555490		4843437	HU0000509229	2016/12/31	36467.10000	36461.56000	CORR	2016/11/30	2016/12/31	
BOCHG	I	2017/01/31	2017/01/31	1555491		4852571	HU0000509237	2016/12/31	45328.91000	45304.14000	CORR	2016/11/30	2016/12/31	
BOCHG	I	2017/01/31	2017/01/31	1555492		4859801	HU0000509245	2016/12/31	43996.33000	43980.98000	CORR	2016/11/30	2016/12/31	
BOCHG	I	2017/01/31	2017/01/31	1555493		4866243	HU0000509294	2016/12/31	39224.53000	39209.02000	CORR	2016/11/30	2016/12/31	
BOCHG	I	2017/01/31	2017/01/31	1555494		4874147	HU0000509302	2016/12/31	40140.68000	40123.15000	CORR	2016/11/30	2016/12/31	
BOCHG	I	2017/01/31	2017/01/31	1555495		4882621	HU0000509310	2016/12/31	36214.06000	36205.25000	CORR	2016/11/30	2016/12/31	
BOCHG	I	2017/01/31	2017/01/31	1555496		4891431	HU0000509328	2016/12/31	41604.50000	41593.93000	CORR	2016/11/30	2016/12/31	
BOCHG	I	2017/01/31	2017/01/31	1555506	2097518	4730603	IT0005024374	2016/11/30	2.75000	2.70000	REDEM	2016/10/30	2016/11/30	
BOCHG	I	2017/01/31	2017/01/31	1555508	2097523	4730603	IT0005024374	2016/12/30	2.70000	2.65000	REDEM	2016/11/30	2016/12/30	
BOCHG	I	2017/01/31	2017/01/31	1555509	2097524	4730603	IT0005024374	2017/01/30	2.65000	2.60000	REDEM	2016/12/30	2017/01/30	
BOCHG	I	2017/01/31	2017/01/31	1555510	2097531	4854970	IT0005204646	2017/01/28	3.00000	2.87500	REDEM	2016/07/28	2017/01/28	
BOCHG	I	2017/01/31	2017/01/31	1555512	95279	2118863	US14888TAC80	2016/12/15	280.43400		CONV	2010/03/10	2016/12/15	
BOCHG	I	2017/01/31	2017/01/31	1555513	95280	1947392	US14888TAD63	2016/12/15	110.00000		CONV	2010/05/19	2016/12/15	
BOCHG	I	2017/01/31	2017/01/31	1555514	95281	4115148	USC21847AC91	2016/12/15	110.00000		CONV	2010/05/19	2016/12/15	
BOCHG	I	2017/01/31	2017/01/31	1555515	95282	1807392	USC21847AB19	2016/12/15	280.43400		CONV	2010/03/10	2016/12/15	
BOCHG	I	2017/01/31	2017/01/31	1555526	95283	1512761	AT0000439732	2013/07/26	60.30000	2.90000	CONV	2013/06/26	2013/07/26	
BOCHG	I	2017/01/31	2017/01/31	1555560		4168719	RU000A0JUD42	2017/01/17	828.37000	827.87400	CORR	2016/12/28	2017/01/17	
BOCHG	I	2017/01/31	2017/01/31	1555580	2097570	3652924	XS0758797848	2017/01/23	150.00000	100.00000	REDEM	2016/10/21	2017/01/23	
BOCHG	I	2017/01/31	2017/01/31	1555606		4954623	DE000DB9T2J3	2016/11/02	1000.00000	1000.00000	CORR	2016/11/04	2016/11/01	
BOCHG	I	2017/01/31	2017/01/31	1555622		4444028	US588056AP65	2017/01/30	250.00000	227.00000	CORR	2014/11/26	2017/01/30	
BOCHG	I	2017/01/31	2017/01/31	1555623		4857029	DE000DB9TZH6	2016/08/03	1000.00000	1000.00000	CORR	2016/08/08	2016/08/02	
BOCHG	I	2017/01/31	2017/01/31	1555624		5021609	XS1554113925	2017/01/31	7.50000	8.00000	CORR	2017/01/30	2017/01/30	
BOCHG	I	2017/01/31	2017/01/31	1555641		4331075	US016275AN98	2014/08/19	208.13500	208.13500	CORR	2014/08/01	2014/08/18	
BOCHG	I	2017/01/31	2017/01/31	1555645		5026776	US61760QKG81	2017/01/31	1.00000	6.80000	CORR	2017/01/30	2017/01/30	
BOCHG	I	2017/01/31	2017/01/31	1555647		4761756	DE000DE04WL4	2016/04/27	1000.00000	1000.00000	CORR	2016/04/28	2016/04/26	
BOCHG	I	2017/01/31	2017/01/31	1555649		1802555	XS0490455069	2016/03/22	700.00000	730.00000	REISS	2015/01/29	2016/03/22	
BOCHG	I	2017/01/31	2017/01/31	1555652		1856747	US315295AE59	2017/01/30	182.00000	357.00000	REISS	2011/03/28	2017/01/30	
BOCHG	I	2017/01/31	2017/01/31	1555660		5008445	XS1521722576	2017/01/31	0.70000	0.89500	CORR	2017/01/30	2017/01/30	
BOCHG	I	2017/01/31	2017/01/31	1555665		5004176	XS1502934216	2017/01/31	0.50000	0.64400	CORR	2017/01/27	2017/01/27	
BOCHG	I	2017/01/31	2017/01/31	1555667		5004171	XS1502934133	2017/01/30	1.00000	1.18500	CORR	2017/01/27	2017/01/27	
BOCHG	I	2017/01/31	2017/01/31	1555669		5004168	XS1502934059	2017/01/30	1.00000	0.75300	CORR	2017/01/27	2017/01/27	
EDI_ENDOFFILE
