EDI_BBE_20170131
tablename	ActFlag	Created	Changed	BbeId	SecId	Exchgcd	Curencd	BbgexhId	Bbgexhtk
BBE	U	2012/10/05	2015/09/22	158080	388711			BBG00008W1N8	IMIGON 5.65 04/29/24
BBE	U	2012/10/05	2015/09/22	158128	388837			BBG00001J0Z7	IMIGON 4.35 11/16/18
BBE	U	2012/10/05	2017/01/31	160608	659759			BBG0000J69Q3	OBERBK F 05/02/17
BBE	U	2012/10/05	2017/01/30	160795	3271116			BBG001D065K2	OBERBK 5 01/27/21 EMTN
BBE	U	2012/10/08	2017/01/30	171146	2075183			BBG0015VX177	FTI 5 07/27/20 EMTN
BBE	U	2012/10/08	2017/01/30	172103	3857588			BBG0034313M0	FTI 4 06/15/27
BBE	U	2012/10/08	2017/01/30	172106	3857053			BBG003432CC0	FTI 3.4 06/14/22
BBE	U	2012/10/10	2017/01/31	203358	3538540			BBG002G8R251	EURDEV V9.3 01/28/19 1
BBE	U	2012/10/10	2017/01/30	230656	2403154			BBG001HJJCQ2	BCCPF 5 01/27/18 0000
BBE	U	2012/10/17	2017/01/31	325277	2630892			BBG001NMSKC5	RBS 8.25 05/05/21 EMTN
BBE	U	2012/10/25	2017/01/31	363698	269637			BBG00004W3H0	DCP 8.125 08/16/30
BBE	U	2012/10/25	2017/01/30	365110	990953			BBG00006QDG1	VZ 6.8 05/01/29
BBE	U	2012/10/25	2017/01/30	365742	832864			BBG00007MYY7	VZ 7.875 07/01/32
BBE	U	2012/10/25	2017/01/31	368688	1117998			BBG0000F3G88	DCP 6.45 11/03/36 144A
BBE	U	2012/10/25	2017/01/31	368689	2301403			BBG0000F3HC1	DCP 6.45 11/03/36 REGS
BBE	U	2012/10/25	2017/01/31	369703	1882016			BBG0000HZGF1	DCP 5.35 03/15/20 144A
BBE	U	2012/10/25	2017/01/31	370157	1437940			BBG0000KDZY5	DCP 6.75 09/15/37
BBE	U	2012/10/25	2017/01/31	370749	1429929			BBG0000MFYB7	DCP 9.75 03/15/19 REGS
BBE	U	2012/10/25	2017/01/31	371176	1839330			BBG0000P15T9	DCP 5.35 03/15/20 REGS
BBE	U	2012/10/25	2017/01/31	372075	1347403			BBG0000W1T49	DCP 9.75 03/15/19 144A
BBE	U	2012/10/25	2017/01/31	395750	3089644			BBG0022M2M94	DCP 4.75 09/30/21 144A
BBE	U	2012/10/25	2017/01/31	395765	3102470			BBG0022MK2Z9	DCP 4.75 09/30/21 REGS
BBE	U	2012/10/25	2017/01/31	399051	3625522			BBG002QJVTC4	DCP 4.95 04/01/22
BBE	U	2012/10/26	2017/01/31	412133	1288348			BBG0000DLR52	LH 1e-06 09/11/21 *
BBE	U	2012/12/07	2017/01/31	455522	3935869			BBG003NBNZL7	DCP 2.5 12/01/17
BBE	U	2013/01/12	2017/01/30	459762	3949513			BBG0037X09G6	FTI 4 06/14/32
BBE	U	2013/02/04	2017/01/30	467714	3972922			BBG000026D54	RFLBOB 7.75 01/29/18 EMTN
BBE	U	2013/02/04	2017/01/31	467926	3975172			BBG003QL6SG3	DEKA 1.4 01/30/20 866
BBE	U	2013/02/12	2017/01/31	469782	3976105			BBG0042NRT23	HVB 1.5 01/30/18 EMTN
BBE	U	2013/02/18	2017/01/31	473420	3980518			BBG0043CBV64	BCCSO 4.25 01/30/18 0000
BBE	U	2013/03/25	2017/01/31	480964	3998934			BBG0047BJ1Y9	DCP 3.875 03/15/23
BBE	U	2013/05/27	2017/01/31	494875	4039982			BBG004KGYBF5	DCP V5.85 05/21/43 144A
BBE	U	2013/06/03	2017/01/31	497233	4040713			BBG004KQWC45	DCP V5.85 05/21/43 REGS
BBE	U	2013/10/21	2017/01/30	528853	4128214			BBG005D53534	FTI 3.15 10/18/23
BBE	U	2014/01/13	2017/01/30	545865	4172839			BBG003WMTGT1	ANADI 3.55 07/28/17
BBE	U	2014/01/13	2017/01/31	546326	4173632			BBG005QQKW90	HSHN 2 01/30/18 EMTN
BBE	U	2014/01/13	2017/01/30	546467	4176137			BBG005D1WRC3	FTI 3.75 10/07/33 EMTN
BBE	U	2014/02/03	2017/01/30	552181	4190766			BBG005Q38YH2	ERSTBK 1.5 01/29/19 1250
BBE	U	2014/02/03	2017/01/30	552182	4190769			BBG005Q38YJ0	ERSTBK 2 01/29/21 1251
BBE	U	2014/02/03	2017/01/30	552268	4187798			BBG005TXPQ63	AARB 3 01/29/24 EMTn
BBE	U	2014/02/03	2017/01/31	552269	4191544			BBG005VMRWR6	AARB 3 01/30/24 EMTN
BBE	U	2014/02/03	2017/01/30	552279	4188921			BBG005TL1TG8	WLBANK 2 01/27/21 EMTn
BBE	U	2014/02/03	2017/01/30	552340	4190667			BBG005RT2RX7	LBBW 1.6 01/29/21
BBE	U	2014/02/03	2017/01/30	552417	4188884			BBG005XZJVJ5	BCPACH 3 01/27/18 0000
BBE	U	2014/02/03	2017/01/30	552437	4188954			BBG005XZJX74	BCCSE 2.715 01/27/19 0000
BBE	U	2014/02/03	2017/01/30	552442	4187854			BBG005XVVHZ3	BCCPF 3.4 01/27/19 0000
BBE	U	2014/02/03	2017/01/30	552446	4188891			BBG005XZJXB9	BCCSE 2.9 01/27/19 0000
BBE	U	2014/02/03	2017/01/31	552458	4191407			BBG005YPLQV0	EMILBC 2.9 01/30/19 0000
BBE	U	2014/02/10	2017/01/30	553461	4190621			BBG005SSM305	BNS 4 01/30/29 MTN
BBE	U	2014/02/10	2017/01/30	553462	4190635			BBG005SSM234	BNS 3.75 01/30/24
BBE	U	2014/02/10	2017/01/31	554655	4193434			BBG005YYMFP1	EMILBC 3 01/30/20 0000
BBE	U	2014/02/24	2017/01/30	559296	4204538			BBG0060M20T3	BCCBU 2.75 01/29/19 0000
BBE	U	2014/03/03	2017/01/30	561423	4207200			BBG005WQNHT1	KFW 2.3 01/29/19 EMTN
BBE	U	2014/03/24	2017/01/31	567155	4219481			BBG0064M0KW3	DCP 2.7 04/01/19
BBE	U	2014/03/24	2017/01/31	567156	4219488			BBG0064M1270	DCP 5.6 04/01/44
BBE	U	2014/03/24	2017/01/30	567838	4223192			BBG0065ZS1T9	BCCST 3 01/29/21 0000
BBE	U	2014/04/14	2017/01/30	575680	4245403			BBG006BDQ630	CRARCA 2.5 01/27/18 0000
BBE	U	2014/04/21	2017/01/30	578414	4245860			BBG0069G4CS0	CNUCOM 4 04/16/17 EMTN
BBE	U	2014/06/02	2017/01/30	590105	4272185			BBG003M61JK0	AVIATR 10.477 01/28/19
BBE	U	2014/09/29	2017/01/31	619880	4353989			BBG0074FQ4R0	INVSA 2.25 09/24/29 EMTN
BBE	U	2014/09/29	2017/01/31	619906	4351289			BBG0074RM1T2	MS V0 10/02/31 EMTn
BBE	I	2014/12/08	2014/12/08	640971	4400258			BBG007N25M91	ARBANK 12 12/09/17 EMTN
BBE	U	2015/01/05	2017/01/31	646512	4414868			BBG007QZB6P5	DZBK 0 02/25/27 EMTN
BBE	U	2015/01/05	2017/01/30	646878	4416885			BBG007QTF933	GS 2.4 01/31/22 EMTN
BBE	U	2015/01/26	2017/01/30	650514	4425521			BBG007X0G0R0	TD 1.8 01/30/20
BBE	U	2015/01/27	2017/01/31	650927	4428443			BBG007XG07B4	BAMIIM 1.2 01/30/20 0000
BBE	U	2015/02/02	2017/01/30	652559	4435088			BBG0080SG583	BCCCT 2.5 01/27/18 0000
BBE	U	2015/02/02	2017/01/30	652560	4435098			BBG0080SG592	BCCCT 2.2 01/27/20 0000
BBE	U	2015/02/09	2017/01/31	654085	4441843			BBG0082Z3FF9	CRBOVE 1.5 01/30/21 0000
BBE	U	2015/02/09	2017/01/31	654101	4438125			BBG0081TLCL4	BCCCG 3.4 01/30/18 0000
BBE	U	2015/02/09	2017/01/30	654115	4441600			BBG0082W5CJ7	BASANF 1.5 01/29/19 0000
BBE	U	2015/02/16	2017/01/30	655827	4444076			BBG007WS6091	DZBK 1.1 01/28/27 EMTN
BBE	U	2015/02/16	2017/01/30	655828	4444080			BBG007WSFD84	DZBK 1.2 01/28/30 EMTN
BBE	U	2015/02/16	2017/01/30	655830	4444087			BBG007WV1204	DZBK 0.95 01/28/25 EMTn
BBE	U	2015/02/16	2017/01/31	655832	4446520			BBG007WWVK90	DZBK 1.5 01/30/25 EMTn
BBE	U	2015/03/02	2017/01/31	658850	4453001			BBG007QP1151	CMZB 0.55 01/30/20 EMTN
BBE	U	2015/03/18	2017/01/31	663132	4461100			BBG007YY9486	DZBK 0.875 01/30/25 650
BBE	U	2015/05/04	2017/01/31	676267	4499816			BBG008LRNG53	BDSAHM 1.2 01/30/20 0000
BBE	U	2015/06/29	2017/01/30	692078	4542677			BBG009DVCLW2	BBVASM 3 06/20/20
BBE	I	2015/11/30	2015/11/30	728309	4654373			BBG00BJLC157	CGB 3.4 11/30/20
BBE	U	2016/01/11	2017/01/30	741403	4677314			BBG00BRFHXM7	UBIIM 0.6 01/29/20
BBE	U	2016/01/22	2017/01/30	744149	4684700			BBG00BW15671	FHLMC 2 01/27/20 0000
BBE	U	2016/01/25	2017/01/30	745396	4690563			BBG00BYXPXD1	FTI 0.875 01/25/21
BBE	U	2016/02/01	2017/01/30	746155	4695832			BBG00BZXB6W3	DEKA 1.5 01/27/25
BBE	U	2016/02/01	2017/01/30	746174	4696671			BBG00BN97X37	HSHN 0.7 01/28/19 eMTN
BBE	U	2016/02/01	2017/01/30	746288	4694408			BBG00C0D3RQ3	BCCCM 0.9 01/28/20
BBE	U	2016/02/08	2017/01/30	747699	4698964			BBG00C4CMJG9	BCCIN 1.05 07/27/20
BBE	U	2016/02/23	2016/02/23	751466	4707583			BBG00C807818	CMZB 2 02/24/20 EMTN
BBE	U	2016/03/11	2017/01/31	755299	4719345			BBG00CBVNNC3	WIB 0 03/02/17
BBE	I	2016/04/11	2016/04/11	762474	4743326			BBG00BYH0ZY5	HESLAN 0.6 02/24/23
BBE	U	2016/04/25	2017/01/30	766264	4755810			BBG00C7GSS44	ITGPW F 05/31/17 0217
BBE	I	2016/05/02	2016/05/02	767669	4761756			BBG00CM4TQ83	DB F 04/28/21 EMTN
BBE	I	2016/05/27	2016/05/27	774344	4782199			BBG00CP983C8	HESLAN 0.4 05/19/22 05N/
BBE	U	2016/06/04	2017/01/30	788337	4190727			BBG0067FTSR3	SANSCF 2.4 01/29/18 EMTN
BBE	U	2016/06/07	2017/01/31	798372	4218794			BBG00BDFYR73	SHBASS 0 02/23/17 0001
BBE	I	2016/06/09	2016/06/09	806430	4283813			BBG006LH9TY5	CHIOLI 6.45 06/11/34
BBE	U	2016/06/10	2017/01/30	812537	4693393			BBG00C6L2DB7	BPIPL 0.3 01/27/19 EMTN
BBE	I	2016/06/20	2016/06/20	817811	4805346			BBG00D2208K4	QBEAU V5.875 06/17/46 EMTN
BBE	U	2016/06/27	2017/01/30	819270	4813631			BBG00D61LP21	FHLMC 1.125 07/28/21 0000
BBE	U	2016/07/18	2017/01/30	824743	4833437			BBG00DBBFBX7	FNMA 0.875 10/28/19
BBE	U	2016/07/25	2017/01/30	827256	4836938			BBG00DBPCS62	FHLMC 1.75 07/27/21 0001
BBE	U	2016/07/25	2017/01/30	828128	4833263			BBG00DBJ9267	FHLB 1 07/27/20 0003
BBE	U	2016/08/01	2017/01/30	830389	4843507			BBG00DG73LS8	B 0 01/26/17
BBE	I	2016/08/08	2016/08/08	831450	4857029			BBG00D9NRRG5	DB 1 02/08/23 EMTn
BBE	I	2016/08/08	2016/08/08	831452	4853896			BBG00D73T960	DB F 07/29/22
BBE	I	2016/08/22	2016/08/22	834789	4871094			BBG00DHXQHX8	DB 1 02/22/23 .
BBE	I	2016/09/12	2016/09/12	839565	4894361			BBG00DRDK876	CMZB 0.5 09/13/23 EMTN
BBE	I	2016/09/19	2016/09/19	841384	4899023			BBG00DK9CRX0	DB 1 09/14/23
BBE	I	2016/10/03	2016/10/03	845667	4915805			BBG00DLKC072	DB 1 09/12/24
BBE	I	2016/10/10	2016/10/10	855112	4926638			BBG00DYHTVR7	FINKOM F 10/08/18
BBE	I	2016/10/17	2016/10/17	856313	4933222			BBG00DRD6J05	DB 0.7 10/12/22 EMTN
BBE	I	2016/10/24	2016/10/24	858192	4936300			BBG00DYB9VN6	CASTIL 1.2 10/13/26
BBE	I	2016/10/24	2016/10/24	858193	4936958			BBG00DY6G3T5	CASTIL 1.585 10/13/31
BBE	U	2016/10/28	2017/01/31	865008	4938258			BBG00CX8NCB5	LSS 2016-PM1 XIO
BBE	I	2016/10/31	2016/10/31	865904	4945617			BBG00DRD6HZ1	DB 0.3 10/14/19 EMTN
BBE	I	2016/11/07	2016/11/07	868188	4951715			BBG00F3258P8	DGHYP 0.05 12/06/24 EMTN
BBE	I	2016/11/07	2016/11/07	868213	4954623			BBG00DZGMBF2	DB 0.75 11/04/19 EMTN
BBE	I	2016/11/07	2016/11/07	868743	4947669			BBG00DWWTHJ6	NOVAGR 5 07/27/21
BBE	I	2016/11/07	2016/11/07	868744	4947662			BBG00DWY56X6	NOVAGR 5.5 07/27/26
BBE	I	2016/11/07	2016/11/07	868745	4947651			BBG00DWV6DD8	NOVAGR 5 07/21/21
BBE	U	2016/11/07	2017/01/31	869243	4950433			BBG00F40NRN1	XIB 0 05/04/17
BBE	I	2016/11/11	2016/11/11	880417	4953300			BBG00DZM7VF2	DB 1 11/03/21 0001
BBE	I	2016/11/14	2016/11/14	893637	4956594			BBG00DW0JMG9	CENHAN 0 11/02/21 0000
BBE	I	2016/11/21	2016/11/21	898135	4961380			BBG00DXB45J4	DB 0.375 10/28/21 EMTN
BBE	I	2016/11/28	2016/11/28	901220	4971795			BBG00F9XKMT2	ACACB 0.25 02/23/24 EMTN
BBE	U	2016/11/28	2017/01/25	901947	4974284			BBG00FDDH5D9	GS V6 01/20/27
BBE	I	2016/12/19	2016/12/19	910891	4990754			BBG00FHWV878	ACAFP 1.875 12/20/26 EMTN
BBE	I	2016/12/27	2016/12/27	912501	4996602			BBG00FFFVPM2	DB 3.1 12/23/19
BBE	I	2017/01/03	2017/01/03	914951	5006314			BBG00FP2Q951	EIGI 10.875 02/01/24 WI
BBE	U	2017/01/03	2017/01/30	915409	5007681			BBG00FP2PY02	RY V0 01/17/19 5164
BBE	I	2017/01/03	2017/01/03	915830	5004162			BBG00FJGM933	MS 0 01/27/22 GMTP
BBE	I	2017/01/03	2017/01/03	915833	5004176			BBG00FJGL7Q3	MS 0 01/27/22 GMTO
BBE	I	2017/01/09	2017/01/09	917071	5010753			BBG006RWLCV2	CENHAN 0 07/29/19 0000
BBE	I	2017/01/09	2017/01/09	917098	5010657			BBG00BWD0723	CENHAN 5.48009 03/22/17
BBE	I	2017/01/09	2017/01/09	917106	5010731			BBG00DB9DRC2	IMMINV 6 07/01/21
BBE	U	2017/01/09	2017/01/30	917727	5010561			BBG00FPMDTZ4	BACR 0 01/25/23 1290
BBE	U	2017/01/09	2017/01/30	917731	5012619			BBG00FPMGKM4	BACR V0 01/24/20 5624
BBE	U	2017/01/09	2017/01/31	917763	5010579			BBG00FP2LZF7	CS 0 01/27/23 0567
BBE	U	2017/01/09	2017/01/31	917764	5010587			BBG00FP2M152	CS 0 01/29/19 0025
BBE	U	2017/01/09	2017/01/31	917882	5010615			BBG00FPL83D3	GS 0 01/27/23 0065
BBE	U	2017/01/09	2017/01/31	917884	5010638			BBG00FPL7KV6	HSBC 0 01/27/22 0065
BBE	U	2017/01/09	2017/01/19	918015	5008373			BBG00FFGGKR3	DB V2.5 01/31/27 EMTN
BBE	I	2017/01/09	2017/01/09	918022	5009551			BBG00FGPXSY8	DB 0 02/03/22
BBE	I	2017/01/09	2017/01/09	918095	5011867			BBG00FLRVJ70	BNP 0 04/25/23
BBE	I	2017/01/09	2017/01/09	918169	5008367			BBG00FDCXPD9	BNP 0 01/30/23 MTN4
BBE	I	2017/01/09	2017/01/09	918215	5009533			BBG00F6HF7W5	HSBC 0 02/03/23 EMTO
BBE	I	2017/01/09	2017/01/09	918216	5009535			BBG00F6HF7Z2	HSBC 0 02/03/23 EMTP
BBE	I	2017/01/09	2017/01/09	918235	5009539			BBG00F8441S2	HSBC 0 02/03/23 EMTQ
BBE	I	2017/01/09	2017/01/09	918373	5010327			BBG00FPC6M25	BNP 1.125 10/10/23 EMTN
BBE	U	2017/01/16	2017/01/30	920069	5014327			BBG00FQKH3P1	CNP 3 02/01/27 AA
BBE	U	2017/01/16	2017/01/30	920114	5018106			BBG00FQN0ZC6	CS 0 07/18/18 5426
BBE	U	2017/01/16	2017/01/30	920117	5018119			BBG00FRM0KL0	CS 5.8 07/19/18 5126
BBE	U	2017/01/16	2017/01/30	920121	5018139			BBG00FN3K6Z0	CS 0 05/03/18 9598
BBE	U	2017/01/16	2017/01/30	920123	5018123			BBG00FQMZQY6	CS V0 01/19/18 6524
BBE	U	2017/01/16	2017/01/30	920387	5018168			BBG00FQXKX82	HSBC V0 01/22/19 0006
BBE	U	2017/01/16	2017/01/30	920696	5014555			BBG00FQB39W5	RY V0 01/23/20 1897
BBE	I	2017/01/16	2017/01/16	921472	5015513			BBG00FQJRLR1	ACAFP 1 09/16/24 EMTN
BBE	I	2017/01/16	2017/01/16	921564	5018079			BBG00FQRZJS8	HSBC 0 01/30/23 EMTY
BBE	U	2017/01/20	2017/01/30	921790	5014385			BBG00FS1YT48	HSBC 0 10/23/18 1987
BBE	I	2017/01/23	2017/01/23	923107	5021262			BBG00FRSNMJ1	DB 1.5 01/20/22 EMTN
BBE	I	2017/01/23	2017/01/23	923131	5025743			BBG00FM8MDM7	NDB 0.85 01/19/24
BBE	I	2017/01/23	2017/01/23	923132	5025790			BBG00FRSJ8H9	NDB 0.5 01/20/23
BBE	U	2017/01/23	2017/01/30	923451	5023789			BBG00FQK73L6	BMO 2.5 01/24/25 5623
BBE	U	2017/01/23	2017/01/30	923488	5024978			BBG00FRYM0X1	BACR V0 02/07/18 5426
BBE	U	2017/01/23	2017/01/31	923532	5024817			BBG00FQGZYH1	CS V0 01/27/20 0567
BBE	U	2017/01/23	2017/01/30	923533	5022545			BBG00FQN6SV5	CS 7.7 07/23/18
BBE	U	2017/01/23	2017/01/31	923547	5024845			BBG00FQMXDT3	CS 11.5 01/25/18 0564
BBE	U	2017/01/23	2017/01/31	923695	5020060			BBG00FRRDKX2	GS V0 01/19/27 0025
BBE	U	2017/01/23	2017/01/30	923696	5020137			BBG00FRRDLV2	GS V0 01/19/27 1250
BBE	U	2017/01/23	2017/01/30	923708	5025714			BBG00FS24417	HSBC 7 01/25/19 0069
BBE	U	2017/01/23	2017/01/30	923716	5024832			BBG00FQPHNV9	JPM V0 01/25/19 5263
BBE	U	2017/01/23	2017/01/31	923733	5025854			BBG00FSCQGP8	FWONA 1 01/30/23 144A
BBE	U	2017/01/23	2017/01/30	923742	5023680			BBG00FS6CHQ3	MS 0 10/23/18 0065
BBE	U	2017/01/23	2017/01/30	923743	5023686			BBG00FS6CV55	MS 0 01/27/22 7545
BBE	U	2017/01/23	2017/01/31	923756	5022667			BBG00FQN08Y2	RY 2.3 01/26/22 5241
BBE	U	2017/01/23	2017/01/30	923758	5023703			BBG00FS1Z291	RY 0 10/05/18 0025
BBE	U	2017/01/23	2017/01/30	923760	5023699			BBG00FS1YB65	RY 0 01/25/19 0564
BBE	U	2017/01/23	2017/01/30	923775	5021428			BBG00FRM0H19	SOCGEN V0 01/29/32
BBE	I	2017/01/23	2017/01/23	923940	5020962			BBG00FRQV460	BNP 0 01/27/25 0002
BBE	I	2017/01/23	2017/01/23	923981	5024623			BBG00FS0QPN6	BNP V0 01/30/19
BBE	I	2017/01/23	2017/01/23	924024	5021327			BBG00FQVBMN3	MS 0 01/26/21
BBE	I	2017/01/23	2017/01/23	924039	5024672			BBG00FRT43H4	GS 0 01/13/20
BBE	I	2017/01/23	2017/01/23	924334	5019964			BBG00FRJKG16	HSBC 0 01/27/22 EMTP
BBE	I	2017/01/23	2017/01/23	924359	5020065			BBG00FRLL6K1	HSBC 0 01/27/20 0007
BBE	I	2017/01/23	2017/01/23	924404	5021556			BBG00FRR9N70	HSBC 0 01/28/21 0007
BBE	I	2017/01/23	2017/01/23	924436	5021720			BBG00FRR9BH5	LPTY F 01/28/20 EMTN
BBE	I	2017/01/23	2017/01/23	924442	5021609			BBG00FRR9MF3	HSBC 0 01/28/20 EMTS
BBE	I	2017/01/23	2017/01/23	924485	5023838			BBG00FRV7PG8	BNP 4.01 01/30/24 EMTn
BBE	I	2017/01/23	2017/01/23	924490	5023846			BBG00FRV8PQ6	HSBC 0 01/30/20 000E
BBE	I	2017/01/23	2017/01/23	924495	5024890			BBG00FRVC665	DB 2.4 01/27/20 EMTN
BBE	I	2017/01/23	2017/01/23	924498	5024919			BBG00FRWW5Y2	HSBC 0 02/02/21
BBE	I	2017/01/23	2017/01/23	924506	5026301			BBG00FRS7CL8	SOCGEN V5 01/24/29 EMTn
BBE	I	2017/01/23	2017/01/23	924508	5024982			BBG00FS192Z1	CMZB 0 01/28/27 0001
BBE	I	2017/01/23	2017/01/23	924509	5024989			BBG00FS192X3	CMZB 0 01/25/24
BBE	I	2017/01/23	2017/01/23	924510	5025009			BBG00FS192W4	CMZB 0 01/27/22
BBE	I	2017/01/23	2017/01/23	924511	5024995			BBG00FS192V5	CMZB 0 01/28/27
BBE	I	2017/01/23	2017/01/23	924512	5024999			BBG00FS193Q9	CMZB 0 01/25/24 0001
BBE	I	2017/01/23	2017/01/23	924513	5025003			BBG00FS193N2	CMZB 0 01/27/22 0002
BBE	I	2017/01/23	2017/01/23	924514	5025006			BBG00FS193T6	CMZB 0 01/28/27 0002
BBE	I	2017/01/23	2017/01/23	924515	5025010			BBG00FS193S7	CMZB 0 01/25/24 0002
BBE	I	2017/01/23	2017/01/23	924516	5025012			BBG00FS193R8	CMZB 0 01/27/22 0003
BBE	I	2017/01/23	2017/01/23	924517	5025060			BBG00FS193M3	CMZB 0 01/27/22 0001
BBE	I	2017/01/23	2017/01/23	924528	5025150			BBG00FRY6693	EIB 7 07/27/20 EMTN
BBE	I	2017/01/23	2017/01/23	924531	5025076			BBG00FRY2688	BRCOL 1.337 01/27/37 EMTN
BBE	I	2017/01/23	2017/01/23	924586	5026303			BBG00FRZVTF5	HSBC 2.102 01/30/47 emtn
BBE	I	2017/01/23	2017/01/23	924588	5023511			BBG00FRZZN37	SRGIM 1.25 01/25/25 EMTN
BBE	I	2017/01/23	2017/01/23	924607	5025775			BBG00FS7KY76	HESLAN 0 01/27/20 EMTN
BBE	U	2017/01/27	2017/01/30	924694	5023677			BBG00FVMQ8V3	MS 0 11/06/18 1867
BBE	I	2017/01/27	2017/01/27	924728	5026151			BBG00FVNXYG3	SOCGEN V0 07/30/18 EMTO
BBE	I	2017/01/30	2017/01/30	925394	5027690			BBG00FVBMYV4	ARMTB 0 10/23/17 273D
BBE	I	2017/01/30	2017/01/30	925398	5026950			BBG00F0HY5H1	RFLBTI F 11/07/19
BBE	I	2017/01/30	2017/01/30	925399	5026869			BBG00F46K096	ERSTBK 9 11/30/17
BBE	I	2017/01/30	2017/01/30	925400	5026873			BBG00F46K0C2	ERSTBK 7.5 11/30/17
BBE	I	2017/01/30	2017/01/30	925401	5027029			BBG00F46K078	ERSTBK 5.5 11/30/17
BBE	I	2017/01/30	2017/01/30	925402	5027102			BBG00F46K005	ERSTBK 4.2 11/30/20
BBE	I	2017/01/30	2017/01/30	925403	5026741			BBG00F6H9XW5	ERSTBK 0 11/30/24
BBE	I	2017/01/30	2017/01/30	925404	5027258			BBG00F5D99Q5	CENHAN 2.16867 03/20/18
BBE	I	2017/01/30	2017/01/30	925405	5027149			BBG00F5D5PX5	CENHAN 10.4819 03/20/18
BBE	I	2017/01/30	2017/01/30	925406	5027227			BBG00F5D5PY4	CENHAN 13.0189 09/20/17
BBE	I	2017/01/30	2017/01/30	925407	5027236			BBG00F5D5PZ3	CENHAN 13.7349 03/20/18
BBE	I	2017/01/30	2017/01/30	925408	5027245			BBG00F5D5Q27	CENHAN 10.4819 03/20/18 0001
BBE	I	2017/01/30	2017/01/30	925409	5027254			BBG00F5D5Q36	CENHAN 19.8113 09/20/17
BBE	I	2017/01/30	2017/01/30	925410	5027329			BBG00F5D5Q45	CENHAN 14.4578 03/20/18
BBE	I	2017/01/30	2017/01/30	925411	5027352			BBG00F5D5Q54	CENHAN 15.9036 03/20/18
BBE	I	2017/01/30	2017/01/30	925412	5026759			BBG00F6H9XB8	ERSTBK 1.75 11/30/22
BBE	I	2017/01/30	2017/01/30	925413	5026719			BBG00F80QN80	RFLBOB V1 11/29/21 63
BBE	I	2017/01/30	2017/01/30	925414	5026744			BBG00F83D024	RFLBOB 0.875 11/29/24 64
BBE	I	2017/01/30	2017/01/30	925415	5026787			BBG00F847S55	RFLBOB V0.75 11/29/23 66
BBE	I	2017/01/30	2017/01/30	925416	5026821			BBG00F8TVX25	RFVBSA 0.4 11/14/22 14
BBE	I	2017/01/30	2017/01/30	925417	5027960			BBG00FRQ0NP1	BAWAG 0 12/29/26 01
BBE	I	2017/01/30	2017/01/30	925418	5029207			BBG00FRTFJZ7	BTV 1.04 01/20/27
BBE	I	2017/01/30	2017/01/30	925419	5031556			BBG00FRZVCP1	RFVBSA 0.851 01/26/27 02
BBE	I	2017/01/30	2017/01/30	925420	5029201			BBG00FRQ1QH2	RBIAV 2.45 01/23/20 EMTN
BBE	I	2017/01/30	2017/01/30	925421	5031517			BBG00FS5VC49	RFVORA 0.6 01/24/22
BBE	I	2017/01/30	2017/01/30	925437	5029672			BBG00FRN3LN1	WALLOO F 01/25/47 EMTN
BBE	I	2017/01/30	2017/01/30	925438	5026486			BBG00FRQ0JW2	CCBGBB F 01/23/19 Emtn
BBE	I	2017/01/30	2017/01/30	925439	5031080			BBG00FWJL265	FBAVP F 01/27/18 EMTN
BBE	I	2017/01/30	2017/01/30	925440	5029355			BBG00FSDB0N9	BULGGB 1.95 07/25/27
BBE	I	2017/01/30	2017/01/30	925525	5029623			BBG0005YRQS2	DAHIN 1.25 07/17/02
BBE	I	2017/01/30	2017/01/30	925526	5029505			BBG003T44N44	SOCGEN 3.75 01/10/18 EMTN
BBE	I	2017/01/30	2017/01/30	925527	5027124			BBG0062RRPB7	ZKB 0 03/10/17 0000
BBE	I	2017/01/30	2017/01/30	925528	5029421			BBG00646TS78	LOMBOD 0 PERP 000T
BBE	I	2017/01/30	2017/01/30	925529	5029562			BBG005M8FQ57	SOCGEN F 01/10/19 EmTN
BBE	I	2017/01/30	2017/01/30	925530	5027133			BBG006M291H7	EMRAIF 4.5 06/20/18 0000
BBE	I	2017/01/30	2017/01/30	925531	5029437			BBG009KCLRG1	CS 0 07/13/18 0000
BBE	I	2017/01/30	2017/01/30	925532	5029575			BBG0074R9GZ7	SOCGEN V0 09/24/19 0002
BBE	I	2017/01/30	2017/01/30	925533	5029492			BBG008KSD3P0	LOMBOD 0 PERP 001G
BBE	I	2017/01/30	2017/01/30	925534	5029592			BBG00CR2YHB2	SOCGEN 4.38 07/10/21 emtn
BBE	I	2017/01/30	2017/01/30	925535	5029598			BBG00CR367D1	SOCGEN F 07/10/21 EMt9
BBE	I	2017/01/30	2017/01/30	925536	5031751			BBG00F37DDL1	LEONSW 0 11/01/21
BBE	I	2017/01/30	2017/01/30	925537	5030487			BBG00FVMF710	PFZENT 0.125 12/02/24 FEB
BBE	I	2017/01/30	2017/01/30	925538	5030514			BBG00FVMCK87	PFZENT 0.375 09/21/27 489
BBE	I	2017/01/30	2017/01/30	925539	5030500			BBG00FVMDL20	PFZENT 0.5 02/20/32 490
BBE	I	2017/01/30	2017/01/30	925540	5030497			BBG00FVCC3G8	CS V7.125 PERP
BBE	I	2017/01/30	2017/01/30	925541	5030509			BBG00FVM8638	ZUGNSW 0.7 02/17/22
BBE	I	2017/01/30	2017/01/30	925818	5026588			BBG00FS69B17	CZTB 0 09/29/17 252d
BBE	I	2017/01/30	2017/01/30	925819	5031924			BBG00FWHJ7L4	CZTB 0 06/30/17 154D
BBE	I	2017/01/30	2017/01/30	925820	5028566			BBG00FQKKJY2	BREMEN 0 01/23/20 206
BBE	I	2017/01/30	2017/01/30	925821	5028353			BBG00FRZWNG6	ANNGR 0.75 01/25/22 EMTN
BBE	I	2017/01/30	2017/01/30	925822	5028781			BBG00FRZZ7P8	ANNGR 1.75 01/25/27 eMTN
BBE	I	2017/01/30	2017/01/30	925823	5031390			BBG00FS06D91	HESSEN 0.125 01/25/24 1701
BBE	I	2017/01/30	2017/01/30	925824	5031317			BBG00FRT3QJ2	BERGER F 06/23/23 492
BBE	I	2017/01/30	2017/01/30	925825	5029710			BBG00FRX9SY6	NECPRI 0.523 01/17/27
BBE	I	2017/01/30	2017/01/30	925826	5029717			BBG00FRX9VC3	NECPRI 0.6465 01/17/27
BBE	I	2017/01/30	2017/01/30	925827	5030866			BBG00FN53GW5	OPUSCH 0 12/28/21 0001
BBE	I	2017/01/30	2017/01/30	925828	5031622			BBG00FWH5LV7	SIXTLE 1.125 02/03/21
BBE	I	2017/01/30	2017/01/30	925829	5029041			BBG00FVBKTM7	PBBGR 0.875 01/29/21 EMTN
BBE	I	2017/01/30	2017/01/30	925830	5031387			BBG00FRZTZ73	AARB 0.01 07/04/22 EMTN
BBE	I	2017/01/30	2017/01/30	925831	5032036			BBG00FLYNJL8	BACR 1.25 01/14/19
BBE	I	2017/01/30	2017/01/30	925832	5029736			BBG00FMBHG67	BACR 1.25 01/14/19 0002
BBE	I	2017/01/30	2017/01/30	925833	5029741			BBG00FP0BFD8	CMZB 3.28 01/12/18
BBE	I	2017/01/30	2017/01/30	925834	5028339			BBG00FF8KPT3	CS 0 01/13/20
BBE	I	2017/01/30	2017/01/30	925835	5031314			BBG00FRT5CJ1	DB F 01/24/23
BBE	I	2017/01/30	2017/01/30	925836	5031310			BBG00FQK5H28	DZBK 1 01/23/30 EMTN
BBE	I	2017/01/30	2017/01/30	925837	5030863			BBG00FPLXNN0	DZBK 1.35 06/25/24 9187
BBE	I	2017/01/30	2017/01/30	925838	5030859			BBG00FJSMMX5	DHY 4.998 12/23/26 Emtn
BBE	I	2017/01/30	2017/01/30	925839	5028335			BBG00FRLD0R6	DHY F 01/19/22 EMtn
BBE	I	2017/01/30	2017/01/30	925840	5032044			BBG00FGJKBW5	DEKA 4.8 06/07/18
BBE	I	2017/01/30	2017/01/30	925841	5032051			BBG00FFKXJX1	DEKA 0 06/07/18
BBE	I	2017/01/30	2017/01/30	925842	5028281			BBG00FP09669	DEKA 3 06/29/20
BBE	I	2017/01/30	2017/01/30	925843	5029695			BBG00F80SCK8	DEKA 0 11/22/17
BBE	I	2017/01/30	2017/01/30	925844	5029706			BBG00FFCR405	DEKA F 01/06/26 6229
BBE	I	2017/01/30	2017/01/30	925845	5029139			BBG00FS6YT65	HESLAN 1.56 01/26/32
BBE	I	2017/01/30	2017/01/30	925846	5030776			BBG00FHQZSK8	HESLAN 3.25 04/19/18
BBE	I	2017/01/30	2017/01/30	925847	5028285			BBG00FQK1L23	HVB 3 07/25/18
BBE	I	2017/01/30	2017/01/30	925848	5028295			BBG00FQK0039	HVB 3 01/25/19
BBE	I	2017/01/30	2017/01/30	925849	5028297			BBG00FQK1L41	HVB 3 07/25/19
BBE	I	2017/01/30	2017/01/30	925850	5028300			BBG00FQJZZD6	HVB 3 01/24/20
BBE	I	2017/01/30	2017/01/30	925851	5030841			BBG00FQ7DMY2	HVB 3 01/10/20
BBE	I	2017/01/30	2017/01/30	925852	5030847			BBG00FQ7DRY1	HVB 3.52 01/10/21 0001
BBE	I	2017/01/30	2017/01/30	925853	5028326			BBG00FRT3GD0	HVB 3.25 01/19/21
BBE	I	2017/01/30	2017/01/30	925854	5028112			BBG00FRLG912	LBBW F 01/23/20 EMTN
BBE	I	2017/01/30	2017/01/30	925855	5031319			BBG00FS0HLW5	BAYLAN 0.05 11/30/21 1169
BBE	I	2017/01/30	2017/01/30	925856	5028331			BBG00FHX1KS9	MS 2 12/15/21 eMtN
BBE	I	2017/01/30	2017/01/30	925857	5031334			BBG00FHQ3015	NDB 1.2 01/24/29
BBE	I	2017/01/30	2017/01/30	925858	5031935			BBG00FHWH8M7	NDB F 07/25/19
BBE	I	2017/01/30	2017/01/30	925859	5031313			BBG00FHWJ4P1	NDB 0.1 01/23/20
BBE	I	2017/01/30	2017/01/30	925860	5031385			BBG00FJL7J00	NDB F 01/24/22
BBE	I	2017/01/30	2017/01/30	925861	5027172			BBG00FGBK1Q1	LANDBR 1 04/01/22 B
BBE	I	2017/01/30	2017/01/30	925862	5031226			BBG00FQWRGK0	DGB 0.5 11/15/27 10
BBE	I	2017/01/30	2017/01/30	925864	5029604			BBG00FVM7WP8	SPGB 1.5 04/30/27
BBE	I	2017/01/30	2017/01/30	925865	5029996			BBG00FSCD095	ESMTB 0 07/20/17
BBE	I	2017/01/30	2017/01/30	925866	5031467			BBG003BXR7X7	ACAFP V0 09/19/17 0000
BBE	I	2017/01/30	2017/01/30	925867	5028241			BBG005WNRXZ2	JBOG 4.5 12/18/19
BBE	I	2017/01/30	2017/01/30	925868	5030739			BBG00BW0K6H5	EXANE 0 01/30/17
BBE	I	2017/01/30	2017/01/30	925869	5032271			BBG00BW0KH18	EXANE 0 01/30/17 0002
BBE	I	2017/01/30	2017/01/30	925870	5032306			BBG00BW2V3L1	EXANE 0.75 02/05/19
BBE	I	2017/01/30	2017/01/30	925871	5032334			BBG00BZSHCP3	EXANE 0 02/11/19
BBE	I	2017/01/30	2017/01/30	925872	5032356			BBG00C4CQ5Z4	EXANE 0 02/11/22 0001
BBE	I	2017/01/30	2017/01/30	925873	5030829			BBG00C4DTN80	EXANE 0 02/22/19
BBE	I	2017/01/30	2017/01/30	925874	5030865			BBG00C5VZRV7	EXANE 0 02/28/22 0001
BBE	I	2017/01/30	2017/01/30	925875	5030869			BBG00C5V46R2	EXANE 0 02/28/22
BBE	I	2017/01/30	2017/01/30	925876	5026859			BBG00DHR4G21	BNP V0 01/13/27 0000
BBE	I	2017/01/30	2017/01/30	925877	5026706			BBG00DKNVG80	SOCGEN 0 PERP 1PFU
BBE	I	2017/01/30	2017/01/30	925878	5029247			BBG00FQGPHB5	KNFP 0 03/10/27 0001
BBE	I	2017/01/30	2017/01/30	925879	5031326			BBG00FQW4048	HSBC 0 01/26/37 Emtn
BBE	I	2017/01/30	2017/01/30	925880	5031609			BBG00FRJP123	KNFP 0 03/25/27
BBE	I	2017/01/30	2017/01/30	925881	5031789			BBG00FRLZ001	CMARK 1.344 01/26/37 EMTN
BBE	I	2017/01/30	2017/01/30	925882	5030850			BBG00FRSN4H3	LBPSFH 0.375 01/24/25 EMTN
BBE	I	2017/01/30	2017/01/30	925883	5030269			BBG00FRWVJB8	FRLBP F 07/24/18 EMTN
BBE	I	2017/01/30	2017/01/30	925884	5031720			BBG00FRWVHY7	AXASA 1.25 01/26/32 EMTN
BBE	I	2017/01/30	2017/01/30	925885	5030485			BBG00FS051B5	BPCECB 0.965 01/26/29 Emtn
BBE	I	2017/01/30	2017/01/30	925886	5029537			BBG00FPC1YD2	FRTR 1.75 06/25/39
BBE	I	2017/01/30	2017/01/30	925887	5030355			BBG00FVNWR51	CADES 0.125 11/25/22 DIP
BBE	I	2017/01/30	2017/01/30	925888	5027238			BBG00FSCH1P1	BTF 0 07/05/17 +23S
BBE	I	2017/01/30	2017/01/30	925890	5030748			BBG00FQGQBM5	UKT 1.75 07/22/57
BBE	I	2017/01/30	2017/01/30	925891	5031774			BBG00FWN7707	UKTB 0 08/07/17
BBE	I	2017/01/30	2017/01/30	925919	5026579			BBG00CZRH5F9	CROTB 0 06/01/17 364D
BBE	I	2017/01/30	2017/01/30	925920	5028176			BBG00FRJ64J0	HIBTB 1 07/26/17 6 M
BBE	I	2017/01/30	2017/01/30	925921	5028139			BBG00FRJ5PD0	HIBTB 2.25 01/24/18 12M
BBE	I	2017/01/30	2017/01/30	925922	5029496			BBG00FVMD1V2	HTB 0 05/03/17 3M
BBE	I	2017/01/30	2017/01/30	925964	5028154			BBG00FRPP4B3	BAPORD 1.1 10/31/21
BBE	I	2017/01/30	2017/01/30	925965	5028172			BBG00FRPP4C2	CASPAD 0.6 01/05/21
BBE	I	2017/01/30	2017/01/30	925966	5028194			BBG00FRPP4D1	CASPAD 1 01/05/22
BBE	I	2017/01/30	2017/01/30	925967	5028202			BBG00FRPP4F9	CASPAD 1.1 01/05/23
BBE	I	2017/01/30	2017/01/30	925968	5030835			BBG00FRZTTV0	CVALIM 1.2 02/06/20
BBE	I	2017/01/30	2017/01/30	925969	5028275			BBG00FRSPDG2	BCPER 0.9 01/15/20
BBE	I	2017/01/30	2017/01/30	925970	5030565			BBG00FP848T8	BOTS 0 07/31/17
BBE	I	2017/01/30	2017/01/30	925971	5030656			BBG00FRWTZ61	CRPALI 1 02/13/20
BBE	I	2017/01/30	2017/01/30	925972	5029154			BBG00FRSPDH1	CACENR F 01/16/23
BBE	I	2017/01/30	2017/01/30	925973	5031240			BBG00FS5NNP1	BAPESC 1 07/24/22
BBE	I	2017/01/30	2017/01/30	925974	5031245			BBG00FS5NNQ0	BCCAL 1.25 07/16/19
BBE	I	2017/01/30	2017/01/30	925975	5031249			BBG00FS5NNR9	BCCAL 0.75 01/16/20
BBE	I	2017/01/30	2017/01/30	925976	5031264			BBG00FS5NNS8	BCCAL 0.8 01/16/22
BBE	I	2017/01/30	2017/01/30	925977	5030879			BBG00FRZTTW9	CARPP 0.3 01/16/22
BBE	I	2017/01/30	2017/01/30	925978	5030846			BBG00FRZTTX8	SPEZIA 0.3 01/16/22
BBE	I	2017/01/30	2017/01/30	925979	5030881			BBG00FRZTTY7	BFRIUL 0.3 01/16/22
BBE	I	2017/01/30	2017/01/30	925980	5030716			BBG00FRWTZ70	BALALO 0.35 01/16/20
BBE	I	2017/01/30	2017/01/30	925981	5030774			BBG00FRWTZ89	BAVALS 1 01/16/22
BBE	I	2017/01/30	2017/01/30	925982	5030784			BBG00FQXKZF9	BANDES 0.6 02/01/21
BBE	I	2017/01/30	2017/01/30	925983	5030793			BBG00FQXL3X9	BANDES 0.5 02/01/20
BBE	I	2017/01/30	2017/01/30	925984	5030811			BBG00FRWTZ98	BALALO 0.5 01/16/22
BBE	I	2017/01/30	2017/01/30	925985	5030815			BBG00FRWTZB5	BALALO 0.45 01/16/21
BBE	I	2017/01/30	2017/01/30	925986	5032063			BBG00FS5NNT7	BCROOC 0.6 01/16/20
BBE	I	2017/01/30	2017/01/30	925987	5030820			BBG00FRWTZC4	BALALO 0.75 01/16/25
BBE	I	2017/01/30	2017/01/30	925988	5028192			BBG00FRJQD08	CDEP V0 01/23/19 EMTN
BBE	I	2017/01/30	2017/01/30	925989	5030889			BBG00FS5NNW3	CDEP 0 01/17/18
BBE	I	2017/01/30	2017/01/30	926113	5032368			BBG00FVBR8C7	LGB 0.625 02/01/27
BBE	I	2017/01/30	2017/01/30	926114	5029936			BBG00FRZT1Q7	MOLDTB 0 04/27/17 91D
BBE	I	2017/01/30	2017/01/30	926115	5029945			BBG00FRZT5X0	MOLDTB 0 07/27/17 182D
BBE	I	2017/01/30	2017/01/30	926116	5029953			BBG00FRZTDL6	MOLDTB 0 01/25/18 364D
BBE	I	2017/01/30	2017/01/30	926117	5029962			BBG00FVNMBH4	MACGB 2.2 01/26/19
BBE	I	2017/01/30	2017/01/30	926118	5029968			BBG00FVMPDF1	MACGB 3.8 01/26/32
BBE	I	2017/01/30	2017/01/30	926119	5029966			BBG00FVMNJF0	MACTB 0 01/24/18
BBE	I	2017/01/30	2017/01/30	926120	5032016			BBG00FM8P5X9	MALTTB 0 02/23/17
BBE	I	2017/01/30	2017/01/30	926121	5032041			BBG00FM8P6M9	MALTTB 0 07/27/17
BBE	I	2017/01/30	2017/01/30	926147	5032078			BBG00FS1T3X9	OLAV 2.9 01/27/27
BBE	I	2017/01/30	2017/01/30	926148	5028952			BBG00FSD2LX2	HAUGBK F 01/27/20
BBE	I	2017/01/30	2017/01/30	926149	5028961			BBG00FVBPBP8	HOLAND F 01/27/20
BBE	I	2017/01/30	2017/01/30	926150	5028958			BBG00FVCM2W1	LILHAM 1.249 09/26/17 CD
BBE	I	2017/01/30	2017/01/30	926151	5030832			BBG00FVMGLN4	TYSVAE 1.28 01/31/18 CD
BBE	I	2017/01/30	2017/01/30	926152	5030830			BBG00FVMK1H0	KRAKOM 1.97 01/27/22
BBE	I	2017/01/30	2017/01/30	926153	5031216			BBG00FVNC953	AASEN F 03/03/22
BBE	I	2017/01/30	2017/01/30	926154	5031232			BBG00FVSXJG5	ORLASP F 02/01/21
BBE	I	2017/01/30	2017/01/30	926155	5031220			BBG00FVSYM59	DRATOR F 01/27/20
BBE	I	2017/01/30	2017/01/30	926156	5031229			BBG00FVT0FW9	VAKSDL 1.25 06/02/17 CD
BBE	I	2017/01/30	2017/01/30	926157	5031231			BBG00FVTDVM1	VEA 1.4 04/27/17 CD
BBE	I	2017/01/30	2017/01/30	926158	5031221			BBG00FVT3LY1	LARKOM 1.32 04/27/17 CD
BBE	I	2017/01/30	2017/01/30	926159	5031227			BBG00FVT41K9	MALVIK 1.33 01/26/18 CD
BBE	I	2017/01/30	2017/01/30	926160	5031219			BBG00FVT8HV8	AUFYNO 1.28 04/27/17 CD
BBE	I	2017/01/30	2017/01/30	926161	5032079			BBG00FVTCCV4	JERNBK F 02/03/20
BBE	I	2017/01/30	2017/01/30	926162	5031228			BBG00FVN41F8	NASNO F 08/07/20
BBE	I	2017/01/30	2017/01/30	926163	5032080			BBG00FWH3820	SRBANK F 05/04/20
BBE	I	2017/01/30	2017/01/30	926164	5032081			BBG00FWH50D3	SONDNO 1.33 01/26/18 CD
BBE	I	2017/01/30	2017/01/30	926165	5032082			BBG00FWJJLJ2	ULSTNO 1.28 01/30/18 FXCD
BBE	I	2017/01/30	2017/01/30	926166	5032076			BBG00FWJK328	MELHUS 1.255 04/28/17 CD
BBE	I	2017/01/30	2017/01/30	926167	5028158			BBG00FRYT509	IBRD 3.375 01/25/22 MTN
BBE	I	2017/01/30	2017/01/30	926170	5027506			BBG00FRPZDH6	PORTB 0 01/19/18
BBE	I	2017/01/30	2017/01/30	926175	5030060			BBG00FP18K21	ROMTB 0 08/02/17 189D
BBE	I	2017/01/30	2017/01/30	926176	5027346			BBG00FRJTJT1	SERBTB 0 01/22/18 53W
BBE	I	2017/01/30	2017/01/30	926177	5027242			BBG00FQPVKH5	SERBGB 3.5 01/12/19 2YR
BBE	I	2017/01/30	2017/01/30	926178	5027251			BBG00FQTMYC2	SERBGB 2 01/13/20
BBE	I	2017/01/30	2017/01/30	926179	5028468			BBG00FRWYRH1	ALFARU V9.45 01/05/32 BO18
BBE	I	2017/01/30	2017/01/30	926180	5031061			BBG00FS1VRT8	OBUVRU V13.8 01/20/22 BO7
BBE	I	2017/01/30	2017/01/30	926181	5032420			BBG00FVSW2M6	FREXBK F 02/01/27
BBE	I	2017/01/30	2017/01/30	926182	5032199			BBG00FS1DYY7	SGB 0.75 05/12/28 1060
BBE	I	2017/01/30	2017/01/30	926183	5031089			BBG00FS5V5P1	SWEDAV F 01/25/21 DMTN
BBE	I	2017/01/30	2017/01/30	926184	5029918			BBG00FS1RLN2	SKANBK F 04/25/19 DMTN
BBE	I	2017/01/30	2017/01/30	926185	5029920			BBG00FS1R940	SKANBK F 10/25/19 DMTN
BBE	I	2017/01/30	2017/01/30	926186	5029913			BBG00FS5NCQ4	SKANBK 0.15 01/25/19 DMTN
BBE	I	2017/01/30	2017/01/30	926187	5029897			BBG00FS6PQM3	IKANO F 01/26/21 DMTN
BBE	I	2017/01/30	2017/01/30	926188	5032276			BBG00FRK3FX9	VOLVAB F 01/27/21 MTN
BBE	I	2017/01/30	2017/01/30	926193	5028156			BBG00FSDV1Q2	FINBN 0 07/21/17
BBE	I	2017/01/30	2017/01/30	926194	5028036			BBG00FS06PF7	ISMEN 0 04/20/17
BBE	I	2017/01/30	2017/01/30	926195	5027729			BBG00FJQM5X6	TCELLT 0 06/08/17 .
BBE	I	2017/01/30	2017/01/30	926198	5029021			BBG00FVNR779	UKRGB 15.74 01/15/20 3Y
BBE	I	2017/01/30	2017/01/30	926199	5027973			BBG006L72HM3	AVOCE 2014-1A B
BBE	I	2017/01/30	2017/01/30	926200	5028144			BBG00FVH9VS6	AER 3.5 05/26/22
BBE	I	2017/01/30	2017/01/30	926201	5029484			BBG00FS7MHT7	AIRXCL 8.5 02/15/22 144A
BBE	I	2017/01/30	2017/01/30	926202	5030729			BBG00FVNFHM3	ALTHBD 6.25 02/01/25 144A
BBE	I	2017/01/30	2017/01/30	926203	5029528			BBG00FRRDGP0	AMEGIL 17 12/31/21 144A
BBE	I	2017/01/30	2017/01/30	926204	5027837			BBG00CGM6251	AAIX 2016-1 A
BBE	I	2017/01/30	2017/01/30	926205	5027847			BBG00CGM6260	AAIX 2016-1 B
BBE	I	2017/01/30	2017/01/30	926206	5030370			BBG00FRPYJ75	EGYPT 6.125 01/31/22 144A
BBE	I	2017/01/30	2017/01/30	926207	5030412			BBG00FVQ4MH3	EGYPT 7.5 01/31/27 144A
BBE	I	2017/01/30	2017/01/30	926208	5030391			BBG00FVNS1H0	EGYPT 8.5 01/31/47 144A
BBE	I	2017/01/30	2017/01/30	926209	5029299			BBG00FVMQ6X5	ARCC 3.75 02/01/22 144A
BBE	I	2017/01/30	2017/01/30	926210	5030873			BBG00FS1QSV9	ASIA F 01/26/18 GMTN
BBE	I	2017/01/30	2017/01/30	926211	5031757			BBG00FWKWH12	AVACOM 12 10/01/23 144A
BBE	I	2017/01/30	2017/01/30	926212	5028072			BBG00C67Z3J6	AVNT 2016-A A
BBE	I	2017/01/30	2017/01/30	926213	5028081			BBG00C67Z3K4	AVNT 2016-A B
BBE	I	2017/01/30	2017/01/30	926214	5028093			BBG00C67Z3L3	AVNT 2016-A C
BBE	I	2017/01/30	2017/01/30	926215	5027986			BBG000B8Q3S4	BCAP 2010-RR6 21A8
BBE	I	2017/01/30	2017/01/30	926216	5027958			BBG001712JN8	BCAP 2010-RR9 5A4
BBE	I	2017/01/30	2017/01/30	926217	5027951			BBG001LWT6S8	BCAP 2011-RR1 2A12
BBE	I	2017/01/30	2017/01/30	926218	5027840			BBG005N1Q626	BCAP 2013-RR11 5A2
BBE	I	2017/01/30	2017/01/30	926219	5027829			BBG006KZM109	BCAP 2014-RR2 3A2
BBE	I	2017/01/30	2017/01/30	926220	5027815			BBG006KZM1Y2	BCAP 2014-RR2 9A2
BBE	I	2017/01/30	2017/01/30	926221	5027905			BBG004Q00DK1	BMW 1.35 06/28/18 0000
BBE	I	2017/01/30	2017/01/30	926222	5027935			BBG004RJNBC7	BMW 1.65 06/28/18 0000
BBE	I	2017/01/30	2017/01/30	926223	5027941			BBG004RJNF29	BMW 1.3 06/28/17 0000
BBE	I	2017/01/30	2017/01/30	926224	5027949			BBG004RS59B3	BMW 1.85 06/28/18 0000
BBE	I	2017/01/30	2017/01/30	926225	5027957			BBG004TDH958	BMW 1.4 07/19/17 0000
BBE	I	2017/01/30	2017/01/30	926226	5027959			BBG004TDH967	BMW 1.9 07/19/18 0000
BBE	I	2017/01/30	2017/01/30	926227	5027977			BBG004XDTRW0	BMW 1.9 08/09/18 0000
BBE	I	2017/01/30	2017/01/30	926228	5027992			BBG004XQPSS8	BMW 2 08/09/18 0000
BBE	I	2017/01/30	2017/01/30	926229	5028001			BBG004YWB1P1	BMW 1.9 08/16/18 0000
BBE	I	2017/01/30	2017/01/30	926230	5028022			BBG004YWB1N3	BMW 1.4 08/16/17 0000
BBE	I	2017/01/30	2017/01/30	926231	5028032			BBG0057JYNN6	BMW 2.05 09/13/18 0000
BBE	I	2017/01/30	2017/01/30	926232	5028044			BBG0058B5D83	BMW 1.55 09/20/17 0000
BBE	I	2017/01/30	2017/01/30	926233	5028083			BBG0058B5CW8	BMW 2.05 09/20/18 0000
BBE	I	2017/01/30	2017/01/30	926234	5028097			BBG00594FQS6	BMW 1.55 10/02/17 0000
BBE	I	2017/01/30	2017/01/30	926235	5028105			BBG00594FQT5	BMW 2.05 10/01/18 0000
BBE	I	2017/01/30	2017/01/30	926236	5028111			BBG005CPM5F7	BMW 1.55 10/11/17 0000
BBE	I	2017/01/30	2017/01/30	926237	5028117			BBG005CPM5J3	BMW 2.05 10/11/18 0000
BBE	I	2017/01/30	2017/01/30	926238	5028123			BBG005D7SWY0	BMW 2.2 10/11/18 0000
BBE	I	2017/01/30	2017/01/30	926239	5028196			BBG005HV6424	BMW 2 11/15/18 0000
BBE	I	2017/01/30	2017/01/30	926240	5028210			BBG005HV9RC9	BMW 2.2 11/15/18 0000
BBE	I	2017/01/30	2017/01/30	926241	5028267			BBG005M4NJX2	BMW 2 11/29/18 0000
BBE	I	2017/01/30	2017/01/30	926242	5031079			BBG00336S2Z3	BMO 0 06/29/18 0002
BBE	I	2017/01/30	2017/01/30	926243	5031076			BBG003344WN1	BMO 2.5 06/28/27 0000
BBE	I	2017/01/30	2017/01/30	926244	5031073			BBG00336RV08	BMO 0 06/28/19 0003
BBE	I	2017/01/30	2017/01/30	926245	5031755			BBG00FPG2RN6	BNP 0 01/31/22 0004
BBE	I	2017/01/30	2017/01/30	926246	5028177			BBG00FVHHQ80	BNP 0 10/30/18
BBE	I	2017/01/30	2017/01/30	926247	5026589			BBG00FV80ZX0	BNP 0 07/25/18 0004
BBE	I	2017/01/30	2017/01/30	926248	5026586			BBG00FV81002	BNP 0 02/07/18
BBE	I	2017/01/30	2017/01/30	926249	5026584			BBG00FSF2731	BNP 0 01/25/21 EMTP
BBE	I	2017/01/30	2017/01/30	926250	5026591			BBG00FV81011	BNP 0 02/07/18 EMTO
BBE	I	2017/01/30	2017/01/30	926251	5030623			BBG00FVVPCC6	BNP 0 02/12/18 000K
BBE	I	2017/01/30	2017/01/30	926252	5028193			BBG00FHXV224	BIMCN 12 02/01/22 144A
BBE	I	2017/01/30	2017/01/30	926253	5028090			BBG009R1QLD9	BPOP 0.9 02/13/17 0001
BBE	I	2017/01/30	2017/01/30	926254	5028101			BBG003M5H8M7	BPOP 1.55 11/14/19 0000
BBE	I	2017/01/30	2017/01/30	926255	5028239			BBG00CCKQ5G8	BFIN 0.65 06/12/17
BBE	I	2017/01/30	2017/01/30	926256	5028244			BBG00CCKQ6T2	BFIN 0.9 03/12/18
BBE	I	2017/01/30	2017/01/30	926257	5028134			BBG0069L1963	BACR 1.45 04/16/18 0000
BBE	I	2017/01/30	2017/01/30	926258	5028224			BBG00FQGXS22	BACR F 01/30/20 000D
BBE	I	2017/01/30	2017/01/30	926259	5029543			BBG00FQXM082	BACR V0 02/05/19 0008
BBE	I	2017/01/30	2017/01/30	926260	5029489			BBG00FVCN6B4	BACR 0 07/25/18 5624
BBE	I	2017/01/30	2017/01/30	926261	5028170			BBG00FS7MWS5	BACR 0 02/08/23
BBE	I	2017/01/30	2017/01/30	926262	5028171			BBG00FS7XM78	BACR V0 01/30/20 000J
BBE	U	2017/01/30	2017/01/31	926263	5028226			BBG00FVHG3K8	BACR 9 01/27/27 5214
BBE	I	2017/01/30	2017/01/30	926264	5029735			BBG00FSF2CD9	BACR V0 01/30/25
BBE	I	2017/01/30	2017/01/30	926265	5029649			BBG00FVNW9B4	BACR V0 02/14/18
BBE	I	2017/01/30	2017/01/30	926266	5029480			BBG00FVNT660	BACR 0 08/01/18 0002
BBE	I	2017/01/30	2017/01/30	926267	5030801			BBG00FVNWL36	BACR V0 01/31/19 000P
BBE	I	2017/01/30	2017/01/30	926268	5030798			BBG00FVNWP19	BACR V0 01/31/19 000Q
BBE	U	2017/01/30	2017/01/31	926269	5030722			BBG00FWJK8K7	BACR 0 01/30/19 9534
BBE	I	2017/01/30	2017/01/30	926270	5030723			BBG00FWJK5K3	BACR 0 01/30/19 0008
BBE	I	2017/01/30	2017/01/30	926271	5030517			BBG00FVH6JG9	BACR V0 07/30/19 8512
BBE	I	2017/01/30	2017/01/30	926272	5028168			BBG00FS7MZ08	BACR V0 01/30/20 000I
BBE	I	2017/01/30	2017/01/30	926273	5028174			BBG00FS1RKP2	BACR V0 01/30/20 000G
BBE	I	2017/01/30	2017/01/30	926274	5029495			BBG00FS1RPH0	BACR 0 05/03/18 0005
BBE	I	2017/01/30	2017/01/30	926275	5029487			BBG00FRLZR66	BACR 0 05/03/18 0004
BBE	I	2017/01/30	2017/01/30	926276	5028165			BBG00FQL2TS5	BACR 0 02/28/18 MTN2
BBE	I	2017/01/30	2017/01/30	926277	5028167			BBG00FQGXS40	BACR 0 03/29/18 323A
BBE	I	2017/01/30	2017/01/30	926278	5028163			BBG00FQGXS13	BACR 0 07/31/19 000F
BBE	I	2017/01/30	2017/01/30	926279	5028184			BBG0080GGKS4	BBCNBK 0.75 02/21/17 0000
BBE	I	2017/01/30	2017/01/30	926280	5028195			BBG009BNYY50	BBCNBK 0.9 06/26/17 0000
BBE	I	2017/01/30	2017/01/30	926281	5028204			BBG00CCP8BG4	BBCNBK 0.9 03/23/18
BBE	I	2017/01/30	2017/01/30	926282	5028214			BBG00CCP8BX5	BBCNBK 1 03/23/18
BBE	I	2017/01/30	2017/01/30	926283	5028223			BBG00CCP7QR0	BBCNBK 0.65 03/23/17
BBE	I	2017/01/30	2017/01/30	926284	5028148			BBG00FVC65B5	BBT 2.1 01/15/20
BBE	I	2017/01/30	2017/01/30	926285	5028153			BBG00FVC6570	BBT F 01/15/20
BBE	I	2017/01/30	2017/01/30	926286	5028155			BBG00FVC65L4	BBT 2.625 01/15/22
BBE	I	2017/01/30	2017/01/30	926287	5027191			BBG00FHYB956	BSP 2014-IVA CR
BBE	I	2017/01/30	2017/01/30	926288	5031299			BBG009HTFKW2	BSP 2015-VIIA D
BBE	I	2017/01/30	2017/01/30	926289	5028135			BBG009T07KK4	BLSTBK 1.05 08/21/17 0000
BBE	I	2017/01/30	2017/01/30	926290	5028249			BBG0000VJFR7	BRISBK 3.05 03/27/17 0000
BBE	I	2017/01/30	2017/01/30	926291	5031879			BBG00FS1VL39	CALVRT 1 01/31/18 NOTz
BBE	I	2017/01/30	2017/01/30	926292	5031895			BBG00FS1W828	CALVRT 1.5 01/31/20 NOTZ
BBE	I	2017/01/30	2017/01/30	926293	5031891			BBG00FS1WF13	CALVRT 2 01/31/22 NOTZ
BBE	I	2017/01/30	2017/01/30	926294	5031890			BBG00FS1WFR5	CALVRT 3 02/01/27 NOTZ
BBE	I	2017/01/30	2017/01/30	926295	5031881			BBG00FS1WGL9	CALVRT 4 02/02/32 NOTZ
BBE	I	2017/01/30	2017/01/30	926296	5031849			BBG00FWPY6M0	CM V0 01/31/20
BBE	I	2017/01/30	2017/01/30	926297	5031858			BBG00FWJMLN3	COF 2.35 01/31/20
BBE	I	2017/01/30	2017/01/30	926298	5031854			BBG00FWJQQN8	COF F 01/30/23 BKNT
BBE	I	2017/01/30	2017/01/30	926299	5028232			BBG00C81NXJ4	CARALL 1.4 03/18/21
BBE	I	2017/01/30	2017/01/30	926300	5028231			BBG00CDY3G69	CARALL 1.5 03/30/21
BBE	I	2017/01/30	2017/01/30	926301	5028221			BBG005XR4ZM6	CARPRB 0.9 02/06/17 0000
BBE	I	2017/01/30	2017/01/30	926302	5028198			BBG007V92JB4	CATRBK 1.5 01/22/19 0000
BBE	I	2017/01/30	2017/01/30	926303	5030652			BBG00FVV8442	CAMEBO 5.75 01/31/27 144A
BBE	I	2017/01/30	2017/01/30	926304	5028118			BBG0045L4DM2	CENTRB 2.2 09/06/22 0000
BBE	I	2017/01/30	2017/01/30	926305	5028109			BBG005V3VMF8	CENTRB 2.9 01/30/23 0000
BBE	I	2017/01/30	2017/01/30	926306	5028102			BBG005X280F2	CENTRB 2.5 02/05/21 0000
BBE	I	2017/01/30	2017/01/30	926307	5028162			BBG00FVHMZP5	CCS 6.875 05/15/22 144a
BBE	I	2017/01/30	2017/01/30	926308	5030620			BBG00FVNZ7R8	BOSCHI 4.115 01/01/47 2017
BBE	I	2017/01/30	2017/01/30	926309	5029018			BBG00FHWC4F9	CIFC 2016-1A D
BBE	I	2017/01/30	2017/01/30	926310	5029019			BBG00FHWHC48	CIFC 2016-1I D
BBE	I	2017/01/30	2017/01/30	926311	5026651			BBG00FPMCV17	C 3.5 01/25/37 5426
BBE	I	2017/01/30	2017/01/30	926312	5031836			BBG00FVNTMY4	C 3.65 02/15/32 MTN
BBE	I	2017/01/30	2017/01/30	926313	5026568			BBG00FPFZQ09	C 2.3 01/25/22 2356
BBE	I	2017/01/30	2017/01/30	926314	5026644			BBG00FPMCTM9	C 2.75 01/25/27 5623
BBE	I	2017/01/30	2017/01/30	926315	5031823			BBG00FLYVLH9	C 0 01/31/22
BBE	I	2017/01/30	2017/01/30	926316	5030641			BBG00FLYWHB3	C 0 01/28/22
BBE	I	2017/01/30	2017/01/30	926317	5031830			BBG00FM526X8	C 0 07/30/20
BBE	I	2017/01/30	2017/01/30	926318	5030720			BBG00FVTDML2	C 0.5 07/28/22
BBE	I	2017/01/30	2017/01/30	926319	5029503			BBG00FVMKJ27	C 0 01/27/22
BBE	I	2017/01/30	2017/01/30	926320	5031794			BBG00FNFWYT6	C 0 01/29/21 0004
BBE	I	2017/01/30	2017/01/30	926321	5031801			BBG00FP2WQM7	C 0 01/29/21 0005
BBE	I	2017/01/30	2017/01/30	926322	5031759			BBG00FPFPND3	C 0 01/30/20 0003
BBE	I	2017/01/30	2017/01/30	926323	5031782			BBG00FP606C8	C V0 01/31/22 EMTO
BBE	I	2017/01/30	2017/01/30	926324	5031775			BBG00FQGZN85	C 0 01/31/24
BBE	I	2017/01/30	2017/01/30	926325	5031770			BBG00FP2YR25	C 0 10/30/25
BBE	I	2017/01/30	2017/01/30	926326	5031810			BBG00FPMG8C2	C 0 07/30/20 0002
BBE	I	2017/01/30	2017/01/30	926327	5031788			BBG00FRS1M23	C 9 02/04/19
BBE	I	2017/01/30	2017/01/30	926328	5031818			BBG00FQVB4R9	C V0 01/29/27 eMTN
BBE	I	2017/01/30	2017/01/30	926329	5031765			BBG00FRYD3K9	C 0 02/04/19
BBE	I	2017/01/30	2017/01/30	926330	5030635			BBG00FS7NPQ1	C 0 10/30/18
BBE	I	2017/01/30	2017/01/30	926331	5028181			BBG00FV89TS1	C 0 07/26/18
BBE	I	2017/01/30	2017/01/30	926332	5026574			BBG00FS7NKJ0	C 8 01/25/18
BBE	I	2017/01/30	2017/01/30	926333	5030735			BBG00FS7NS30	C 8 01/30/18 0001
BBE	I	2017/01/30	2017/01/30	926334	5026820			BBG00FQSHNQ9	C 10.25 01/25/18
BBE	I	2017/01/30	2017/01/30	926335	5026647			BBG00FS7NQY0	C V0 01/25/18 5426
BBE	I	2017/01/30	2017/01/30	926336	5030633			BBG00FVP7WS8	C 0 12/31/18
BBE	I	2017/01/30	2017/01/30	926337	5026699			BBG00FSDXYX0	AMRN 3.5 01/15/47
BBE	I	2017/01/30	2017/01/30	926338	5030664			BBG00FRRGSQ0	CS 0 01/31/20 0125
BBE	I	2017/01/30	2017/01/30	926339	5030647			BBG00FPFFPR4	CS 0 03/29/18 NKY2
BBE	I	2017/01/30	2017/01/30	926340	5030651			BBG00FNFXC95	CS 0 03/29/18 NKY1
BBE	I	2017/01/30	2017/01/30	926341	5027876			BBG00FSDX0M6	CS 0 01/29/18 GMTP
BBE	I	2017/01/30	2017/01/30	926342	5026662			BBG00FSDX224	CS 0 01/29/18 GMTQ
BBE	I	2017/01/30	2017/01/30	926343	5031864			BBG00FWKP650	CS 0 02/22/18
BBE	I	2017/01/30	2017/01/30	926344	5031869			BBG00FLYYRC8	CS 0 01/31/19 000A
BBE	I	2017/01/30	2017/01/30	926345	5030670			BBG00FLYYXV4	CS 0 01/31/19 000B
BBE	I	2017/01/30	2017/01/30	926346	5030631			BBG00FLYZL03	CS 7.25 04/30/18
BBE	I	2017/01/30	2017/01/30	926347	5030698			BBG00FMFCX11	CS 19 07/30/20
BBE	I	2017/01/30	2017/01/30	926348	5030624			BBG00FMFGW55	CS 40.5 01/31/22
BBE	I	2017/01/30	2017/01/30	926349	5030657			BBG00FMFH3S3	CS 6.5 01/31/22
BBE	I	2017/01/30	2017/01/30	926350	5030690			BBG00FMFKB74	CS 56 01/31/22
BBE	I	2017/01/30	2017/01/30	926351	5030637			BBG00FMFKK83	CS 8.25 04/30/18
BBE	I	2017/01/30	2017/01/30	926352	5030678			BBG00FMFLGH1	CS 0 01/29/21 0109
BBE	I	2017/01/30	2017/01/30	926353	5030650			BBG00FMFLNW9	CS 10 01/31/20
BBE	I	2017/01/30	2017/01/30	926354	5030686			BBG00FMFLQF1	CS 0 01/31/19 000C
BBE	I	2017/01/30	2017/01/30	926355	5030684			BBG00FPMMBD7	CS V0 01/29/27 1459
BBE	I	2017/01/30	2017/01/30	926356	5030679			BBG00FPMLYV8	CS V0 01/29/27 6897
BBE	I	2017/01/30	2017/01/30	926357	5030661			BBG00FPMM8Z0	CS V0 01/29/27 4568
BBE	I	2017/01/30	2017/01/30	926358	5030644			BBG00FPF9XM9	CS 6 01/31/20
BBE	I	2017/01/30	2017/01/30	926359	5030705			BBG00FPM95Z1	CS 2.5 01/31/22 MTN
BBE	I	2017/01/30	2017/01/30	926360	5030710			BBG00FQ6ZRC3	CS 5.25 01/31/22
BBE	I	2017/01/30	2017/01/30	926361	5030614			BBG00FQ6ZS13	CS 0 01/31/20 0124
BBE	I	2017/01/30	2017/01/30	926362	5030660			BBG00FQ9R7Z5	CS 0 01/30/20
BBE	I	2017/01/30	2017/01/30	926363	5030672			BBG00FQKMKC1	CS 12 01/29/27
BBE	I	2017/01/30	2017/01/30	926364	5030653			BBG00FQTCSC6	CS 6.85 04/30/18
BBE	I	2017/01/30	2017/01/30	926365	5029534			BBG00FRLZLJ5	CS 2.5 01/30/25 mtn
BBE	I	2017/01/30	2017/01/30	926366	5029523			BBG00FRSJH61	CS 6.75 03/01/18
BBE	I	2017/01/30	2017/01/30	926367	5029515			BBG00FS7S3S3	CS 0 01/30/18
BBE	I	2017/01/30	2017/01/30	926368	5026678			BBG00FSDQ3B0	CS 0 01/28/20 0012
BBE	U	2017/01/30	2017/01/31	926369	5026664			BBG00FSDYWV5	CS V0 01/27/27 0001
BBE	U	2017/01/30	2017/01/31	926370	5029508			BBG00FVHKPW1	CS V0 07/31/19 9575
BBE	I	2017/01/30	2017/01/30	926371	5028169			BBG00FRRC708	CS 11 04/27/18
BBE	I	2017/01/30	2017/01/30	926372	5026672			BBG00FS7QM49	CS 14.55 02/07/18
BBE	I	2017/01/30	2017/01/30	926373	5029520			BBG00FSF0C69	CS 15 01/30/18
BBE	I	2017/01/30	2017/01/30	926374	5030398			BBG007Q187G2	CTWTR 2014-2A C
BBE	I	2017/01/30	2017/01/30	926375	5031797			BBG00FRQYY89	DB 0 03/01/18
BBE	I	2017/01/30	2017/01/30	926376	5031899			BBG00FVNMBV8	DB 4 02/15/24 NOTZ
BBE	I	2017/01/30	2017/01/30	926377	5030643			BBG00FVVDZY4	DB 0 01/28/22
BBE	I	2017/01/30	2017/01/30	926378	5030627			BBG00FVT1818	EMBRBZ 5.4 02/01/27
BBE	I	2017/01/30	2017/01/30	926379	5031658			BBG00FVMB8L0	EBRD 2 02/01/21 GMTN
BBE	I	2017/01/30	2017/01/30	926380	5027801			BBG00FVHFHP3	FHLB 0.75 01/25/18
BBE	I	2017/01/30	2017/01/30	926381	5027804			BBG00FVHDT06	FHLB 3.25 12/08/34
BBE	I	2017/01/30	2017/01/30	926382	5027807			BBG00FVHFFK2	FHLB 1.3 06/28/19 0000
BBE	I	2017/01/30	2017/01/30	926383	5027810			BBG00FVHG2B0	FHLB F 01/24/19 +++_
BBE	I	2017/01/30	2017/01/30	926384	5027817			BBG00FVHHP46	FHLB 1 04/27/18 0005
BBE	I	2017/01/30	2017/01/30	926385	5029033			BBG00FVMNVQ1	FHLB F 01/25/19
BBE	I	2017/01/30	2017/01/30	926386	5029036			BBG00FVMQD51	FHLB 1.75 02/14/22 0000
BBE	I	2017/01/30	2017/01/30	926387	5029042			BBG00FVMQVF0	FHLB 2 08/16/21 0000
BBE	I	2017/01/30	2017/01/30	926388	5029044			BBG00FVN0ZT2	FHLB F 01/25/18 +_
BBE	I	2017/01/30	2017/01/30	926389	5029046			BBG00FVN4MH0	FHLB 2.5 01/26/22 0000
BBE	I	2017/01/30	2017/01/30	926390	5029051			BBG00FVN5Y47	FHLB 1.65 04/30/20
BBE	I	2017/01/30	2017/01/30	926391	5029054			BBG00FVNJ849	FHLB 0.875 02/10/22
BBE	I	2017/01/30	2017/01/30	926392	5029110			BBG00FVNL873	FHLB F 01/25/18 ++*
BBE	I	2017/01/30	2017/01/30	926393	5029112			BBG00FVNP7B6	FHLB F 01/25/18 _.
BBE	I	2017/01/30	2017/01/30	926394	5029115			BBG00FVNPLW2	FHLB F 01/26/18 *.
BBE	I	2017/01/30	2017/01/30	926395	5029119			BBG00FVNRR66	FHLB 1.5 02/22/22
BBE	I	2017/01/30	2017/01/30	926396	5029122			BBG00FVNRWX5	FHLB 1.75 02/14/22 0001
BBE	I	2017/01/30	2017/01/30	926397	5029125			BBG00FVNW9V2	FHLB F 01/25/19 +++*
BBE	I	2017/01/30	2017/01/30	926398	5029127			BBG00FVNW988	FHLB 2 02/14/24
BBE	I	2017/01/30	2017/01/30	926399	5029130			BBG00FVNWH53	FHLB 2.375 08/13/20
BBE	I	2017/01/30	2017/01/30	926400	5029150			BBG00FVNWN05	FHLB 1 02/22/19 0003
BBE	I	2017/01/30	2017/01/30	926401	5029155			BBG00FVNZP98	FHLB 1.5 02/23/22 0001
BBE	I	2017/01/30	2017/01/30	926402	5029159			BBG00FVTDM87	FHLB V0 02/10/37
BBE	I	2017/01/30	2017/01/30	926403	5029160			BBG00FVP0TC9	FHLB 2.4 08/13/20
BBE	I	2017/01/30	2017/01/30	926404	5030343			BBG00FVTCF74	FHLB 1.8 10/30/20
BBE	I	2017/01/30	2017/01/30	926405	5030345			BBG00FVTDK72	FHLB 1.67 04/30/20
BBE	I	2017/01/30	2017/01/30	926406	5030347			BBG00FVTJ061	FHLB 1.75 07/30/20 0002
BBE	I	2017/01/30	2017/01/30	926407	5030349			BBG00FVTLJP6	FHLB 1.75 07/30/20 0003
BBE	I	2017/01/30	2017/01/30	926408	5030350			BBG00FVTZ5S8	FHLB F 07/26/18 ++*
BBE	I	2017/01/30	2017/01/30	926409	5030352			BBG00FVTPSM5	FHLB 1 01/30/19 000D
BBE	I	2017/01/30	2017/01/30	926410	5030354			BBG00FVTNRR4	FHLB 1 01/27/21 0000
BBE	I	2017/01/30	2017/01/30	926411	5030356			BBG00FVV6NJ6	FHLB F 08/01/18 +*
BBE	I	2017/01/30	2017/01/30	926412	5030358			BBG00FVTPJ18	FHLB 2 02/24/27 0001
BBE	I	2017/01/30	2017/01/30	926413	5030362			BBG00FVV6JR6	FHLB F 07/27/17 _.
BBE	I	2017/01/30	2017/01/30	926414	5030373			BBG00FVV1SW5	FHLB 2.15 02/01/22
BBE	I	2017/01/30	2017/01/30	926415	5030375			BBG00FVV1ZH6	FHLB 2.58 02/14/24
BBE	I	2017/01/30	2017/01/30	926416	5030380			BBG00FVV3XC4	FHLB 3.5 02/06/32
BBE	I	2017/01/30	2017/01/30	926417	5030383			BBG00FVV6JX9	FHLB 2.2 02/07/22
BBE	I	2017/01/30	2017/01/30	926418	5030386			BBG00FVV6TD9	FHLB 2.25 02/17/22
BBE	I	2017/01/30	2017/01/30	926419	5030387			BBG00FVV8987	FHLB 0.875 01/30/18 0000
BBE	I	2017/01/30	2017/01/30	926420	5030396			BBG00FVTPK42	FHLB 1.5 02/24/22 0003
BBE	I	2017/01/30	2017/01/30	926421	5030399			BBG00FVVBKP9	FHLB 2.21 02/15/22
BBE	I	2017/01/30	2017/01/30	926422	5030403			BBG00FVVD3D8	FHLB 1.15 10/30/18 0001
BBE	I	2017/01/30	2017/01/30	926423	5030410			BBG00FVVDKN9	FHLB 1.875 08/14/20
BBE	I	2017/01/30	2017/01/30	926424	5030414			BBG00FVVDSH9	FHLB 1.5 08/24/20 0000
BBE	I	2017/01/30	2017/01/30	926425	5030417			BBG00FVVF8T8	FHLB 2.25 02/28/22
BBE	I	2017/01/30	2017/01/30	926426	5030420			BBG00FVVFGQ3	FHLB 1.3 02/10/23
BBE	I	2017/01/30	2017/01/30	926428	5031391			BBG00FWK4DQ5	FHLB F 02/01/19
BBE	I	2017/01/30	2017/01/30	926429	5031393			BBG00FWK4SN5	FHLB 2.25 02/01/22
BBE	I	2017/01/30	2017/01/30	926430	5031398			BBG00FWK4TL5	FHLB 3 02/01/27
BBE	I	2017/01/30	2017/01/30	926431	5031400			BBG00FWKK4F9	FHLB F 02/01/19 .
BBE	I	2017/01/30	2017/01/30	926433	5029479			BBG00FVNWGG3	FAMCA F 01/03/22 +*
BBE	I	2017/01/30	2017/01/30	926434	5030612			BBG00FVVDLL9	FAMCA 1.12 08/01/18
BBE	I	2017/01/30	2017/01/30	926435	5027705			BBG00FVHDWX3	FFCB F 01/30/19 +_
BBE	I	2017/01/30	2017/01/30	926436	5029049			BBG00FVNS3L1	FFCB 2.44 10/27/22
BBE	I	2017/01/30	2017/01/30	926437	5029030			BBG00FVNS475	FFCB 2.34 02/01/23
BBE	I	2017/01/30	2017/01/30	926438	5029034			BBG00FVNS6C4	FFCB 3.14 02/01/27
BBE	I	2017/01/30	2017/01/30	926439	5029027			BBG00FVNS091	FFCB 3.57 02/03/37
BBE	I	2017/01/30	2017/01/30	926440	5029038			BBG00FVNPGV4	FFCB F 02/25/19 ++*
BBE	I	2017/01/30	2017/01/30	926441	5029026			BBG00FVNXRW0	FFCB 1.1 08/15/18
BBE	I	2017/01/30	2017/01/30	926442	5030755			BBG00FVVCCX7	FFCB 1.3 02/01/19
BBE	I	2017/01/30	2017/01/30	926443	5030682			BBG00FVVBR56	FFCB 1.67 02/06/20
BBE	I	2017/01/30	2017/01/30	926444	5031315			BBG00FVVBR65	FFCB 2.16 08/02/21
BBE	I	2017/01/30	2017/01/30	926445	5030688			BBG00FVVBSM5	FFCB 2.26 02/01/22
BBE	I	2017/01/30	2017/01/30	926446	5030673			BBG00FVVBQX7	FFCB 1.33 02/01/19
BBE	I	2017/01/30	2017/01/30	926447	5031776			BBG00FWKM500	FFCB F 04/02/18
BBE	I	2017/01/30	2017/01/30	926448	5031771			BBG00FWKLZ78	FFCB F 11/01/18 *
BBE	I	2017/01/30	2017/01/30	926449	5031764			BBG00FWKLTD5	FFCB F 12/03/18
BBE	I	2017/01/30	2017/01/30	926450	5031783			BBG00FWKS4S7	FFCB 3.3 02/02/32
BBE	I	2017/01/30	2017/01/30	926451	5031796			BBG00FWK3VT3	FHLMC 2.32 02/16/22
BBE	I	2017/01/30	2017/01/30	926452	5031804			BBG00FWK6G22	FHLMC 2.32 02/16/22 0000
BBE	I	2017/01/30	2017/01/30	926453	5032018			BBG00FWKJT48	FHLMC 2.5 02/24/32
BBE	I	2017/01/30	2017/01/30	926454	5032022			BBG00FWKK539	FHLMC 1.5 02/24/22
BBE	I	2017/01/30	2017/01/30	926455	5031812			BBG00FWKRK93	FHLMC 2.02 10/23/20
BBE	I	2017/01/30	2017/01/30	926456	5027878			BBG00FS1Z6G4	FHLMC 2.25 01/28/22
BBE	I	2017/01/30	2017/01/30	926457	5026834			BBG00FSDDXR1	FHLMC 1.15 02/10/20
BBE	I	2017/01/30	2017/01/30	926458	5026665			BBG00FSDN8S4	FHLMC 1 01/27/20 0004
BBE	I	2017/01/30	2017/01/30	926459	5028055			BBG00FSDSJ23	FHLMC 2.29 01/27/22
BBE	I	2017/01/30	2017/01/30	926460	5026666			BBG00FSDY5Z0	FHLMC 2.35 02/01/22
BBE	I	2017/01/30	2017/01/30	926461	5028217			BBG00FVHDS17	FHLMC 1.5 02/17/22
BBE	I	2017/01/30	2017/01/30	926462	5030351			BBG00FVMXWJ6	FHLMC 1.125 02/14/20
BBE	I	2017/01/30	2017/01/30	926463	5029664			BBG00FVNFTP4	FHLMC 1 02/24/20 0000
BBE	I	2017/01/30	2017/01/30	926464	5030796			BBG00FVNS3M0	FHLMC 1.8 04/27/20
BBE	I	2017/01/30	2017/01/30	926465	5029571			BBG00FVNSK33	FHLMC 2.28 01/27/22
BBE	I	2017/01/30	2017/01/30	926466	5030764			BBG00FVTJ3F5	FHLMC 1 02/24/20 0001
BBE	I	2017/01/30	2017/01/30	926467	5030768			BBG00FVTLD42	FHLMC 1 02/24/22
BBE	I	2017/01/30	2017/01/30	926468	5030694			BBG00FVTS999	FHLMC 2 11/24/20 0000
BBE	I	2017/01/30	2017/01/30	926469	5030697			BBG00FVV6SF9	FHLMC 2.19 02/16/22
BBE	I	2017/01/30	2017/01/30	926470	5030701			BBG00FVV7Q44	FHLMC 2.21 02/14/22
BBE	I	2017/01/30	2017/01/30	926471	5030706			BBG00FVV8488	FHLMC 2.3 02/14/22
BBE	I	2017/01/30	2017/01/30	926472	5030708			BBG00FVV9H33	FHLMC 2.3 02/15/22
BBE	I	2017/01/30	2017/01/30	926473	5031716			BBG00FVVB3D0	FHLMC 1.05 02/14/20 0000
BBE	I	2017/01/30	2017/01/30	926474	5030711			BBG00FVVBSZ1	FHLMC 2.35 02/24/22
BBE	I	2017/01/30	2017/01/30	926475	5031698			BBG00FVVCP77	FHLMC 2.3 02/24/22
BBE	I	2017/01/30	2017/01/30	926476	5030780			BBG00FVNRM76	FNMA 1.72 01/28/20
BBE	I	2017/01/30	2017/01/30	926477	5026670			BBG00FSCRMF5	FNMA 1.79 02/14/20
BBE	I	2017/01/30	2017/01/30	926478	5029582			BBG00FVN71H3	FNMA 1.85 08/21/20
BBE	I	2017/01/30	2017/01/30	926479	5029593			BBG00FVNDM17	FNMA 2 02/23/21
BBE	I	2017/01/30	2017/01/30	926480	5030715			BBG00FVT6ZH6	FNMA 2.05 05/17/21
BBE	I	2017/01/30	2017/01/30	926481	5030718			BBG00FVT96J5	FNMA 1.65 02/14/20
BBE	I	2017/01/30	2017/01/30	926482	5032026			BBG00FWJKWG9	FNMA 2 11/24/20 0000
BBE	I	2017/01/30	2017/01/30	926483	5032029			BBG00FWJMSY6	FNMA 2 02/23/21 0000
BBE	I	2017/01/30	2017/01/30	926484	5031825			BBG00FWJW6S0	FNMA 1.8 08/21/20
BBE	I	2017/01/30	2017/01/30	926485	5032033			BBG00FWK45X4	FNMA 1.75 05/22/20
BBE	I	2017/01/30	2017/01/30	926486	5031832			BBG00FWK7WF2	FNMA 2.3 01/31/22
BBE	I	2017/01/30	2017/01/30	926487	5029502			BBG00FVQ1D95	FGP 8.625 06/15/20 144A
BBE	I	2017/01/30	2017/01/30	926488	5031302			BBG0008DY1M8	FBP 5 09/13/17 CD
BBE	I	2017/01/30	2017/01/30	926489	5026668			BBG00FS0S1N7	FORDO 2017-A A2B
BBE	I	2017/01/30	2017/01/30	926490	5026567			BBG00FS0S1Q4	FORDO 2017-A A4
BBE	I	2017/01/30	2017/01/30	926491	5031071			BBG006B8NN19	SYF 3.3 04/17/24 0004
BBE	I	2017/01/30	2017/01/30	926492	5031069			BBG002VBM9P5	SYF 2.2 04/05/19 0002
BBE	I	2017/01/30	2017/01/30	926493	5031065			BBG006B7Z447	SYF 1.95 04/17/19 0003
BBE	I	2017/01/30	2017/01/30	926494	5031059			BBG006B80QF2	SYF 2.2 04/17/20 0003
BBE	I	2017/01/30	2017/01/30	926495	5031056			BBG006B81HF1	SYF 3.3 04/17/24 0003
BBE	I	2017/01/30	2017/01/30	926496	5031052			BBG002VBG534	SYF 1.75 04/05/17 0000
BBE	I	2017/01/30	2017/01/30	926497	5031050			BBG002VBGD46	SYF 2.2 04/05/19 0000
BBE	I	2017/01/30	2017/01/30	926498	5031048			BBG002VBGG67	SYF 2.8 04/05/22 0000
BBE	I	2017/01/30	2017/01/30	926499	5031045			BBG006B6YKW3	SYF 2.65 04/19/21 0000
BBE	I	2017/01/30	2017/01/30	926500	5031042			BBG006B6YK35	SYF 3.3 04/17/24 0000
BBE	I	2017/01/30	2017/01/30	926501	5031040			BBG002VBHNN2	SYF 1.75 04/05/17 0001
BBE	I	2017/01/30	2017/01/30	926502	5031036			BBG002VBHSD2	SYF 2.8 04/05/22 0001
BBE	I	2017/01/30	2017/01/30	926503	5031014			BBG006B70CN6	SYF 1.05 04/17/17 0002
BBE	I	2017/01/30	2017/01/30	926504	5031007			BBG006B70TT3	SYF 2.2 04/17/20 0001
BBE	I	2017/01/30	2017/01/30	926505	5031004			BBG006B70P20	SYF 2.65 04/19/21 0001
BBE	I	2017/01/30	2017/01/30	926506	5030998			BBG00C6858Q8	SYF 3.3 10/18/23
BBE	I	2017/01/30	2017/01/30	926507	5029396			BBG00FWN64C2	GS V0 01/29/19 0025
BBE	I	2017/01/30	2017/01/30	926509	5028188			BBG00FVC4108	GS 3.85 01/26/27
BBE	I	2017/01/30	2017/01/30	926510	5028191			BBG00FVC4144	GS 3 04/26/22
BBE	I	2017/01/30	2017/01/30	926511	5028230			BBG00FVC4055	GS F 04/26/22
BBE	I	2017/01/30	2017/01/30	926512	5026632			BBG00FQGZSV8	GS 0 07/27/21
BBE	I	2017/01/30	2017/01/30	926513	5031845			BBG00FVV9JG5	GS 3.25 02/15/25 NOTZ
BBE	I	2017/01/30	2017/01/30	926514	5030713			BBG00FPL7XQ4	GS 0 01/30/25
BBE	I	2017/01/30	2017/01/30	926515	5031805			BBG00FPL8325	GS 0 01/31/22 N106
BBE	I	2017/01/30	2017/01/30	926516	5031811			BBG00FPL82P2	GS 0 07/31/19 MTN2
BBE	I	2017/01/30	2017/01/30	926517	5031814			BBG00FPL8254	GS 0 07/31/19 MTN1
BBE	I	2017/01/30	2017/01/30	926518	5030663			BBG00FPL7Y19	GS 0 01/30/23 0004
BBE	I	2017/01/30	2017/01/30	926519	5031834			BBG00FQKL4H3	GS 0 07/31/18 0025
BBE	I	2017/01/30	2017/01/30	926520	5031837			BBG00FPL7XH4	GS 0 01/29/21 MTN6
BBE	I	2017/01/30	2017/01/30	926521	5031841			BBG00FPL7X84	GS 0 01/29/21 MTN5
BBE	I	2017/01/30	2017/01/30	926522	5031908			BBG00FQL9HF8	GS V0 01/31/22 MTN3
BBE	I	2017/01/30	2017/01/30	926523	5031913			BBG00FQKMLM8	GS V0 01/31/20 mtn
BBE	I	2017/01/30	2017/01/30	926524	5031914			BBG00FQ7B2J5	GS V0 07/31/18 MtN
BBE	I	2017/01/30	2017/01/30	926525	5031846			BBG00FPL7W68	GS 0 01/31/19
BBE	I	2017/01/30	2017/01/30	926526	5031859			BBG00FPL7WC1	GS 0 01/31/19 000D
BBE	I	2017/01/30	2017/01/30	926527	5031816			BBG00FPL81N6	GS 0 01/29/27 0001
BBE	I	2017/01/30	2017/01/30	926528	5031822			BBG00FPL7Y82	GS 0 01/31/24 MTN1
BBE	I	2017/01/30	2017/01/30	926529	5031826			BBG00FPL7Y46	GS 0 07/29/22
BBE	I	2017/01/30	2017/01/30	926530	5031831			BBG00FPL7XW7	GS 0 10/29/20 MTN2
BBE	I	2017/01/30	2017/01/30	926531	5031901			BBG00FPL81V7	GS 0 01/31/24 MTN3
BBE	I	2017/01/30	2017/01/30	926532	5031903			BBG00FPL8370	GS 0 01/31/22 N107
BBE	I	2017/01/30	2017/01/30	926533	5031907			BBG00FPL82M5	GS 0 01/31/27
BBE	I	2017/01/30	2017/01/30	926534	5030667			BBG00FPL7XK0	GS 0 01/30/24 0007
BBE	I	2017/01/30	2017/01/30	926535	5031882			BBG00FWL5G49	GS 0 03/29/18 0004
BBE	I	2017/01/30	2017/01/30	926536	5029544			BBG00FRQ53L4	GS V0 01/31/22 eMT5
BBE	U	2017/01/30	2017/01/31	926537	5028179			BBG00FS7MJL1	GS V0 01/26/24 5623
BBE	I	2017/01/30	2017/01/30	926538	5028186			BBG00FVCNGT3	GS 0 04/25/18 MTN3
BBE	I	2017/01/30	2017/01/30	926539	5030675			BBG00FVHJPT7	GS V0 01/27/22 mtn
BBE	I	2017/01/30	2017/01/30	926540	5026784			BBG00FSDSYP5	GS 0 12/31/30 MTN3
BBE	U	2017/01/30	2017/01/31	926541	5029558			BBG00FSF42P6	GS V0 01/27/22 1208
BBE	I	2017/01/30	2017/01/30	926542	5030596			BBG00FVV99R5	GS 0 08/30/18
BBE	U	2017/01/30	2017/01/31	926543	5031660			BBG00FS79R65	HSBC 3 01/27/27 EMTN
BBE	I	2017/01/30	2017/01/30	926544	5030681			BBG00FVV3DC8	HSBC 2.25 02/08/22 MTN
BBE	I	2017/01/30	2017/01/30	926545	5030726			BBG00FVHNS61	HSBC 0 02/14/18 EN18
BBE	I	2017/01/30	2017/01/30	926546	5030727			BBG00FVHNRM5	HSBC 0 02/14/18 EN17
BBE	I	2017/01/30	2017/01/30	926547	5031451			BBG00C59L6F5	HSBC V0 02/27/23 EMTV
BBE	I	2017/01/30	2017/01/30	926548	5030634			BBG00FVVCP68	HXN 13.75 02/01/22 144A
BBE	I	2017/01/30	2017/01/30	926549	5030636			BBG00FS6VKG6	HXN 10.375 02/01/22 144A
BBE	I	2017/01/30	2017/01/30	926551	5029572			BBG00FVMYBS1	IBM 1.9 01/27/20
BBE	I	2017/01/30	2017/01/30	926552	5029555			BBG00FVNDKG5	IBM F 01/27/20 3FRN
BBE	I	2017/01/30	2017/01/30	926553	5029565			BBG00FVNFBT9	IBM 2.5 01/27/22
BBE	I	2017/01/30	2017/01/30	926554	5029561			BBG00FVNGFP3	IBM 3.3 01/27/27
BBE	I	2017/01/30	2017/01/30	926555	5031541			BBG00FVTM4X9	JPM V3.782 02/01/28
BBE	I	2017/01/30	2017/01/30	926556	5028268			BBG00FP4LYR3	JPM 0 01/29/21 EMTY
BBE	I	2017/01/30	2017/01/30	926557	5028262			BBG00FP4MF75	JPM 0 01/31/22 D00G
BBE	I	2017/01/30	2017/01/30	926558	5028261			BBG00FP4MF84	JPM 0 01/31/22 D00H
BBE	I	2017/01/30	2017/01/30	926559	5028259			BBG00FP4MF93	JPM 0 01/31/22 D00I
BBE	I	2017/01/30	2017/01/30	926560	5028276			BBG00FP4LZ90	JPM 0 01/31/22 D00F
BBE	I	2017/01/30	2017/01/30	926561	5028274			BBG00FP4LZC6	JPM 0 01/29/21 EMTZ
BBE	I	2017/01/30	2017/01/30	926562	5028270			BBG00FP4MF02	JPM 0 03/01/18
BBE	I	2017/01/30	2017/01/30	926563	5028266			BBG00FP4LYS2	JPM 0 02/02/18 0002
BBE	I	2017/01/30	2017/01/30	926564	5031886			BBG00FWKL1P3	JPM 0 01/31/20 CD0D
BBE	I	2017/01/30	2017/01/30	926565	5029547			BBG00FRSNMF5	JPM 10 01/29/20
BBE	I	2017/01/30	2017/01/30	926566	5031898			BBG00FVR0662	JPM 8.5 01/31/20
BBE	I	2017/01/30	2017/01/30	926567	5031893			BBG00FVR0653	JPM 7 02/02/22
BBE	I	2017/01/30	2017/01/30	926568	5031888			BBG00FQYRDL2	JPM 0 03/29/18 MTN8
BBE	I	2017/01/30	2017/01/30	926569	5026713			BBG00FVBPQ48	JPM 0 02/07/18 144B
BBE	I	2017/01/30	2017/01/30	926570	5029590			BBG00FVNX6K9	JACLIF 3.25 01/30/24 144A
BBE	I	2017/01/30	2017/01/30	926571	5029567			BBG00FVNWZX2	JACLIF 2.2 01/30/20 144A
BBE	I	2017/01/30	2017/01/30	926572	5029596			BBG00FVNXKC7	JACLIF 3.25 01/30/24 REGS
BBE	I	2017/01/30	2017/01/30	926573	5029581			BBG00FVNX4F0	JACLIF 2.2 01/30/20 REGS
BBE	U	2017/01/30	2017/01/31	926574	5029675			BBG00FRLZJX4	JEF 4 01/27/32 5246
BBE	I	2017/01/30	2017/01/30	926575	5029381			BBG00FVPHTS4	JEF 3 07/27/22
BBE	I	2017/01/30	2017/01/30	926576	5029559			BBG00FRX5JS7	KERPW 8.75 01/31/22 144A
BBE	I	2017/01/30	2017/01/30	926577	5030910			BBG00FRWWNJ0	KBN 2.25 01/25/22 144A
BBE	I	2017/01/30	2017/01/30	926578	5029552			BBG00FVVDG76	KOP 6 02/15/25 AI
BBE	I	2017/01/30	2017/01/30	926579	5027930			BBG00FVHCXR9	BRKHEC 3.1 05/01/27
BBE	I	2017/01/30	2017/01/30	926580	5027956			BBG00FVHD9Y3	BRKHEC 3.95 08/01/47
BBE	I	2017/01/30	2017/01/30	926581	5028875			BBG0009W3TK0	MACES 2007-5A 3F
BBE	I	2017/01/30	2017/01/30	926582	5026776			BBG00FVCT922	MS V3.5 01/30/27 MTN
BBE	I	2017/01/30	2017/01/30	926583	5031860			BBG00FQF49X4	MS 0 01/24/20
BBE	I	2017/01/30	2017/01/30	926584	5031855			BBG00FQF4FG9	MS 0 01/31/22 0157
BBE	I	2017/01/30	2017/01/30	926585	5031865			BBG00FQF49V6	MS 0 01/31/22 0156
BBE	I	2017/01/30	2017/01/30	926586	5031847			BBG00FQF49T9	MS 0 01/29/27
BBE	I	2017/01/30	2017/01/30	926587	5031842			BBG00FQF4FC3	MS 0 01/24/20 MTN1
BBE	I	2017/01/30	2017/01/30	926588	5031829			BBG00FS6CHJ1	MS 0 01/24/20 MTN2
BBE	I	2017/01/30	2017/01/30	926589	5031873			BBG00FPKZ2C8	MS V7 01/29/27 0025
BBE	I	2017/01/30	2017/01/30	926590	5031835			BBG00FPM48M4	MS V7 01/31/24 0065
BBE	I	2017/01/30	2017/01/30	926591	5029545			BBG00FPG5GC9	MYL 3.15 06/15/21 WI
BBE	I	2017/01/30	2017/01/30	926592	5031719			BBG00FVV6VS8	BNG 2.375 02/01/22 144A
BBE	I	2017/01/30	2017/01/30	926593	5030646			BBG00FVQ6DT8	KNFP 2.69 07/26/18
BBE	I	2017/01/30	2017/01/30	926594	5028046			BBG00FRJ9Z08	NEDWBK 1.5 01/23/19 144A
BBE	I	2017/01/30	2017/01/30	926597	5030642			BBG00FVV6PC8	NLSN 5 02/01/25 144A
BBE	I	2017/01/30	2017/01/30	926598	5029431			BBG00FVBRHQ2	NIB 2.125 02/01/22
BBE	I	2017/01/30	2017/01/30	926600	5031198			BBG0003694W9	PCG 8.65 01/01/20 86I
BBE	I	2017/01/30	2017/01/30	926601	5031195			BBG00035YN24	PCG 8.5 02/01/20 87A
BBE	I	2017/01/30	2017/01/30	926602	5031190			BBG000369556	PCG 10 05/01/20 87B
BBE	I	2017/01/30	2017/01/30	926603	5031187			BBG000369565	PCG 10 08/01/20 87C
BBE	I	2017/01/30	2017/01/30	926604	5031183			BBG0003C7G97	PCG 9.95 02/01/22 89A
BBE	I	2017/01/30	2017/01/30	926605	5031179			BBG00039CWV8	PCG 9.3 07/01/23 90A
BBE	I	2017/01/30	2017/01/30	926606	5026555			BBG00FRRF6T6	AVOL 5.25 08/15/22 144A
BBE	I	2017/01/30	2017/01/30	926607	5026560			BBG00FRRHJL4	AVOL 5.5 02/15/24 144A
BBE	I	2017/01/30	2017/01/30	926608	5026687			BBG00FRY6WD1	PEGI 5.875 02/01/24 144A
BBE	I	2017/01/30	2017/01/30	926610	5031726			BBG00FVP6P95	
BBE	I	2017/01/30	2017/01/30	926611	5028546			BBG00FVHZ6C9	PSEC 5 02/15/22 NOTZ
BBE	I	2017/01/30	2017/01/30	926613	5029519			BBG00FVC0RV1	Q 2.375 01/31/22
BBE	I	2017/01/30	2017/01/30	926614	5029541			BBG0062S24T0	RACEP 2011-5A ER
BBE	I	2017/01/30	2017/01/30	926615	5026691			BBG00FRRD0N7	RADIAT 6.625 02/15/25 144A
BBE	I	2017/01/30	2017/01/30	926616	5029601			BBG00FQ82365	RY 2.75 01/27/27 MTN
BBE	I	2017/01/30	2017/01/30	926617	5029568			BBG00FVQ4TK4	RY 0 11/09/18 0002
BBE	I	2017/01/30	2017/01/30	926618	5028272			BBG00FSF2FT5	RY V0 01/30/19 MTN2
BBE	I	2017/01/30	2017/01/30	926619	5028189			BBG00FVJ0XH9	RY 0 01/31/22 0001
BBE	I	2017/01/30	2017/01/30	926620	5030804			BBG00FVP01X7	RY 0 01/29/20
BBE	I	2017/01/30	2017/01/30	926621	5030536			BBG00FVV9KZ1	RY F 02/01/22
BBE	I	2017/01/30	2017/01/30	926622	5030555			BBG00FVV7TL9	RY 2.75 02/01/22 MTN
BBE	I	2017/01/30	2017/01/30	926623	5031579			BBG00FVP62V1	RY V0 01/29/19 0004
BBE	I	2017/01/30	2017/01/30	926624	5032040			BBG00FWK9YP5	RY V0 01/31/19 1258
BBE	I	2017/01/30	2017/01/30	926625	5029563			BBG00FVV9JH4	RY 0 03/02/18
BBE	I	2017/01/30	2017/01/30	926626	5031884			BBG00FWHJ627	RUALRU 5.125 02/02/22 144A
BBE	I	2017/01/30	2017/01/30	926627	5031171			BBG00FRTP2P4	
BBE	I	2017/01/30	2017/01/30	926628	5027183			BBG00FQRFG60	SMG 6 10/15/23 WI
BBE	I	2017/01/30	2017/01/30	926629	5030628			BBG00FVV5GN7	SFD 2.7 01/31/20 144A
BBE	I	2017/01/30	2017/01/30	926630	5030640			BBG00FVV2G96	SFD 3.35 02/01/22 144A
BBE	I	2017/01/30	2017/01/30	926631	5030611			BBG00FVTTZJ9	SFD 4.25 02/01/27 144A
BBE	I	2017/01/30	2017/01/30	926632	5032049			BBG00FVVGRT5	SOCGEN 9 07/31/18 0001
BBE	I	2017/01/30	2017/01/30	926633	5032053			BBG00FVVMB77	SOCGEN 8 07/31/18
BBE	I	2017/01/30	2017/01/30	926634	5028287			BBG00FS7XDB3	SOCGEN 10 07/31/18
BBE	I	2017/01/30	2017/01/30	926635	5030731			BBG00FVP3K44	SOCGEN 17 01/31/18
BBE	I	2017/01/30	2017/01/30	926636	5030730			BBG00FS78GD2	SOCGEN 2 02/04/21
BBE	I	2017/01/30	2017/01/30	926637	5030732			BBG00FVHHY47	SOCGEN 9.8 02/01/22
BBE	I	2017/01/30	2017/01/30	926638	5028141			BBG000B5GYD9	SAMI 2006-AR5 4A2
BBE	I	2017/01/30	2017/01/30	926639	5030658			BBG00FVTRMH2	STI 2.25 01/31/20
BBE	I	2017/01/30	2017/01/30	926640	5030685			BBG00FVTSCB9	STI F 01/31/20
BBE	I	2017/01/30	2017/01/30	926641	5030992			BBG00C5Z3J14	SYF 2.1 02/13/23 0005
BBE	I	2017/01/30	2017/01/30	926642	5030988			BBG008DS3Z87	SYF 2.1 04/05/21 0000
BBE	I	2017/01/30	2017/01/30	926643	5030982			BBG008DSFNF3	SYF 2.25 04/04/22 0004
BBE	I	2017/01/30	2017/01/30	926644	5030969			BBG008DS6ZM8	SYF 1.85 04/02/20 0001
BBE	I	2017/01/30	2017/01/30	926645	5030967			BBG008DS6ZP5	SYF 2.1 04/05/21 0002
BBE	I	2017/01/30	2017/01/30	926646	5030962			BBG008DS6ZZ4	SYF 2.25 04/04/22 0002
BBE	I	2017/01/30	2017/01/30	926647	5030953			BBG00C5YWQQ2	SYF 2 02/14/22
BBE	I	2017/01/30	2017/01/30	926648	5029574			BBG00FVNQ805	TECD 3.7 02/15/22
BBE	I	2017/01/30	2017/01/30	926649	5029583			BBG00FVNQQK3	TECD 4.95 02/15/27
BBE	I	2017/01/30	2017/01/30	926650	5028197			BBG00FVDHYW5	TGLS 8.2 01/31/22 144A
BBE	I	2017/01/30	2017/01/30	926651	5031921			BBG00FQGVMY2	TD 2 01/31/22 MTN
BBE	I	2017/01/30	2017/01/30	926652	5031862			BBG00FRYK7G7	TD 0 01/30/20
BBE	I	2017/01/30	2017/01/30	926653	5029510			BBG00FVNX2B8	BOSCOL 1.697 07/01/19 2017
BBE	I	2017/01/30	2017/01/30	926654	5029521			BBG00FVNX291	BOSCOL 2.066 07/01/20 2017
BBE	I	2017/01/30	2017/01/30	926655	5029518			BBG00FVNX282	BOSCOL 2.451 07/01/21 2017
BBE	I	2017/01/30	2017/01/30	926656	5029524			BBG00FVNXDQ8	BOSCOL 2.651 07/01/22 2017
BBE	I	2017/01/30	2017/01/30	926657	5029527			BBG00FVNXDR7	BOSCOL 2.912 07/01/23 2017
BBE	I	2017/01/30	2017/01/30	926658	5029516			BBG00FVP5RN6	BOSCOL 3.993 07/01/47 2017
BBE	I	2017/01/30	2017/01/30	926659	5028199			BBG00FVCLWX5	UAL 5 02/01/24
BBE	I	2017/01/30	2017/01/30	926660	5027846			BBG00FS7FPP1	B 0 07/27/17
BBE	I	2017/01/30	2017/01/30	926661	5029553			BBG00FVNY9L1	SPY 0 01/31/19
BBE	I	2017/01/30	2017/01/30	926662	5030696			BBG00FVVFGN6	SPX 0 01/31/22
BBE	I	2017/01/30	2017/01/30	926663	5031647			BBG00FWKP3R3	SP 0 01/31/24
BBE	I	2017/01/30	2017/01/30	926664	5029504			BBG00FS7FPX2	T 1.125 01/31/19
BBE	I	2017/01/30	2017/01/30	926665	5030662			BBG00FS7FQ42	TF 0 01/31/19
BBE	I	2017/01/30	2017/01/30	926666	5029242			BBG00FS7FQN1	T 1.875 01/31/22
BBE	I	2017/01/30	2017/01/30	926667	5031635			BBG00FS7FQX0	T 2.25 01/31/24
BBE	I	2017/01/30	2017/01/30	926668	5031701			BBG00FWKP696	S 0 01/31/24
BBE	I	2017/01/30	2017/01/30	926669	5029612			BBG00FVJ83J5	VEDLN 6.375 07/30/22 144A
BBE	I	2017/01/30	2017/01/30	926670	5026693			BBG00FVH8GM6	WFC 0 01/29/24
BBE	I	2017/01/30	2017/01/30	926671	5032058			BBG00FPMC480	WFC 0 02/01/27
BBE	I	2017/01/30	2017/01/30	926672	5031874			BBG00FWQ5QS0	WFC 0 01/31/19 0001
BBE	I	2017/01/30	2017/01/30	926673	5031867			BBG00FRMSDB7	WFC 0 01/31/19
BBE	I	2017/01/30	2017/01/30	926674	5029771			BBG00FVHJMT4	WFC 0 07/30/18
BBE	I	2017/01/30	2017/01/30	926675	5030944			BBG001HTY3K9	WFC 0 10/07/17 0000
BBE	I	2017/01/30	2017/01/30	926676	5030939			BBG001LPW164	WFC 0 05/05/17 0000
BBE	I	2017/01/30	2017/01/30	926677	5030934			BBG0029460M6	WFC 0 11/07/17 0000
BBE	I	2017/01/30	2017/01/30	926678	5029401			BBG00FHY9TP3	BIMCN 12 02/01/22 REGS
BBE	I	2017/01/30	2017/01/30	926679	5030745			BBG00FVV89P8	CAMEBO 5.75 01/31/27 REGS
BBE	I	2017/01/30	2017/01/30	926680	5030448			BBG00FJ5K5Q2	MDPK 2015-16X A1R
BBE	I	2017/01/30	2017/01/30	926681	5030458			BBG00FJ5K5R1	MDPK 2015-16X A2R
BBE	I	2017/01/30	2017/01/30	926682	5030466			BBG00FJ5K5S0	MDPK 2015-16X BR
BBE	I	2017/01/30	2017/01/30	926683	5030443			BBG00FD896G4	MDPK 2016-24X E
BBE	I	2017/01/30	2017/01/30	926684	5030543			BBG00FD89692	MDPK 2016-24X A
BBE	I	2017/01/30	2017/01/30	926685	5030535			BBG00FD896B9	MDPK 2016-24X B
BBE	I	2017/01/30	2017/01/30	926686	5030551			BBG00FD896C8	MDPK 2016-24X C1
BBE	I	2017/01/30	2017/01/30	926687	5030573			BBG00FD896F5	MDPK 2016-24X D
BBE	I	2017/01/30	2017/01/30	926688	5030566			BBG00FD896D7	MDPK 2016-24X C2
BBE	I	2017/01/30	2017/01/30	926689	5028888			BBG0009W4KW5	MACES 2007-5X 3F
BBE	I	2017/01/30	2017/01/30	926690	5026810			BBG00FRRHCL9	AVOL 5.25 08/15/22 REGS
BBE	I	2017/01/30	2017/01/30	926691	5026815			BBG00FRRHMK8	AVOL 5.5 02/15/24 REGS
BBE	I	2017/01/30	2017/01/30	926692	5031437			BBG00FRY9351	SNDPT 2014-3X AR
BBE	I	2017/01/30	2017/01/30	926693	5031439			BBG00FRY9360	SNDPT 2014-3X BR
BBE	I	2017/01/30	2017/01/30	926694	5031442			BBG00FRY9379	SNDPT 2014-3X CR
BBE	I	2017/01/30	2017/01/30	926695	5029775			BBG00FVH69X2	TGLS 8.2 01/31/22 REGS
BBE	I	2017/01/30	2017/01/30	926696	5030605			BBG00FVM7K47	VEDLN 6.375 07/30/22 REGS
BBE	I	2017/01/30	2017/01/30	926697	5029576			BBG00F9Z9F97	VIBR 2015-3X A1R
BBE	I	2017/01/30	2017/01/30	926698	5029587			BBG00F9Z9FB4	VIBR 2015-3X A2R
BBE	I	2017/01/30	2017/01/30	926699	5030743			BBG00FVV9YP2	NLSN 5 02/01/25 REGS
BBE	I	2017/01/30	2017/01/30	926700	5030733			BBG00FVNGG53	ALTHBD 6.25 02/01/25 REGS
BBE	I	2017/01/30	2017/01/30	926701	5029661			BBG00FVP59T0	AIRXCL 8.5 02/15/22 REGs
BBE	I	2017/01/30	2017/01/30	926702	5028205			BBG00FVHNVN5	CCS 6.875 05/15/22 regS
BBE	I	2017/01/30	2017/01/30	926703	5030760			BBG00FVQ4GB2	FGP 8.625 06/15/20 REGS
BBE	I	2017/01/30	2017/01/30	926704	5032037			BBG00FWL4TJ6	HCHC 11 12/01/19 REgS
BBE	I	2017/01/30	2017/01/30	926705	5030741			BBG00FS6X2K9	HXN 10.375 02/01/22 REGS
BBE	I	2017/01/30	2017/01/30	926706	5030734			BBG00FVVCQ02	HXN 13.75 02/01/22 REGS
BBE	I	2017/01/30	2017/01/30	926707	5026824			BBG00FS7QTB6	PEGI 5.875 02/01/24 REGS
BBE	I	2017/01/30	2017/01/30	926708	5026826			BBG00FRRDTH1	RADIAT 6.625 02/15/25 REGS
BBE	I	2017/01/30	2017/01/30	926709	5030619			BBG00FVV5K49	SFD 2.7 01/31/20 REGS
BBE	I	2017/01/30	2017/01/30	926710	5030668			BBG00FVV2FD3	SFD 3.35 02/01/22 REGS
BBE	I	2017/01/30	2017/01/30	926711	5030617			BBG00FVTTG92	SFD 4.25 02/01/27 REGS
BBE	I	2017/01/30	2017/01/30	926759	5026710			BBG00FVSQXH1	JPM 0 01/25/47 EMTN
BBE	I	2017/01/30	2017/01/30	926790	5030877			BBG00FQPDGY5	BACR 0 01/24/42 EMTN
BBE	I	2017/01/30	2017/01/30	926791	5031710			BBG00FQVN2W4	
BBE	I	2017/01/30	2017/01/30	926792	5026768			BBG00FS1XJZ7	CMZB 0 01/24/20
BBE	I	2017/01/30	2017/01/30	926803	5031631			BBG00FRSFXL3	JPM V0 01/26/23
BBE	I	2017/01/30	2017/01/30	926814	5028389			BBG00FS0HRM3	BNP 0 07/25/18 0003
BBE	I	2017/01/30	2017/01/30	926817	5028395			BBG00FS6D0K5	BNP 2.5 02/01/18
BBE	I	2017/01/30	2017/01/30	926839	5028785			BBG00FSC9K23	BNP V0 01/28/19 000D
BBE	I	2017/01/30	2017/01/30	926841	5028433			BBG00FSC9LW8	BNP 0 01/26/21
BBE	I	2017/01/30	2017/01/30	926856	5031555			BBG00FVBYVV7	BNP V0 08/03/18
BBE	I	2017/01/30	2017/01/30	926867	5031618			BBG00FVNQRZ5	BNP V0 01/30/18 EMTQ
BBE	I	2017/01/30	2017/01/30	926868	5031638			BBG00FVNQYP1	BNP V0 01/30/18 EMTR
BBE	I	2017/01/30	2017/01/30	926894	5031680			BBG00FVJ2BP6	GS 0 01/28/20 0006
BBE	I	2017/01/30	2017/01/30	926895	5031688			BBG00FVJ2BQ5	GS 0 01/27/22 MTN2
BBE	I	2017/01/30	2017/01/30	926896	5029923			BBG00FVJ26Q6	GS 0 01/27/20 0002
BBE	I	2017/01/30	2017/01/30	926897	5029930			BBG00FVJ26T3	GS 0 01/27/22 MTN1
BBE	I	2017/01/30	2017/01/30	926940	5027016			BBG00FWNKXH7	MS 0 01/26/21 0002
BBE	I	2017/01/30	2017/01/30	926941	5026905			BBG00FS6CHG4	MS 0 07/27/20
BBE	I	2017/01/30	2017/01/30	926943	5029148			BBG00FVWBHL8	MS 6 01/29/19
BBE	I	2017/01/30	2017/01/30	926952	5027137			BBG00FS7GJ01	SOCGEN 1.25 01/25/18
BBE	I	2017/01/30	2017/01/30	926960	5031624			BBG00FFRRVG5	DRYD 2016-48X A1
BBE	I	2017/01/30	2017/01/30	926961	5031877			BBG00FFRRVJ2	DRYD 2016-48X A1NE
BBE	I	2017/01/30	2017/01/30	926962	5031295			BBG00FFRRVH4	DRYD 2016-48X A1NV
BBE	I	2017/01/30	2017/01/30	926963	5032046			BBG00FGBK920	DRYD 2016-48A A1NE
BBE	I	2017/01/30	2017/01/30	926964	5031683			BBG00FGBK902	DRYD 2016-48A A1
BBE	I	2017/01/30	2017/01/30	926965	5031593			BBG00FGBK911	DRYD 2016-48A A1NV
BBE	I	2017/01/30	2017/01/30	926966	5031671			BBG00FFRRVK0	DRYD 2016-48X A2
BBE	I	2017/01/30	2017/01/30	926967	5032032			BBG00FFRRVM8	DRYD 2016-48X A2NE
BBE	I	2017/01/30	2017/01/30	926968	5031248			BBG00FFRRVL9	DRYD 2016-48X A2NV
BBE	I	2017/01/30	2017/01/30	926969	5031863			BBG00FGBK939	DRYD 2016-48A A2
BBE	I	2017/01/30	2017/01/30	926970	5031982			BBG00FGBK957	DRYD 2016-48A A2NE
BBE	I	2017/01/30	2017/01/30	926971	5031266			BBG00FGBK948	DRYD 2016-48A A2NV
BBE	I	2017/01/30	2017/01/30	926972	5031828			BBG00FFRRVQ4	DRYD 2016-48X B1NE
BBE	I	2017/01/30	2017/01/30	926973	5031577			BBG00FFRRVN7	DRYD 2016-48X B1
BBE	I	2017/01/30	2017/01/30	926974	5032025			BBG00FGBK984	DRYD 2016-48A B1NE
BBE	I	2017/01/30	2017/01/30	926975	5032075			BBG00FGBK966	DRYD 2016-48A B1
BBE	I	2017/01/30	2017/01/30	926976	5030245			BBG00FGBK975	DRYD 2016-48A B1NV
BBE	I	2017/01/30	2017/01/30	926977	5031792			BBG00FFRRVT1	DRYD 2016-48X B2NE
BBE	I	2017/01/30	2017/01/30	926978	5031281			BBG00FFRRVR3	DRYD 2016-48X B2
BBE	I	2017/01/30	2017/01/30	926979	5031961			BBG00FFRRVS2	DRYD 2016-48X B2NV
BBE	I	2017/01/30	2017/01/30	926980	5032015			BBG00FGBK9C9	DRYD 2016-48A B2NE
BBE	I	2017/01/30	2017/01/30	926981	5031946			BBG00FGBK993	DRYD 2016-48A B2
BBE	I	2017/01/30	2017/01/30	926982	5031246			BBG00FGBK9B0	DRYD 2016-48A B2NV
BBE	I	2017/01/30	2017/01/30	926983	5031271			BBG00FFRRVX6	DRYD 2016-48X CNE
BBE	I	2017/01/30	2017/01/30	926984	5030189			BBG00FFRRVV8	DRYD 2016-48X C
BBE	I	2017/01/30	2017/01/30	926985	5031641			BBG00FFRRVW7	DRYD 2016-48X CNV
BBE	I	2017/01/30	2017/01/30	926986	5031564			BBG00FGBK9G5	DRYD 2016-48A CNE
BBE	I	2017/01/30	2017/01/30	926987	5030259			BBG00FGBK9D8	DRYD 2016-48A C
BBE	I	2017/01/30	2017/01/30	926988	5031753			BBG00FGBK9F6	DRYD 2016-48A CNV
BBE	I	2017/01/30	2017/01/30	926989	5032007			BBG00FFRRVY5	DRYD 2016-48X D
BBE	I	2017/01/30	2017/01/30	926990	5030264			BBG00FFRRW00	DRYD 2016-48X DNE
BBE	I	2017/01/30	2017/01/30	926991	5031988			BBG00FFRRVZ4	DRYD 2016-48X DNV
BBE	I	2017/01/30	2017/01/30	926992	5030207			BBG00FGBK9H4	DRYD 2016-48A D
BBE	I	2017/01/30	2017/01/30	926993	5031714			BBG00FGBK9K0	DRYD 2016-48A DNE
BBE	I	2017/01/30	2017/01/30	926994	5031953			BBG00FGBK9J2	DRYD 2016-48A DNV
BBE	I	2017/01/30	2017/01/30	926995	5030263			BBG00FGBK9L9	DRYD 2016-48A E
BBE	I	2017/01/30	2017/01/30	926996	5030192			BBG00FFRRW19	DRYD 2016-48X E
BBE	I	2017/01/30	2017/01/30	926997	5031278			BBG00FFRRW28	DRYD 2016-48X F
BBE	I	2017/01/30	2017/01/30	926998	5032047			BBG00FFRRW37	DRYD 2016-48X SUB
BBE	I	2017/01/30	2017/01/30	926999	5032062			BBG00FGBK9N7	DRYD 2016-48A SUB
BBE	I	2017/01/30	2017/01/30	927000	5031920			BBG00FGBK9M8	DRYD 2016-48A F
BBE	I	2017/01/30	2017/01/30	927001	5031975			BBG00FFRRVP5	DRYD 2016-48X B1NV
BBE	I	2017/01/30	2017/01/30	927002	5031519			BBG00FGGVRK7	OHECP 2016-5A A1
BBE	I	2017/01/30	2017/01/30	927003	5031515			BBG00FGGVRL6	OHECP 2016-5A A1NV
BBE	I	2017/01/30	2017/01/30	927004	5031547			BBG00FGGVRN4	OHECP 2016-5A A2
BBE	I	2017/01/30	2017/01/30	927005	5031471			BBG00FGGVRP2	OHECP 2016-5A A2NV
BBE	I	2017/01/30	2017/01/30	927006	5031637			BBG00FGGVRM5	OHECP 2016-5A A1NE
BBE	I	2017/01/30	2017/01/30	927007	5031531			BBG00FGGVRR0	OHECP 2016-5A B1
BBE	I	2017/01/30	2017/01/30	927008	5031604			BBG00FGGVRS9	OHECP 2016-5A B1NV
BBE	I	2017/01/30	2017/01/30	927009	5031584			BBG00FGGVRQ1	OHECP 2016-5A A2NE
BBE	I	2017/01/30	2017/01/30	927010	5031209			BBG00FGGVRV5	OHECP 2016-5A B2
BBE	I	2017/01/30	2017/01/30	927011	5031256			BBG00FGGVRX3	OHECP 2016-5A B2NE
BBE	I	2017/01/30	2017/01/30	927012	5031292			BBG00FGGVRW4	OHECP 2016-5A B2NV
BBE	I	2017/01/30	2017/01/30	927013	5031567			BBG00FGGVRT8	OHECP 2016-5A B1NE
BBE	I	2017/01/30	2017/01/30	927014	5031876			BBG00FGFWQ39	OHECP 2016-5X CNV
BBE	I	2017/01/30	2017/01/30	927015	5031507			BBG00FGGVRZ1	OHECP 2016-5A CNV
BBE	I	2017/01/30	2017/01/30	927016	5031526			BBG00FGFWQ75	OHECP 2016-5X DNE
BBE	I	2017/01/30	2017/01/30	927017	5031482			BBG00FGGVS34	OHECP 2016-5A DNE
BBE	I	2017/01/30	2017/01/30	927018	5031542			BBG00FGGVS25	OHECP 2016-5A DNV
BBE	I	2017/01/30	2017/01/30	927019	5031496			BBG00FGGVS52	OHECP 2016-5A F
BBE	I	2017/01/30	2017/01/30	927020	5031523			BBG00FGGVS61	OHECP 2016-5A SUB
BBE	I	2017/01/30	2017/01/30	927021	5031528			BBG00FGFWQ48	OHECP 2016-5X CNE
BBE	I	2017/01/30	2017/01/30	927022	5031474			BBG00FGGVRY2	OHECP 2016-5A C
BBE	I	2017/01/30	2017/01/30	927023	5031588			BBG00FGGVS07	OHECP 2016-5A CNE
BBE	I	2017/01/30	2017/01/30	927024	5031536			BBG00FGFWQ66	OHECP 2016-5X DNV
BBE	I	2017/01/30	2017/01/30	927025	5031477			BBG00FGGVS16	OHECP 2016-5A D
BBE	I	2017/01/30	2017/01/30	927026	5031501			BBG00FGGVS43	OHECP 2016-5A E
BBE	I	2017/01/30	2017/01/30	927039	5032414			BBG00FWHML48	RUALRU 5.125 02/02/22 REGS
BBE	I	2017/01/30	2017/01/30	927040	5030426			BBG00FRX5QP4	KERPW 8.75 01/31/22 REGS
BBE	I	2017/01/30	2017/01/30	927044	5029752			BBG00FQSTXC9	VISFIN 1.1 06/20/17 EMTN
BBE	I	2017/01/30	2017/01/30	927045	5029758			BBG00FQSR6Z5	VISFIN 0.9 06/20/17 EMTN
BBE	I	2017/01/30	2017/01/30	927046	5029762			BBG00FQSVNZ3	VISFIN 0.25 06/20/17 EMTN
BBE	I	2017/01/30	2017/01/30	927084	5028633			BBG00FQ9RQ92	DELFT 2017-1 A
BBE	I	2017/01/30	2017/01/30	927085	5028561			BBG00FQ9RQB9	DELFT 2017-1 B
BBE	I	2017/01/30	2017/01/30	927086	5028595			BBG00FQ9RQC8	DELFT 2017-1 C
BBE	I	2017/01/30	2017/01/30	927087	5028808			BBG00FQ9RQD7	DELFT 2017-1 D
BBE	I	2017/01/30	2017/01/30	927088	5028823			BBG00FQ9RQF5	DELFT 2017-1 E
BBE	I	2017/01/30	2017/01/30	927089	5028793			BBG00FQ9RQG4	DELFT 2017-1 Z
BBE	I	2017/01/30	2017/01/30	927146	5028140			BBG00FS1T467	KBC V0 01/23/24 EMTN
BBE	I	2017/01/30	2017/01/30	927147	5028133			BBG00FS5W0W3	KBC V0 01/23/24 eMTN
BBE	I	2017/01/30	2017/01/30	927153	5029780			BBG00FRT3278	HARVT 8X AR
BBE	I	2017/01/30	2017/01/30	927156	5029786			BBG00FRT32B3	HARVT 8X BR
BBE	I	2017/01/30	2017/01/30	927159	5029554			BBG00FRSRYP4	PHNXP 1X A1R
BBE	I	2017/01/30	2017/01/30	927161	5029190			BBG00FRLZFF2	IBRD 3.6 02/06/27 GDIF
BBE	I	2017/01/30	2017/01/30	927163	5029654			BBG00FQMXJ01	HSBC 0 01/17/18 EMTP
BBE	I	2017/01/30	2017/01/30	927177	5028150			BBG00FRPT526	EDC 0.605 01/25/21 EMTN
BBE	I	2017/01/30	2017/01/30	927178	5028126			BBG00FRQ2NT5	KFW 0.645 01/23/21 EMTN
BBE	I	2017/01/30	2017/01/30	927179	5030496			BBG00FVM83F2	NIBCAP 1.5 01/31/22 EMTN
BBE	I	2017/01/30	2017/01/30	927193	5026640			BBG00FRZTMX3	BQDAU F 01/25/22 EMTN
BBE	I	2017/01/30	2017/01/30	927194	5026592			BBG00FRWWPH7	KBN 2.25 01/25/22 REGS
BBE	I	2017/01/30	2017/01/30	927196	5026597			BBG00FRY9TT8	HSBC 1.62 01/27/33 EMTN
BBE	I	2017/01/30	2017/01/30	927198	5026580			BBG00FS01W76	SPABOL 0.05 01/25/22 Emtn
BBE	I	2017/01/30	2017/01/30	927199	5030858			BBG00FRZZZ12	SOCGEN F 01/25/22 EMTN
BBE	I	2017/01/30	2017/01/30	927210	5026658			BBG00FRT3HP5	CAF 0.5 01/25/22 EMTN
BBE	I	2017/01/30	2017/01/30	927237	5027856			BBG00FS5R9X9	EBRD 0 01/25/19 GMTN
BBE	I	2017/01/30	2017/01/30	927240	5027851			BBG00FS5KT80	WSTP 3.01 01/25/27 EMTN
BBE	I	2017/01/30	2017/01/30	927242	5030607			BBG00FS61TM3	NIB 0 01/26/47 EMTN
BBE	I	2017/01/30	2017/01/30	927259	5027947			BBG00FS6D0Z9	LPTY 1.5 01/26/22 EMTN
BBE	I	2017/01/30	2017/01/30	927260	5030923			BBG00FS6CHD7	NAB F 01/25/18 GMTN
BBE	I	2017/01/30	2017/01/30	927263	5027961			BBG00FS6ZL34	KFW 0 01/26/47 EMTN
BBE	I	2017/01/30	2017/01/30	927265	5027710			BBG00FS69Y26	HSBC 3.52 01/26/27 EMTN
BBE	I	2017/01/30	2017/01/30	927275	5027703			BBG00FSCCW32	BMO F 01/26/18 EMTN
BBE	I	2017/01/30	2017/01/30	927280	5027718			BBG00FS7GVC1	HSBC 0 01/26/18 563X
BBE	I	2017/01/30	2017/01/30	927284	5028049			BBG00FS7KLV7	ASBBNK 1.165 01/26/27 EMTN
BBE	I	2017/01/30	2017/01/30	927285	5031651			BBG00FS7DXN8	FMSWER 0 02/18/19 EMTN
BBE	I	2017/01/30	2017/01/30	927314	5028006			BBG00FSCGVV9	WFC 2.125 12/20/23 EMTN
BBE	I	2017/01/30	2017/01/30	927316	5031430			BBG00FVBNW47	QNBK F 01/25/19 EMTN
BBE	I	2017/01/30	2017/01/30	927323	5029446			BBG00FV9G9H7	NIB 0 01/31/47 EMTN
BBE	I	2017/01/30	2017/01/30	927324	5029726			BBG00FSDDQZ7	KOMINS 1.52 01/27/22 EMTN
BBE	I	2017/01/30	2017/01/30	927325	5029727			BBG00FSCPYC4	HESLAN 0.05 01/27/20 EMTN
BBE	I	2017/01/30	2017/01/30	927328	5027838			BBG00FSCPKT6	CBAAU F 01/30/18 EMTn
BBE	I	2017/01/30	2017/01/30	927330	5029733			BBG00FSD3584	DNBNO 1.533 01/27/42 EMTN
BBE	I	2017/01/30	2017/01/30	927331	5029498			BBG00FSDJ7P4	HSBC 0 01/27/22 EMTT
BBE	I	2017/01/30	2017/01/30	927332	5029457			BBG00FSDDZ50	HSBC 0 01/27/22 EMTS
BBE	I	2017/01/30	2017/01/30	927334	5029793			BBG00FVHDPR5	C 0 07/03/17 eMTN
BBE	I	2017/01/30	2017/01/30	927338	5029497			BBG00FSDX4S2	HSBC 0 01/28/19 0007
BBE	I	2017/01/30	2017/01/30	927339	5029740			BBG00FVBVJL8	VORHYP 3.7 01/30/24 EMTN
BBE	I	2017/01/30	2017/01/30	927342	5029744			BBG00FSDJM62	DEKA V0 01/30/19 EMTN
BBE	I	2017/01/30	2017/01/30	927370	5028955			BBG00FVBNB43	DT 0.375 10/30/21 EMTN
BBE	I	2017/01/30	2017/01/30	927371	5028896			BBG00FVBNB25	DT 1.375 01/30/27 EMTN
BBE	I	2017/01/30	2017/01/30	927372	5028941			BBG00FVBNB34	DT 0.875 01/30/24 EMTN
BBE	I	2017/01/30	2017/01/30	927373	5031192			BBG00FVD3C94	SRBANK 1.35 12/30/27 EMTN
BBE	I	2017/01/30	2017/01/30	927382	5031155			BBG00FVH52M0	SBAB F 05/30/19 EMTN
BBE	I	2017/01/30	2017/01/30	927393	5029144			BBG00FVGXTJ6	DZBK F 01/30/18 EMTN
BBE	I	2017/01/30	2017/01/30	927398	5029322			BBG00FVHGBF6	BNS 1.283 02/02/29 EMTN
BBE	I	2017/01/30	2017/01/30	927399	5031152			BBG00FVHDR00	HSBC 0 01/31/22 BT1G
BBE	I	2017/01/30	2017/01/30	927410	5032403			BBG00FWH3189	SANTAN 1.375 02/09/22
BBE	I	2017/01/30	2017/01/30	927429	5029709			BBG00FVM8FS1	IMBLN 0.5 07/27/21
BBE	I	2017/01/30	2017/01/30	927430	5029638			BBG00FVM8FT0	IMBLN 1.375 01/27/25
BBE	I	2017/01/30	2017/01/30	927431	5032148			BBG00FVML7B2	IFC 5.27 09/18/20 JAN
BBE	I	2017/01/30	2017/01/30	927432	5030554			BBG00FVM7915	WFC F 01/31/22 EMTN
BBE	I	2017/01/30	2017/01/30	927433	5032204			BBG00FVN5VY0	SBAB F 01/30/19 EMTN
BBE	I	2017/01/30	2017/01/30	927434	5032192			BBG00FVMG942	SRBANK 1.69 01/30/32 EMTN
BBE	I	2017/01/30	2017/01/30	927436	5030453			BBG00FVMGB74	MUFG 0.4 01/30/21 EMTN
BBE	I	2017/01/30	2017/01/30	927442	5030369			BBG00FVNS4H4	EGYPT 6.125 01/31/22 REGS
BBE	I	2017/01/30	2017/01/30	927443	5030389			BBG00FVM8PP2	EGYPT 8.5 01/31/47 REGS
BBE	I	2017/01/30	2017/01/30	927445	5030407			BBG00FRPYS39	EGYPT 7.5 01/31/27 REGS
BBE	I	2017/01/30	2017/01/30	927446	5029802			BBG00FVM8YF4	EDPPL 1.875 09/29/23 EMTN
BBE	I	2017/01/30	2017/01/30	927449	5031208			BBG00FWNCTC0	HSBC 0 01/31/20 000I
BBE	I	2017/01/30	2017/01/30	927451	5031217			BBG00FWNCW51	HSBC 0 10/31/20
BBE	I	2017/01/30	2017/01/30	927457	5031713			BBG00FVV7KV7	BNG 2.375 02/01/22 REGS
BBE	I	2017/01/30	2017/01/30	927460	5030552			BBG00FVNRWD7	CM F 02/01/18 EMTN
BBE	U	2017/01/30	2017/01/31	927475	5031610			BBG00FVT0M54	IBRD 1 02/02/22 GDIF
BBE	I	2017/01/30	2017/01/30	927476	5031520			BBG00FVST767	HESLAN 0 01/31/19 EMTN
BBE	I	2017/01/30	2017/01/30	927477	5031645			BBG00FVSTKX8	LBANK 1.625 02/01/19 EMTN
BBE	I	2017/01/30	2017/01/30	927478	5030435			BBG00FVSTW44	WSTP 2.125 05/02/25 EMTN
BBE	I	2017/01/30	2017/01/30	927480	5031425			BBG00FVSV149	ATLIM 1.625 02/03/25 EMTN
BBE	I	2017/01/30	2017/01/30	927481	5031626			BBG00FVV7R97	KFW 7.5 12/07/23 EMTN
BBE	I	2017/01/30	2017/01/30	927482	5031535			BBG00FVV83T7	HSBC 0 02/08/23
EDI_ENDOFFILE
