EDI_LK144_20170131
TableName	Actflag	Created	Changed	LK144ID	SecID144A	SecIDRegS	SecIDUnrestricted	LinkOutstandingAmount	LinkOutstandingAmountDate
LK144	U	2016/04/25	2017/01/30	774	2028671	2028663		525.00000	2017/01/28
LK144	U	2016/04/28	2017/01/30	886	4185984	4185980			2017/01/30
LK144	U	2016/10/21	2017/01/30	2273	3221873	2401672			2017/01/28
LK144	I	2017/01/27	2017/01/27	2783	5031719	5031713		1750.00000	2017/02/01
LK144	I	2017/01/30	2017/01/30	2796	5031884	5032414		600.00000	2017/02/02
LK144	I	2017/01/30	2017/01/30	2797	5023710	5023716		2000.00000	2017/01/25
LK144	I	2017/01/30	2017/01/30	2798	5032670	5032662		250.00000	2017/02/02
LK144	I	2017/01/30	2017/01/30	2799	5030642	5030743		500.00000	2017/01/31
LK144	I	2017/01/30	2017/01/30	2800	4502272	4502274		1300.00000	2016/03/18
LK144	I	2017/01/30	2017/01/30	2801	4527004	4526011		0.01500	2016/06/30
LK144	I	2017/01/31	2017/01/31	2802	5032663	5032854		350.00000	2017/02/08
LK144	I	2017/01/31	2017/01/31	2803	4110033	4109214		29.11000	2015/10/28
EDI_ENDOFFILE
