EDI_INTBC_20170131
TableName	Actflag	Created	Changed	IntbcID	SecID	ISIN	EffectiveDate	OldIntBasis	NewIntBasis	OldIntBDC	NewIntBDC
INTBC	D	2015/01/07	2017/01/30	39814	3984282	RU000A0JTMG7	2018/02/08	FXD	VR	FBD	FBD
INTBC	I	2016/06/17	2016/06/17	45945	4805346	XS1423722823	2026/06/18	FXD	FR		
INTBC	I	2017/01/21	2017/01/23	48130	5026301	XS1555090403	2024/01/24	FXD	FR		
INTBC	I	2017/01/27	2017/01/27	48295	5031541	US46625HRY89	2027/02/01	FXD	FR	FBD	MFBD
INTBC	I	2017/01/30	2017/01/30	48338	3984282	RU000A0JTMG7	2018/08/09	FXD	VR	FBD	FBD
INTBC	I	2017/01/31	2017/01/31	48360	5030672	US22548QSQ90	2018/01/31	FXD	FR	MFBD	MFBD
INTBC	I	2017/01/31	2017/01/31	48371	4649754	XS1317710884	2018/11/25	FXD	FR	FBD	FBD
EDI_ENDOFFILE
