EDI_SCCHG_20170131
TableName	Actflag	Created	Changed	ScChgID	SecID	ISIN	DateofChange	SecOldName	SecNewName	EventType	OldSectyCD	NewSectyCD	OldRegS144A	NewRegS144A	Notes
SCCHG	I	2016/01/06	2016/01/06	507004	4654373	HK0000274099	2015/11/30	3.40% BD REDEEM 30/11/2020 CNY	3.40% BD REDEEM 30/11/2020 CNY 500000	CORR					
SCCHG	I	2016/02/25	2016/02/25	517257	4707583	XS1370951490	2016/02/23	2% MTN REDEEM 24/02/2020 USD 2000 - Ser 860	2% NT REDEEM 24/02/2020 USD 2000 - Ser 860						
SCCHG	I	2016/06/10	2016/06/10	539090	4782199	DE000HLB3B59	2016/05/20	0.40% BD REDEEM 19/05/2022 EUR	0.40% BD REDEEM 19/05/2022 EUR 1000	CORR					
SCCHG	I	2016/09/07	2016/09/07	554550	4283813	XS1075180379	2014/06/12	6.45% BD REDEEM 11/06/2034 USD 200000 - Ser C	6.45% NT REDEEM 11/06/2034 USD 200000 - Ser C						
EDI_ENDOFFILE
